数电实验/8/simulation/qsim/LED_Control.msim.vcd
$comment
	File created using the following command:
		vcd file LED_Control.msim.vcd -direction
$end
$date
	Sat Jun 01 23:24:25 2024
$end
$version
	ModelSim Version 10.1d
$end
$timescale
	1ps
$end
$scope module LED_Control_vlg_vec_tst $end
$var reg 1 ! button $end
$var reg 1 " clk $end
$var reg 1 # rst $end
$var wire 1 $ led $end
$var wire 1 % sampler $end
$scope module i1 $end
$var wire 1 & gnd $end
$var wire 1 ' vcc $end
$var wire 1 ( unknown $end
$var tri1 1 ) devclrn $end
$var tri1 1 * devpor $end
$var tri1 1 + devoe $end
$var wire 1 , led~output_o $end
$var wire 1 - clk~input_o $end
$var wire 1 . clk~inputclkctrl_outclk $end
$var wire 1 / button~input_o $end
$var wire 1 0 button_sync_0~feeder_combout $end
$var wire 1 1 button_sync_0~q $end
$var wire 1 2 button_sync_1~feeder_combout $end
$var wire 1 3 button_sync_1~q $end
$var wire 1 4 button_prev~feeder_combout $end
$var wire 1 5 rst~input_o $end
$var wire 1 6 rst~inputclkctrl_outclk $end
$var wire 1 7 button_prev~q $end
$var wire 1 8 Selector0~0_combout $end
$var wire 1 9 state.IDLE~q $end
$var wire 1 : Selector1~0_combout $end
$var wire 1 ; state.LED_ON~q $end
$var wire 1 < Selector2~0_combout $end
$var wire 1 = state.LED_BLINK_SLOW~q $end
$var wire 1 > Selector3~0_combout $end
$var wire 1 ? state.LED_BLINK_FAST~q $end
$var wire 1 @ counter[0]~66_combout $end
$var wire 1 A counter[1]~22_combout $end
$var wire 1 B counter[1]~23 $end
$var wire 1 C counter[2]~24_combout $end
$var wire 1 D counter[2]~25 $end
$var wire 1 E counter[3]~26_combout $end
$var wire 1 F counter[3]~27 $end
$var wire 1 G counter[4]~28_combout $end
$var wire 1 H counter[4]~29 $end
$var wire 1 I counter[5]~30_combout $end
$var wire 1 J counter[5]~31 $end
$var wire 1 K counter[6]~32_combout $end
$var wire 1 L counter[6]~33 $end
$var wire 1 M counter[7]~34_combout $end
$var wire 1 N counter[7]~35 $end
$var wire 1 O counter[8]~36_combout $end
$var wire 1 P counter[8]~37 $end
$var wire 1 Q counter[9]~38_combout $end
$var wire 1 R counter[9]~39 $end
$var wire 1 S counter[10]~40_combout $end
$var wire 1 T counter[10]~41 $end
$var wire 1 U counter[11]~42_combout $end
$var wire 1 V counter[11]~43 $end
$var wire 1 W counter[12]~44_combout $end
$var wire 1 X counter[12]~45 $end
$var wire 1 Y counter[13]~46_combout $end
$var wire 1 Z counter[13]~47 $end
$var wire 1 [ counter[14]~48_combout $end
$var wire 1 \ counter[14]~49 $end
$var wire 1 ] counter[15]~50_combout $end
$var wire 1 ^ counter[15]~51 $end
$var wire 1 _ counter[16]~52_combout $end
$var wire 1 ` counter[16]~53 $end
$var wire 1 a counter[17]~54_combout $end
$var wire 1 b counter[17]~55 $end
$var wire 1 c counter[18]~56_combout $end
$var wire 1 d counter[18]~57 $end
$var wire 1 e counter[19]~58_combout $end
$var wire 1 f counter[19]~59 $end
$var wire 1 g counter[20]~60_combout $end
$var wire 1 h led~3_combout $end
$var wire 1 i counter[20]~61 $end
$var wire 1 j counter[21]~62_combout $end
$var wire 1 k counter[21]~63 $end
$var wire 1 l counter[22]~64_combout $end
$var wire 1 m led~4_combout $end
$var wire 1 n counter [23] $end
$var wire 1 o counter [22] $end
$var wire 1 p counter [21] $end
$var wire 1 q counter [20] $end
$var wire 1 r counter [19] $end
$var wire 1 s counter [18] $end
$var wire 1 t counter [17] $end
$var wire 1 u counter [16] $end
$var wire 1 v counter [15] $end
$var wire 1 w counter [14] $end
$var wire 1 x counter [13] $end
$var wire 1 y counter [12] $end
$var wire 1 z counter [11] $end
$var wire 1 { counter [10] $end
$var wire 1 | counter [9] $end
$var wire 1 } counter [8] $end
$var wire 1 ~ counter [7] $end
$var wire 1 !! counter [6] $end
$var wire 1 "! counter [5] $end
$var wire 1 #! counter [4] $end
$var wire 1 $! counter [3] $end
$var wire 1 %! counter [2] $end
$var wire 1 &! counter [1] $end
$var wire 1 '! counter [0] $end
$upscope $end
$upscope $end
$enddefinitions $end
#0
$dumpvars
0!
0"
0#
0$
x%
0&
1'
x(
1)
1*
1+
0,
0-
0.
0/
00
01
02
03
04
05
06
07
08
09
0:
0;
0<
0=
0>
0?
1@
0A
0B
0C
1D
0E
0F
0G
1H
0I
0J
0K
1L
0M
0N
0O
1P
0Q
0R
0S
1T
0U
0V
0W
1X
0Y
0Z
0[
1\
0]
0^
0_
1`
0a
0b
0c
1d
0e
0f
0g
0h
1i
0j
0k
0l
0m
0'!
0&!
0%!
0$!
0#!
0"!
0!!
0~
0}
0|
0{
0z
0y
0x
0w
0v
0u
0t
0s
0r
0q
0p
0o
zn
$end
#5000
1"
1-
1.
0%
1'!
1A
0@
#10000
0"
0-
0.
1%
#15000
1"
1-
1.
0%
1&!
0'!
1@
#20000
0"
0-
0.
1%
#25000
1"
1-
1.
0%
1'!
1B
0A
0@
1C
#30000
0"
0-
0.
1%
#35000
1"
1-
1.
0%
1%!
0&!
0'!
0D
0C
0B
1@
1E
1D
1C
0E
#40000
1!
0"
1/
0-
0.
1%
10
#45000
1"
1-
1.
0%
1'!
11
1A
0@
12
#50000
0"
0-
0.
1%
#55000
1"
1-
1.
0%
1&!
0'!
13
1@
1:
18
14
#60000
0"
0-
0.
1%
#65000
1"
1-
1.
0%
1'!
1;
19
17
1B
0A
0@
1h
0D
0C
1m
1E
1,
1$
#70000
0"
0-
0.
1%
#75000
1"
1-
1.
0%
1$!
0%!
0&!
0'!
1F
0E
1D
1C
0B
1@
1G
0F
1E
0C
0G
#80000
0"
0-
0.
1%
#85000
1"
1-
1.
0%
1'!
1A
0@
#90000
0!
0"
0/
0-
0.
1%
00
#95000
1"
1-
1.
0%
1&!
0'!
01
1@
02
#100000
0"
0-
0.
1%
#105000
1"
1-
1.
0%
1'!
03
1B
0A
0@
04
1C
#110000
0"
0-
0.
1%
#115000
1"
1-
1.
0%
1%!
0&!
0'!
07
0D
0C
0B
1@
1F
0E
1D
1C
1G
0F
1E
0G
#120000
0"
0-
0.
1%
#125000
1"
1-
1.
0%
1'!
1A
0@
#130000
0"
0-
0.
1%
#135000
1"
1-
1.
0%
1&!
0'!
1@
#140000
0"
0-
0.
1%
#145000
1"
1-
1.
0%
1'!
1B
0A
0@
0D
0C
1F
0E
1G
#150000
0"
0-
0.
1%
#155000
1"
1-
1.
0%
1#!
0$!
0%!
0&!
0'!
0H
0G
0F
1E
1D
1C
0B
1@
1I
1H
1G
0E
0C
0I
#160000
0"
0-
0.
1%
#165000
1"
1-
1.
0%
1'!
1A
0@
#170000
0"
0-
0.
1%
#175000
1"
1-
1.
0%
1&!
0'!
1@
#180000
0"
0-
0.
1%
#185000
1"
1-
1.
0%
1'!
1B
0A
0@
1C
#190000
0"
0-
0.
1%
#195000
1"
1-
1.
0%
1%!
0&!
0'!
0D
0C
0B
1@
1E
1D
1C
0E
#200000
0"
0-
0.
1%
#205000
1"
1-
1.
0%
1'!
1A
0@
#210000
0"
0-
0.
1%
#215000
1"
1-
1.
0%
1&!
0'!
1@
#220000
0"
0-
0.
1%
#225000
1"
1-
1.
0%
1'!
1B
0A
0@
0D
0C
1E
#230000
0"
0-
0.
1%
#235000
1"
1-
1.
0%
1$!
0%!
0&!
0'!
1F
0E
1D
1C
0B
1@
0H
0G
0F
1E
0C
1I
1H
1G
0I
#240000
0"
0-
0.
1%
#245000
1"
1-
1.
0%
1'!
1A
0@
#250000
0"
0-
0.
1%
#255000
1"
1-
1.
0%
1&!
0'!
1@
#260000
0"
0-
0.
1%
#265000
1"
1-
1.
0%
1'!
1B
0A
0@
1C
#270000
0"
0-
0.
1%
#275000
1"
1-
1.
0%
1%!
0&!
0'!
0D
0C
0B
1@
1F
0E
1D
1C
0H
0G
0F
1E
1I
1H
1G
0I
#280000
0"
0-
0.
1%
#285000
1"
1-
1.
0%
1'!
1A
0@
#290000
0"
0-
0.
1%
#295000
1"
1-
1.
0%
1&!
0'!
1@
#300000
0"
0-
0.
1%
#305000
1"
1-
1.
0%
1'!
1B
0A
0@
0D
0C
1F
0E
0H
0G
1I
#310000
0"
0-
0.
1%
#315000
1"
1-
1.
0%
1"!
0#!
0$!
0%!
0&!
0'!
1J
0I
1H
1G
0F
1E
1D
1C
0B
1@
1K
0J
1I
0G
0E
0C
0K
#320000
1!
0"
1/
0-
0.
1%
10
#325000
1"
1-
1.
0%
1'!
11
1A
0@
12
#330000
0"
0-
0.
1%
#335000
1"
1-
1.
0%
1&!
0'!
13
1@
1<
0:
14
#340000
0"
0-
0.
1%
#345000
1"
1-
1.
0%
1'!
1=
0;
17
1B
0A
0@
0h
1C
0m
0,
0$
#350000
0!
0"
0/
0-
0.
1%
00
#355000
1"
1-
1.
0%
1%!
0&!
0'!
01
0D
0C
0B
1@
02
1E
1D
1C
0E
#360000
0"
0-
0.
1%
#365000
1"
1-
1.
0%
1'!
03
1A
0@
04
#370000
0"
0-
0.
1%
#375000
1"
1-
1.
0%
1&!
0'!
07
1@
#380000
0"
0-
0.
1%
#385000
1"
1-
1.
0%
1'!
1B
0A
0@
0D
0C
1E
#390000
0"
0-
0.
1%
#395000
1"
1-
1.
0%
1$!
0%!
0&!
0'!
1F
0E
1D
1C
0B
1@
1G
0F
1E
0C
0G
#400000
0"
0-
0.
1%
#405000
1"
1-
1.
0%
1'!
1A
0@
#410000
0"
0-
0.
1%
#415000
1"
1-
1.
0%
1&!
0'!
1@
#420000
0"
0-
0.
1%
#425000
1"
1-
1.
0%
1'!
1B
0A
0@
1C
#430000
0"
0-
0.
1%
#435000
1"
1-
1.
0%
1%!
0&!
0'!
0D
0C
0B
1@
1F
0E
1D
1C
1G
0F
1E
0G
#440000
0"
0-
0.
1%
#445000
1"
1-
1.
0%
1'!
1A
0@
#450000
0"
0-
0.
1%
#455000
1"
1-
1.
0%
1&!
0'!
1@
#460000
0"
0-
0.
1%
#465000
1"
1-
1.
0%
1'!
1B
0A
0@
0D
0C
1F
0E
1G
#470000
0"
0-
0.
1%
#475000
1"
1-
1.
0%
1#!
0$!
0%!
0&!
0'!
0H
0G
0F
1E
1D
1C
0B
1@
1J
0I
1H
1G
0E
0C
1K
0J
1I
0K
#480000
0"
0-
0.
1%
#485000
1"
1-
1.
0%
1'!
1A
0@
#490000
0"
0-
0.
1%
#495000
1"
1-
1.
0%
1&!
0'!
1@
#500000
0"
0-
0.
1%
#505000
1"
1-
1.
0%
1'!
1B
0A
0@
1C
#510000
0"
0-
0.
1%
#515000
1"
1-
1.
0%
1%!
0&!
0'!
0D
0C
0B
1@
1E
1D
1C
0E
#520000
0"
0-
0.
1%
#525000
1"
1-
1.
0%
1'!
1A
0@
#530000
1!
0"
1/
0-
0.
1%
10
#535000
1"
1-
1.
0%
1&!
0'!
11
1@
12
#540000
0"
0-
0.
1%
#545000
1"
1-
1.
0%
1'!
13
1B
0A
0@
1>
0<
14
0D
0C
1E
#550000
0"
0-
0.
1%
#555000
1"
1-
1.
0%
1$!
0%!
0&!
0'!
1?
0=
17
1F
0E
1D
1C
0B
1@
0H
0G
0F
1E
0C
1J
0I
1H
1G
1K
0J
1I
0K
#560000
0"
0-
0.
1%
#565000
1"
1-
1.
0%
1'!
1A
0@
#570000
0"
0-
0.
1%
#575000
1"
1-
1.
0%
1&!
0'!
1@
#580000
0"
0-
0.
1%
#585000
1"
1-
1.
0%
1'!
1B
0A
0@
1C
#590000
0"
0-
0.
1%
#595000
1"
1-
1.
0%
1%!
0&!
0'!
0D
0C
0B
1@
1F
0E
1D
1C
0H
0G
0F
1E
1J
0I
1H
1G
1K
0J
1I
0K
#600000
0"
0-
0.
1%
#605000
1"
1-
1.
0%
1'!
1A
0@
#610000
0"
0-
0.
1%
#615000
1"
1-
1.
0%
1&!
0'!
1@
#620000
0"
0-
0.
1%
#625000
1"
1-
1.
0%
1'!
1B
0A
0@
0D
0C
1F
0E
0H
0G
1J
0I
1K
#630000
0"
0-
0.
1%
#635000
1"
1-
1.
0%
1!!
0"!
0#!
0$!
0%!
0&!
0'!
0L
0K
0J
1I
1H
1G
0F
1E
1D
1C
0B
1@
1M
1L
1K
0I
0G
0E
0C
0M
#640000
0"
0-
0.
1%
#645000
1"
1-
1.
0%
1'!
1A
0@
#650000
0"
0-
0.
1%
#655000
1"
1-
1.
0%
1&!
0'!
1@
#660000
0"
0-
0.
1%
#665000
1"
1-
1.
0%
1'!
1B
0A
0@
1C
#670000
0"
0-
0.
1%
#675000
1"
1-
1.
0%
1%!
0&!
0'!
0D
0C
0B
1@
1E
1D
1C
0E
#680000
0"
0-
0.
1%
#685000
1"
1-
1.
0%
1'!
1A
0@
#690000
0"
0-
0.
1%
#695000
1"
1-
1.
0%
1&!
0'!
1@
#700000
0"
0-
0.
1%
#705000
1"
1-
1.
0%
1'!
1B
0A
0@
0D
0C
1E
#710000
0"
0-
0.
1%
#715000
1"
1-
1.
0%
1$!
0%!
0&!
0'!
1F
0E
1D
1C
0B
1@
1G
0F
1E
0C
0G
#720000
0"
0-
0.
1%
#725000
1"
1-
1.
0%
1'!
1A
0@
#730000
0"
0-
0.
1%
#735000
1"
1-
1.
0%
1&!
0'!
1@
#740000
0"
0-
0.
1%
#745000
1"
1-
1.
0%
1'!
1B
0A
0@
1C
#750000
0"
0-
0.
1%
#755000
1"
1-
1.
0%
1%!
0&!
0'!
0D
0C
0B
1@
1F
0E
1D
1C
1G
0F
1E
0G
#760000
0"
0-
0.
1%
#765000
1"
1-
1.
0%
1'!
1A
0@
#770000
0"
0-
0.
1%
#775000
1"
1-
1.
0%
1&!
0'!
1@
#780000
0"
0-
0.
1%
#785000
1"
1-
1.
0%
1'!
1B
0A
0@
0D
0C
1F
0E
1G
#790000
0"
0-
0.
1%
#795000
1"
1-
1.
0%
1#!
0$!
0%!
0&!
0'!
0H
0G
0F
1E
1D
1C
0B
1@
1I
1H
1G
0E
0C
0I
#800000
0"
0-
0.
1%
#805000
1"
1-
1.
0%
1'!
1A
0@
#810000
0"
0-
0.
1%
#815000
1"
1-
1.
0%
1&!
0'!
1@
#820000
0!
0"
0/
0-
0.
1%
00
#825000
1"
1-
1.
0%
1'!
01
1B
0A
0@
02
1C
#830000
0"
0-
0.
1%
#835000
1"
1-
1.
0%
1%!
0&!
0'!
03
0D
0C
0B
1@
04
1E
1D
1C
0E
#840000
0"
0-
0.
1%
#845000
1"
1-
1.
0%
1'!
07
1A
0@
#850000
0"
0-
0.
1%
#855000
1"
1-
1.
0%
1&!
0'!
1@
#860000
0"
0-
0.
1%
#865000
1"
1-
1.
0%
1'!
1B
0A
0@
0D
0C
1E
#870000
0"
0-
0.
1%
#875000
1"
1-
1.
0%
1$!
0%!
0&!
0'!
1F
0E
1D
1C
0B
1@
0H
0G
0F
1E
0C
1I
1H
1G
0I
#880000
0"
0-
0.
1%
#885000
1"
1-
1.
0%
1'!
1A
0@
#890000
0"
0-
0.
1%
#895000
1"
1-
1.
0%
1&!
0'!
1@
#900000
0"
0-
0.
1%
#905000
1"
1-
1.
0%
1'!
1B
0A
0@
1C
#910000
0"
0-
0.
1%
#915000
1"
1-
1.
0%
1%!
0&!
0'!
0D
0C
0B
1@
1F
0E
1D
1C
0H
0G
0F
1E
1I
1H
1G
0I
#920000
0"
0-
0.
1%
#925000
1"
1-
1.
0%
1'!
1A
0@
#930000
0"
0-
0.
1%
#935000
1"
1-
1.
0%
1&!
0'!
1@
#940000
0"
0-
0.
1%
#945000
1"
1-
1.
0%
1'!
1B
0A
0@
0D
0C
1F
0E
0H
0G
1I
#950000
0"
0-
0.
1%
#955000
1"
1-
1.
0%
1"!
0#!
0$!
0%!
0&!
0'!
1J
0I
1H
1G
0F
1E
1D
1C
0B
1@
0L
0K
0J
1I
0G
0E
0C
1M
1L
1K
0M
#960000
0"
0-
0.
1%
#965000
1"
1-
1.
0%
1'!
1A
0@
#970000
0"
0-
0.
1%
#975000
1"
1-
1.
0%
1&!
0'!
1@
#980000
0"
0-
0.
1%
#985000
1"
1-
1.
0%
1'!
1B
0A
0@
1C
#990000
0"
0-
0.
1%
#995000
1"
1-
1.
0%
1%!
0&!
0'!
0D
0C
0B
1@
1E
1D
1C
0E
