计组实验/computerExercise/task8/simulation/qsim/task8.msim.vcd
$comment
	File created using the following command:
		vcd file task8.msim.vcd -direction
$end
$date
	Tue Mar 11 20:22:12 2025
$end
$version
	ModelSim Version 10.1d
$end
$timescale
	1ps
$end
$scope module task8_vlg_vec_tst $end
$var reg 1 ! I0 $end
$var reg 1 " I1 $end
$var reg 1 # I2 $end
$var reg 1 $ I3 $end
$var reg 1 % LDRI $end
$var reg 1 & RD_B $end
$var reg 1 ' RJ_B $end
$var reg 1 ( RS_B $end
$var wire 1 ) LDR0 $end
$var wire 1 * LDR1 $end
$var wire 1 + LDR2 $end
$var wire 1 , R0_B $end
$var wire 1 - R1_B $end
$var wire 1 . R2_B $end
$var wire 1 / sampler $end
$scope module i1 $end
$var wire 1 0 gnd $end
$var wire 1 1 vcc $end
$var wire 1 2 unknown $end
$var tri1 1 3 devclrn $end
$var tri1 1 4 devpor $end
$var tri1 1 5 devoe $end
$var wire 1 6 LDR0~output_o $end
$var wire 1 7 LDR1~output_o $end
$var wire 1 8 LDR2~output_o $end
$var wire 1 9 R0_B~output_o $end
$var wire 1 : R1_B~output_o $end
$var wire 1 ; R2_B~output_o $end
$var wire 1 < I0~input_o $end
$var wire 1 = LDRI~input_o $end
$var wire 1 > I1~input_o $end
$var wire 1 ? b2v_inst|33~combout $end
$var wire 1 @ b2v_inst|34~combout $end
$var wire 1 A b2v_inst|35~combout $end
$var wire 1 B I3~input_o $end
$var wire 1 C RS_B~input_o $end
$var wire 1 D RD_B~input_o $end
$var wire 1 E R0_B~0_combout $end
$var wire 1 F I2~input_o $end
$var wire 1 G R0_B~1_combout $end
$var wire 1 H b2v_inst1|34~combout $end
$var wire 1 I R1_B~0_combout $end
$var wire 1 J b2v_inst1|35~combout $end
$var wire 1 K RJ_B~input_o $end
$var wire 1 L b2v_inst2|33~0_combout $end
$var wire 1 M R2_B~0_combout $end
$upscope $end
$upscope $end
$enddefinitions $end
#0
$dumpvars
0!
0"
0#
1$
0%
1&
1'
0(
1)
0*
0+
0,
0-
0.
x/
00
11
x2
13
14
15
16
07
08
09
0:
0;
0<
0=
0>
1?
0@
0A
1B
0C
1D
0E
0F
0G
0H
0I
0J
1K
1L
1M
$end
#5000
1#
0$
0'
1F
0B
0K
0/
0L
1I
1:
1-
#10000
1!
1(
1$
1<
1C
1B
1/
1@
0?
0I
17
06
0:
1*
0)
0-
#15000
0&
0#
0$
0D
0F
0B
0/
1H
1I
1:
1-
#20000
0!
1&
0<
1D
1/
0H
0@
1?
07
16
0*
1)
0I
0:
0-
#25000
0(
1#
0C
1F
0/
1I
1:
1-
#30000
1"
1$
1!
0&
1(
0#
1>
1B
1<
0D
1C
0F
1/
0?
0I
06
0:
0)
0-
#35000
0!
0(
0<
0C
0/
1J
1L
1A
0M
18
1+
1;
1.
#40000
1'
0"
0$
1&
1K
0>
0B
1D
1/
1M
0J
0A
1?
1G
0;
08
16
19
0.
0+
1)
1,
#45000
1!
1(
1"
1$
1<
1C
1>
1B
0/
0L
0?
0G
06
09
0)
0,
#50000
1#
0&
0$
1F
0D
0B
1/
#55000
0'
0"
0#
1&
0K
0>
0F
1D
0/
1@
17
1*
#60000
0(
1$
1'
1"
1#
0&
0C
1B
1K
1>
1F
0D
1/
0@
07
0*
#65000
0!
0"
1&
0<
0>
1D
0/
1?
16
1)
#70000
0$
0#
1"
0&
0B
0F
1>
0D
1/
1L
1J
1G
1A
0?
19
18
06
1,
1+
0)
#75000
0'
1!
1#
1&
0K
1<
1F
1D
0/
0M
0J
0L
0A
1I
0G
1M
1;
08
1:
09
1.
0+
1-
0,
0;
0.
#80000
1(
1'
0!
0#
0&
1C
1K
0<
0F
0D
1/
1J
0I
1A
0:
18
0-
1+
#85000
0"
0(
0'
1!
1#
1&
0>
0C
0K
1<
1F
1D
0/
0J
0M
0A
1@
1I
1M
1;
08
17
1:
1.
0+
1*
1-
0;
0.
#90000
1'
0!
0#
1K
0<
0F
1/
1L
0@
1?
0I
1G
07
16
0:
19
0*
1)
0-
1,
#95000
1$
1"
1(
0&
1#
1B
1>
1C
0D
1F
0/
1J
0L
0G
1A
0?
09
18
06
0,
1+
0)
#100000
0'
0(
1&
0K
0C
1D
1/
0M
0J
1M
1;
1.
0;
0.
#105000
1!
0#
1(
1<
0F
1C
0/
0A
08
0+
#110000
0$
0"
0&
0B
0>
0D
1/
1H
1@
17
1*
1I
1:
1-
#115000
1'
1#
0(
1&
1K
1F
0C
1D
0/
0H
#120000
0!
1$
0'
1(
0<
1B
0K
1C
1/
0@
1?
0I
07
16
0:
0*
1)
0-
#125000
1"
0#
0&
1!
1'
0(
1>
0F
0D
1<
1K
0C
0/
1L
0?
06
0)
#130000
0$
1#
0'
0B
1F
0K
1/
0L
1I
1:
1-
#135000
0"
0!
1(
0>
0<
1C
0/
1E
1?
0I
16
0:
1)
0-
1G
19
1,
#140000
1&
1"
0(
1D
1>
0C
1/
0E
1A
0?
1I
18
06
1:
1+
0)
1-
0G
09
0,
#145000
1!
1(
1<
1C
0/
0A
0I
08
0:
0+
0-
#150000
1$
0#
1'
0&
0"
0!
1B
0F
1K
0D
0>
0<
1/
1E
1?
16
1)
1G
19
1,
#155000
0(
0$
0'
1"
1!
0C
0B
0K
1>
1<
0/
1L
0E
0?
06
0)
#160000
1#
1(
0"
1F
1C
0>
1/
0L
1H
0G
1@
09
17
0,
1*
1I
1:
1-
#165000
1&
1$
1"
1D
1B
1>
0/
0H
0@
07
0*
0I
0:
0-
#170000
0&
0D
1/
#175000
0#
0$
1&
0F
0B
1D
0/
#180000
1'
0!
0"
1#
1$
0&
1K
0<
0>
1F
1B
0D
1/
1E
1?
16
1)
1G
19
1,
#185000
0'
1!
1"
0K
1<
1>
0/
0E
0?
06
0)
0G
09
0,
#190000
0$
1'
0!
0"
0B
1K
0<
0>
1/
1E
1?
16
1)
1G
19
1,
#195000
0#
1$
1"
0F
1B
1>
0/
1J
0E
1A
0?
18
06
1+
0)
0G
09
0,
#200000
0(
1&
0'
0$
0"
0C
1D
0K
0B
0>
1/
1L
0J
0M
1G
0A
1?
1M
1;
19
08
16
1.
1,
0+
1)
0;
0.
#205000
1(
0&
1'
1C
0D
1K
0/
0L
1E
0G
09
0,
1G
19
1,
#210000
1$
1"
0(
0'
1B
1>
0C
0K
1/
1J
0E
1L
1A
0?
0M
18
06
1+
0)
0G
1;
09
1.
0,
#215000
1!
1(
1<
1C
0/
0J
0L
0A
1M
08
0+
0;
0.
#220000
1#
0$
0"
0!
0(
1F
0B
0>
0<
0C
1/
1E
1I
1?
1:
16
1-
1)
1G
19
1,
#225000
1&
0#
1"
1!
1D
0F
1>
1<
0/
0E
1L
0I
0?
0:
06
0-
0)
#230000
0&
1#
0D
1F
1/
0L
1I
0G
1:
09
1-
0,
#235000
1'
1$
1(
1&
0#
1K
1B
1C
1D
0F
0/
0I
0:
0-
#240000
0"
0!
0$
0>
0<
0B
1/
1?
16
1)
#245000
0(
1#
1"
1$
0C
1F
1>
1B
0/
1A
0?
18
06
1+
0)
#250000
0&
1(
0D
1C
1/
1J
#255000
0'
1&
0(
0K
1D
0C
0/
0M
0J
1M
1;
1.
0;
0.
#260000
1!
0#
0&
1(
1<
0F
0D
1C
1/
0A
08
0+
#265000
0$
1'
0!
1#
0B
1K
0<
1F
0/
1J
1A
18
1+
#270000
0"
1!
0>
1<
1/
0J
1H
0A
1@
08
17
0+
1*
1I
1:
1-
#275000
1$
0'
1"
1B
0K
1>
0/
0H
0@
07
0*
0I
0:
0-
#280000
1&
0!
0$
1'
0"
1D
0<
0B
1K
0>
1/
1?
16
1)
#285000
1!
1$
0'
1"
1<
1B
0K
1>
0/
0?
06
0)
#290000
0#
0!
0$
1'
0F
0<
0B
1K
1/
1A
18
1+
#295000
1#
1$
1F
1B
0/
#300000
0(
0'
0#
0C
0K
0F
1/
1L
0M
1;
1.
#305000
1!
0$
1#
1<
0B
1F
0/
1M
0L
0A
1I
0;
08
1:
0.
0+
1-
#310000
1'
0#
1K
0F
1/
1L
0I
1G
0:
19
0-
1,
#315000
0"
1(
1$
0'
1#
0>
1C
1B
0K
1F
0/
0L
0M
1@
0G
1M
1;
17
09
1.
1*
0,
0;
0.
#320000
0&
0!
0$
0#
0D
0<
0B
0F
1/
1E
0@
1?
07
16
0*
1)
1G
19
1,
#325000
1'
1K
0/
#330000
1&
1!
1$
1#
1D
1<
1B
1F
1/
0E
1@
0?
17
06
1*
0)
0G
09
0,
#335000
1"
0(
0'
0$
1>
0C
0K
0B
0/
0@
1I
07
1:
0*
1-
#340000
0&
0!
1'
0D
0<
1K
1/
1J
1A
18
1+
#345000
0#
0"
1$
0F
0>
1B
0/
1L
0J
1E
0I
0A
1?
0:
08
16
0-
0+
1)
1G
19
1,
#350000
0'
1#
0$
0K
1F
0B
1/
0L
1I
1:
1-
#355000
1&
1!
1"
1'
1$
1D
1<
1>
1K
1B
0/
0E
0?
0I
06
0:
0)
0-
0G
09
0,
#360000
1(
0!
0"
1C
0<
0>
1/
1?
16
1)
#365000
0#
0&
0'
0$
0(
1!
1"
0F
0D
0K
0B
0C
1<
1>
0/
1L
1G
0?
19
06
1,
0)
#370000
1#
1(
0!
0"
1F
1C
0<
0>
1/
0L
1E
0G
1?
09
16
0,
1)
1G
19
1,
#375000
1&
0#
1"
1D
0F
1>
0/
0E
1A
0?
18
06
1+
0)
0G
09
0,
#380000
1'
1#
1K
1F
1/
#385000
1$
0(
1!
0"
1B
0C
1<
0>
0/
0A
1@
08
17
0+
1*
#390000
0&
0'
0#
0!
0D
0K
0F
0<
1/
1E
1L
0@
1?
0M
07
16
0*
1)
1G
1;
19
1.
1,
#395000
1(
1"
1#
1!
1C
1>
1F
1<
0/
0L
0E
0?
1M
06
0)
0G
0;
09
0.
0,
#400000
0$
1&
1'
0"
0#
0!
0B
1D
1K
0>
0F
0<
1/
1?
16
1)
#405000
0(
1$
0C
1B
0/
1L
#410000
0'
1#
0$
0K
1F
0B
1/
0L
1I
1:
1-
#415000
1"
1(
0#
1>
1C
0F
0/
1A
0?
0I
18
06
0:
1+
0)
0-
#420000
1!
1'
0"
0(
1#
1<
1K
0>
0C
1F
1/
0A
1@
1I
08
17
1:
0+
1*
1-
#425000
0&
0!
1(
0D
0<
1C
0/
1E
0@
1?
0I
07
16
0:
0*
1)
0-
1G
19
1,
#430000
0'
1&
0(
0K
1D
0C
1/
0E
1I
1:
1-
0G
09
0,
#435000
1$
1!
1B
1<
0/
0I
1@
0?
0:
17
06
0-
1*
0)
#440000
1"
0#
1'
0&
1(
0!
1>
0F
1K
0D
1C
0<
1/
1J
1A
0@
18
07
1+
0*
#445000
1#
0'
1&
0(
1F
0K
1D
0C
0/
0M
0J
1M
1;
1.
0;
0.
#450000
0"
1!
1'
0&
0>
1<
1K
0D
1/
1H
0A
1@
08
17
0+
1*
1I
1:
1-
#455000
0$
0#
0!
0'
1&
0B
0F
0<
0K
1D
0/
1L
0H
1G
0@
1?
19
07
16
1,
0*
1)
0I
0:
0-
#460000
1"
1$
1#
1!
1>
1B
1F
1<
1/
0M
0L
0?
0G
1M
1;
06
09
1.
0)
0,
0;
0.
#465000
1'
0"
1K
0>
0/
1@
17
1*
#470000
0&
0#
0!
0'
1"
0D
0F
0<
0K
1>
1/
1J
1L
1A
0@
0M
18
07
1+
0*
1;
1.
#475000
0$
1#
1!
0"
0B
1F
1<
0>
0/
0L
0J
1H
1I
0A
1@
1M
1:
08
17
1-
0+
1*
0;
0.
#480000
1'
1"
1K
1>
1/
0H
0@
07
0*
#485000
1&
1$
1D
1B
0/
0I
0:
0-
#490000
1(
0#
0!
0'
0&
1C
0F
0<
0K
0D
1/
1J
1A
0M
18
1+
1;
1.
#495000
0$
0(
1#
0B
0C
1F
0/
1I
1:
1-
#500000
0"
1'
1&
1$
0>
1K
1D
1B
1/
0J
1M
0A
1?
0I
0;
08
16
0:
0.
0+
1)
0-
#505000
1(
0#
1"
0'
1C
0F
1>
0K
0/
1A
0?
18
06
1+
0)
#510000
1!
0&
0(
1#
0"
1<
0D
0C
1F
0>
1/
1H
0A
1@
08
17
0+
1*
1I
1:
1-
#515000
0$
1'
0!
1&
0B
1K
0<
1D
0/
0H
0@
1?
07
16
0*
1)
#520000
1(
0#
1"
1$
1!
1C
0F
1>
1B
1<
1/
0I
0?
0:
06
0-
0)
#525000
0'
0&
0(
0"
0!
0K
0D
0C
0>
0<
0/
1E
1L
1?
0M
16
1)
1G
1;
19
1.
1,
#530000
0$
1'
1&
1!
0B
1K
1D
1<
1/
1M
0E
1@
0?
0;
17
06
0.
1*
0)
#535000
1#
1(
0'
0&
1F
1C
0K
0D
0/
0L
1H
0G
09
0,
1I
1:
1-
#540000
1"
1$
0#
1&
1>
1B
0F
1D
1/
0H
0@
07
0*
0I
0:
0-
#545000
1'
0"
1#
1K
0>
1F
0/
1@
17
1*
#550000
0!
0(
0$
0&
1"
0#
0<
0C
0B
0D
1>
0F
1/
1J
1L
1A
0@
1G
18
07
19
1+
0*
1,
#555000
1$
1&
0"
1B
1D
0>
0/
0J
0G
0A
1?
09
08
16
0,
0+
1)
#560000
0'
1!
1(
1#
0K
1<
1C
1F
1/
0M
0L
1@
0?
1M
1;
17
06
1.
1*
0)
0;
0.
#565000
0&
0(
0D
0C
0/
1H
1I
1:
1-
#570000
0$
1"
0!
0#
0B
1>
0<
0F
1/
1J
0H
1L
1G
1A
0@
0M
19
18
07
1,
1+
0*
0I
1;
0:
1.
0-
#575000
1'
1$
0"
1!
1K
1B
0>
1<
0/
1M
0J
1H
0G
0A
1@
0;
09
08
17
0.
0,
0+
1*
1I
1:
1-
#580000
1&
1(
0'
1"
1D
1C
0K
1>
1/
0H
0L
0M
0@
1M
1;
07
1.
0*
0I
0;
0:
0.
0-
#585000
1#
0$
0!
0&
1F
0B
0<
0D
0/
1J
1A
0M
18
1+
1;
1.
#590000
1'
0"
0#
1$
1&
1K
0>
0F
1B
1D
1/
1M
0J
0A
1?
0;
08
16
0.
0+
1)
#595000
1!
0'
1"
1#
1<
0K
1>
1F
0/
0?
06
0)
#600000
0$
0&
1'
0"
0#
0B
0D
1K
0>
0F
1/
1H
1@
17
1*
1I
1:
1-
#605000
0!
0'
1"
0<
0K
1>
0/
1J
0H
1A
0@
0M
18
07
1+
0*
0I
1;
0:
1.
0-
#610000
0(
1'
0"
0C
1K
0>
1/
1L
1M
0J
1E
1G
0A
1?
0;
19
08
16
0.
1,
0+
1)
#615000
1$
1&
1!
1(
1B
1D
1<
1C
0/
0E
0L
1@
0?
17
06
1*
0)
0G
09
0,
#620000
1#
0&
0(
1F
0D
0C
1/
1H
1I
1:
1-
#625000
0#
1&
0F
1D
0/
1L
0H
0I
0:
0-
#630000
0'
0!
1(
0K
0<
1C
1/
0M
0L
0@
1?
1M
1;
07
16
1.
0*
1)
0;
0.
#640000
1"
0$
1#
0&
1!
0(
1>
0B
1F
0D
1<
0C
0/
0?
1I
06
1:
0)
1-
#645000
1'
0#
1&
0!
1K
0F
1D
0<
1/
1L
0I
1G
1A
0:
19
18
0-
1,
1+
#655000
0"
1$
1(
0'
0>
1B
1C
0K
0/
0M
0L
0A
1?
0G
1M
1;
08
16
09
1.
0+
1)
0,
0;
0.
#660000
0&
1!
1"
0$
0(
1'
0D
1<
1>
0B
0C
1K
1/
1L
0?
1G
06
19
0)
1,
#665000
0"
1$
0'
0>
1B
0K
0/
1H
0M
1@
0G
1;
17
09
1.
1*
0,
1I
1:
1-
#670000
1&
1"
0$
1'
1D
1>
0B
1K
1/
0H
1M
0@
1G
0;
07
19
0.
0*
1,
0I
0:
0-
#675000
0!
1$
0<
1B
0/
1A
0G
18
09
1+
0,
#680000
1(
0&
0"
0'
0$
1C
0D
0>
0K
0B
1/
0L
1E
0A
1?
08
16
0+
1)
1G
19
1,
#685000
1!
1&
1"
1'
1$
1<
1D
1>
1K
1B
0/
0E
0?
06
0)
0G
09
0,
#690000
1#
0(
0$
1F
0C
0B
1/
1I
1:
1-
#695000
0!
0'
1$
0<
0K
1B
0/
1A
0I
18
0:
1+
0-
#700000
0"
0#
1(
0$
0>
0F
1C
0B
1/
0A
1?
08
16
0+
1)
#705000
1!
1'
1#
1<
1K
1F
0/
1@
0?
17
06
1*
0)
#710000
1"
1$
0#
1>
1B
0F
1/
0@
07
0*
#715000
0&
0(
0'
0$
1#
0D
0C
0K
0B
1F
0/
1I
1:
1-
#720000
1'
1$
0#
1K
1B
0F
1/
1L
0I
0:
0-
#725000
1&
0$
1#
1D
0B
1F
0/
0L
1I
1:
1-
#730000
0!
0<
1/
1A
18
1+
#735000
1$
0#
1B
0F
0/
1L
0I
0:
0-
#740000
0'
0$
0K
0B
1/
1G
19
1,
#745000
0"
1(
1!
1#
1$
0>
1C
1<
1F
1B
0/
0L
0M
0A
1@
0G
1M
1;
08
17
09
1.
0+
1*
0,
0;
0.
#750000
0&
0(
0#
0$
0D
0C
0F
0B
1/
1H
1L
1G
19
1,
1I
1:
1-
#755000
1"
0!
1(
1#
1$
1>
0<
1C
1F
1B
0/
1J
0H
0L
0M
1A
0@
0G
1;
18
07
09
1.
1+
0*
0,
0I
0:
0-
#760000
0"
0(
0#
0>
0C
0F
1/
0J
1E
1L
0A
1?
08
16
0+
1)
1G
19
1,
#765000
1!
0$
1"
1(
1#
1<
0B
1>
1C
1F
0/
0E
1M
0L
0?
0;
06
0.
0)
0G
09
0,
#770000
1'
1&
1$
0"
0(
1K
1D
1B
0>
0C
1/
1@
17
1*
#775000
0!
0'
0&
0$
0<
0K
0D
0B
0/
1E
0@
1?
1I
07
16
1:
0*
1)
1-
1G
19
1,
#780000
0#
1&
0F
1D
1/
1L
0E
0I
0:
0-
#785000
1"
1!
1'
1#
0&
1>
1<
1K
1F
0D
0/
0L
0?
1I
0G
06
1:
09
0)
1-
0,
#790000
1(
1$
0#
1&
1C
1B
0F
1D
1/
0I
0:
0-
#795000
0"
1#
0&
0>
1F
0D
0/
1H
1@
17
1*
1I
1:
1-
#800000
0'
0$
1"
0#
1&
0K
0B
1>
0F
1D
1/
0H
0@
07
0*
0I
0:
0-
#805000
0"
1#
0&
0>
1F
0D
0/
1H
1@
17
1*
1I
1:
1-
#810000
0!
0(
1$
1"
0#
0<
0C
1B
1>
0F
1/
1J
0H
1L
1A
0@
0M
18
07
1+
0*
0I
1;
0:
1.
0-
#815000
1'
0$
0"
1#
1K
0B
0>
1F
0/
1M
0J
1E
0L
1I
0A
1?
0;
1:
08
16
0.
1-
0+
1)
1G
19
1,
#820000
1&
0'
1$
1"
1D
0K
1B
1>
1/
0E
0I
1A
0?
0:
18
06
0-
1+
0)
0G
09
0,
#825000
1(
0#
0&
1'
0$
1C
0F
0D
1K
0B
0/
1J
#830000
1!
0"
1#
0'
1<
0>
1F
0K
1/
0J
1H
0M
0A
1@
1M
1;
08
17
1.
0+
1*
1I
0;
1:
0.
1-
#835000
0(
1$
1"
0#
1'
0C
1B
1>
0F
1K
0/
1L
0H
0@
07
0*
0I
0:
0-
#840000
1&
1(
0$
1D
1C
0B
1/
0L
#845000
0!
0"
1#
0'
1$
0<
0>
1F
0K
1B
0/
1?
16
1)
#850000
0(
1!
0#
0C
1<
0F
1/
1L
1@
0?
0M
17
06
1*
0)
1;
1.
#855000
0&
0$
1(
0D
0B
1C
0/
1H
1M
0L
0;
0.
1I
1:
1-
#860000
0!
1#
1&
0<
1F
1D
1/
0H
0@
1?
07
16
0*
1)
0I
0:
0-
#865000
1'
0(
1!
0&
1K
0C
1<
0D
0/
1H
1I
1@
0?
1:
17
06
1-
1*
0)
#870000
0#
0'
0F
0K
1/
1L
1G
19
1,
#875000
1"
1(
1&
1#
1>
1C
1D
1F
0/
0H
0L
0@
0G
07
09
0*
0,
0I
0:
0-
#880000
0!
0"
0(
0<
0>
0C
1/
1?
1I
16
1:
1)
1-
#885000
1$
1'
0#
1"
1(
1B
1K
0F
1>
1C
0/
0I
1A
0?
0:
18
06
0-
1+
0)
#890000
0&
1!
0D
1<
1/
0A
08
0+
#895000
0$
0(
0!
0B
0C
0<
0/
1L
1J
1G
1A
19
18
1,
1+
#900000
1#
0"
1&
1$
1(
1F
0>
1D
1B
1C
1/
0L
0J
0G
0A
1?
09
08
16
0,
0+
1)
#905000
0'
1!
0(
0K
1<
0C
0/
1@
0?
17
06
1*
0)
#910000
1"
0$
0!
1>
0B
0<
1/
1A
0@
1I
18
07
1:
1+
0*
1-
#915000
0#
0&
0"
0F
0D
0>
0/
1L
1E
0I
1G
0A
1?
0:
19
08
16
0-
1,
0+
1)
#920000
1'
1(
1K
1C
1/
0L
#925000
1$
1!
1"
0'
0(
1B
1<
1>
0K
0C
0/
0E
1L
0?
0M
06
0)
0G
1;
09
1.
0,
#930000
0"
1'
1(
0>
1K
1C
1/
1H
1M
0L
1@
0;
17
0.
1*
1I
1:
1-
#935000
0$
1"
0'
0(
0B
1>
0K
0C
0/
0H
1L
1G
0@
19
07
1,
0*
0I
0:
0-
#940000
1#
1&
0"
1'
1F
1D
0>
1K
1/
0L
1I
0G
1@
1:
09
17
1-
0,
1*
#945000
1(
0#
1"
0'
1C
0F
1>
0K
0/
0I
0@
0:
07
0-
0*
#950000
0&
0"
1'
0D
0>
1K
1/
1H
1@
17
1*
1I
1:
1-
#955000
0!
1$
1&
1"
0<
1B
1D
1>
0/
0H
1A
0@
18
07
1+
0*
0I
0:
0-
#960000
0(
0'
1!
0$
0"
0C
0K
1<
0B
0>
1/
1L
1G
0A
1@
19
08
17
1,
0+
1*
#965000
0&
1$
0D
1B
0/
1H
0M
0G
1;
09
1.
0,
1I
1:
1-
#970000
1'
0!
1"
1&
1K
0<
1>
1D
1/
1M
0H
1A
0@
0;
18
07
0.
1+
0*
0I
0:
0-
#975000
0$
0"
0B
0>
0/
1G
0A
1?
19
08
16
1,
0+
1)
#980000
1#
0&
1"
1F
0D
1>
1/
0L
1J
1I
0G
1A
0?
1:
09
18
06
1-
0,
1+
0)
#985000
1(
1!
0#
0"
1C
1<
0F
0>
0/
0J
1H
0I
0A
1@
0:
08
17
0-
0+
1*
1I
1:
1-
#990000
1&
1D
1/
0H
0I
0:
0-
#995000
1$
0(
0!
1"
0&
1B
0C
0<
1>
0D
0/
1L
1J
1A
0@
18
07
1+
0*
