数电实验/project1/simulation/qsim/pr1.msim.vcd
$comment
	File created using the following command:
		vcd file pr1.msim.vcd -direction
$end
$date
	Sun Apr 21 09:30:29 2024
$end
$version
	ModelSim Version 10.1d
$end
$timescale
	1ps
$end
$scope module pr1_vlg_vec_tst $end
$var reg 1 ! A0 $end
$var reg 1 " A1 $end
$var reg 1 # A2 $end
$var reg 1 $ A3 $end
$var reg 1 % B0 $end
$var reg 1 & B1 $end
$var reg 1 ' B2 $end
$var reg 1 ( B3 $end
$var reg 1 ) Cin $end
$var wire 1 * Cout $end
$var wire 1 + S0 $end
$var wire 1 , S1 $end
$var wire 1 - S2 $end
$var wire 1 . S3 $end
$var wire 1 / sampler $end
$scope module i1 $end
$var wire 1 0 gnd $end
$var wire 1 1 vcc $end
$var wire 1 2 unknown $end
$var tri1 1 3 devclrn $end
$var tri1 1 4 devpor $end
$var tri1 1 5 devoe $end
$var wire 1 6 S0~output_o $end
$var wire 1 7 S1~output_o $end
$var wire 1 8 S2~output_o $end
$var wire 1 9 S3~output_o $end
$var wire 1 : Cout~output_o $end
$var wire 1 ; Cin~input_o $end
$var wire 1 < A0~input_o $end
$var wire 1 = B0~input_o $end
$var wire 1 > inst11~0_combout $end
$var wire 1 ? inst14~0_combout $end
$var wire 1 @ A1~input_o $end
$var wire 1 A inst14~1_combout $end
$var wire 1 B B1~input_o $end
$var wire 1 C inst16~combout $end
$var wire 1 D inst19~0_combout $end
$var wire 1 E B2~input_o $end
$var wire 1 F A2~input_o $end
$var wire 1 G inst21~0_combout $end
$var wire 1 H A3~input_o $end
$var wire 1 I B3~input_o $end
$var wire 1 J inst24~1_combout $end
$var wire 1 K inst24~0_combout $end
$var wire 1 L inst26~combout $end
$var wire 1 M inst29~0_combout $end
$upscope $end
$upscope $end
$enddefinitions $end
#0
$dumpvars
0!
0"
0#
0$
0%
0&
0'
0(
0)
0*
0+
0,
0-
0.
x/
00
11
x2
13
14
15
06
07
08
09
0:
0;
0<
0=
0>
0?
0@
0A
0B
0C
0D
0E
0F
0G
0H
0I
0J
0K
0L
0M
$end
#10000
1%
1=
0/
1>
16
1+
#20000
1&
0%
1B
0=
1/
1C
0>
17
06
1,
0+
#30000
1%
1=
0/
1>
16
1+
#40000
1'
0&
0%
1E
0B
0=
1/
1G
0C
0>
18
07
06
1-
0,
0+
#50000
1%
1=
0/
1>
16
1+
#60000
1&
0%
1B
0=
1/
1C
0>
17
06
1,
0+
#70000
1%
1=
0/
1>
16
1+
#80000
1(
0'
0&
0%
1I
0E
0B
0=
1/
1L
0G
0C
0>
19
08
07
06
1.
0-
0,
0+
#90000
1%
1=
0/
1>
16
1+
#100000
1&
0%
1B
0=
1/
1C
0>
17
06
1,
0+
#110000
1%
1=
0/
1>
16
1+
#120000
1'
0&
0%
1E
0B
0=
1/
1G
0C
0>
18
07
06
1-
0,
0+
#130000
1%
1=
0/
1>
16
1+
#140000
1&
0%
1B
0=
1/
1C
0>
17
06
1,
0+
#150000
1%
1=
0/
1>
16
1+
#160000
1!
0(
0'
0&
0%
1<
0I
0E
0B
0=
1/
0L
0G
0C
09
08
07
0.
0-
0,
#170000
1%
1=
0/
1?
0>
06
0+
1C
17
1,
#180000
1&
0%
1B
0=
1/
1D
0?
0C
1>
0D
07
16
0,
1+
1G
1C
18
17
1-
1,
0G
08
0-
#190000
1%
1=
0/
1?
0>
1D
06
0+
0C
07
0,
1G
18
1-
#200000
1'
0&
0%
1E
0B
0=
1/
1J
0D
0?
0G
1C
1>
0J
08
17
16
0-
1,
1+
1L
1G
0C
19
18
07
1.
1-
0,
0L
09
0.
#210000
1%
1=
0/
1?
0>
06
0+
1C
17
1,
#220000
1&
0%
1B
0=
1/
1D
0?
0C
1>
1J
0D
07
16
0,
1+
0G
1C
0J
08
17
0-
1,
1L
1G
19
18
1.
1-
0L
09
0.
#230000
1%
1=
0/
1?
0>
1D
06
0+
0C
1J
07
0,
0G
08
0-
1L
19
1.
#240000
1(
0'
0&
0%
1I
0E
0B
0=
1/
0J
0D
0?
1M
0L
1G
1C
1>
1:
09
18
17
16
1*
0.
1-
1,
1+
0M
1L
0G
0C
0:
19
08
07
0*
1.
0-
0,
#250000
1%
1=
0/
1?
0>
06
0+
1C
17
1,
#260000
1&
0%
1B
0=
1/
1D
0?
0C
1>
0D
07
16
0,
1+
1G
1C
18
17
1-
1,
0G
08
0-
#270000
1%
1=
0/
1?
0>
1D
06
0+
0C
07
0,
1G
18
1-
#280000
1'
0&
0%
1E
0B
0=
1/
1J
0D
0?
0G
1C
1>
0J
08
17
16
0-
1,
1+
1M
0L
1G
0C
1:
09
18
07
1*
0.
1-
0,
0M
1L
0:
19
0*
1.
#290000
1%
1=
0/
1?
0>
06
0+
1C
17
1,
#300000
1&
0%
1B
0=
1/
1D
0?
0C
1>
1J
0D
07
16
0,
1+
0G
1C
0J
08
17
0-
1,
1M
0L
1G
1:
09
18
1*
0.
1-
0M
1L
0:
19
0*
1.
#310000
1%
1=
0/
1?
0>
1D
06
0+
0C
1J
07
0,
0G
08
0-
1M
0L
1:
09
1*
0.
#320000
1"
0!
0(
0'
0&
0%
1@
0<
0I
0E
0B
0=
1/
0?
0J
0M
1L
1G
0D
0:
19
18
0*
1.
1-
1C
0L
17
09
1,
0.
0G
08
0-
#330000
1%
1=
0/
1>
16
1+
#340000
1&
0%
1B
0=
1/
1D
0C
0>
07
06
0,
0+
1G
18
1-
#350000
1%
1=
0/
1>
16
1+
#360000
1'
0&
0%
1E
0B
0=
1/
1J
0D
0G
1C
0>
0J
08
17
06
0-
1,
0+
1L
1G
19
18
1.
1-
0L
09
0.
#370000
1%
1=
0/
1>
16
1+
#380000
1&
0%
1B
0=
1/
1D
0C
0>
1J
07
06
0,
0+
0G
08
0-
1L
19
1.
#390000
1%
1=
0/
1>
16
1+
#400000
1(
0'
0&
0%
1I
0E
0B
0=
1/
0J
0D
1M
0L
1G
1C
0>
1:
09
18
17
06
1*
0.
1-
1,
0+
0M
1L
0G
0:
19
08
0*
1.
0-
#410000
1%
1=
0/
1>
16
1+
#420000
1&
0%
1B
0=
1/
1D
0C
0>
07
06
0,
0+
1G
18
1-
#430000
1%
1=
0/
1>
16
1+
#440000
1'
0&
0%
1E
0B
0=
1/
1J
0D
0G
1C
0>
0J
08
17
06
0-
1,
0+
1M
0L
1G
1:
09
18
1*
0.
1-
0M
1L
0:
19
0*
1.
#450000
1%
1=
0/
1>
16
1+
#460000
1&
0%
1B
0=
1/
1D
0C
0>
1J
07
06
0,
0+
0G
08
0-
1M
0L
1:
09
1*
0.
#470000
1%
1=
0/
1>
16
1+
#480000
1!
0(
0'
0&
0%
1<
0I
0E
0B
0=
1/
0J
0D
0M
1L
1G
1C
0:
19
18
17
0*
1.
1-
1,
0L
0G
09
08
0.
0-
#490000
1%
1=
0/
1?
0>
1D
06
0+
0C
07
0,
1G
18
1-
#500000
1&
0%
1B
0=
1/
0?
1C
1>
17
16
1,
1+
0C
07
0,
#510000
1%
1=
0/
1?
0>
06
0+
1C
17
1,
#520000
1'
0&
0%
1E
0B
0=
1/
1J
0?
0G
0C
1>
0D
08
07
16
0-
0,
1+
1L
1C
0J
19
17
1.
1,
1G
18
1-
0L
09
0.
#530000
1%
1=
0/
1?
0>
1D
06
0+
0C
1J
07
0,
0G
08
0-
1L
19
1.
#540000
1&
0%
1B
0=
1/
0?
1C
1>
17
16
1,
1+
0C
07
0,
#550000
1%
1=
0/
1?
0>
06
0+
1C
17
1,
#560000
1(
0'
0&
0%
1I
0E
0B
0=
1/
0J
0?
1M
0L
1G
0C
1>
0D
1:
09
18
07
16
1*
0.
1-
0,
1+
0M
1L
1C
0:
19
17
0*
1.
1,
0G
08
0-
#570000
1%
1=
0/
1?
0>
1D
06
0+
0C
07
0,
1G
18
1-
#580000
1&
0%
1B
0=
1/
0?
1C
1>
17
16
1,
1+
0C
07
0,
#590000
1%
1=
0/
1?
0>
06
0+
1C
17
1,
#600000
1'
0&
0%
1E
0B
0=
1/
1J
0?
0G
0C
1>
0D
08
07
16
0-
0,
1+
1M
0L
1C
0J
1:
09
17
1*
0.
1,
1G
18
1-
0M
1L
0:
19
0*
1.
#610000
1%
1=
0/
1?
0>
1D
06
0+
0C
1J
07
0,
0G
08
0-
1M
0L
1:
09
1*
0.
#620000
1&
0%
1B
0=
1/
0?
1C
1>
17
16
1,
1+
0C
07
0,
#630000
1%
1=
0/
1?
0>
06
0+
1C
17
1,
#640000
1#
0"
0!
0(
0'
0&
0%
1F
0@
0<
0I
0E
0B
0=
1/
0D
0?
0M
1L
0J
0:
19
0*
1.
1G
0C
18
07
1-
0,
0L
09
0.
#650000
1%
1=
0/
1>
16
1+
#660000
1&
0%
1B
0=
1/
1C
0>
17
06
1,
0+
#670000
1%
1=
0/
1>
16
1+
#680000
1'
0&
0%
1E
0B
0=
1/
1K
0G
0C
0>
08
07
06
0-
0,
0+
1L
19
1.
#690000
1%
1=
0/
1>
16
1+
#700000
1&
0%
1B
0=
1/
1C
0>
17
06
1,
0+
#710000
1%
1=
0/
1>
16
1+
#720000
1(
0'
0&
0%
1I
0E
0B
0=
1/
0K
1M
0L
1G
0C
0>
1:
09
18
07
06
1*
0.
1-
0,
0+
0M
1L
0:
19
0*
1.
#730000
1%
1=
0/
1>
16
1+
#740000
1&
0%
1B
0=
1/
1C
0>
17
06
1,
0+
#750000
1%
1=
0/
1>
16
1+
#760000
1'
0&
0%
1E
0B
0=
1/
1K
0G
0C
0>
08
07
06
0-
0,
0+
1M
0L
1:
09
1*
0.
#770000
1%
1=
0/
1>
16
1+
#780000
1&
0%
1B
0=
1/
1C
0>
17
06
1,
0+
#790000
1%
1=
0/
1>
16
1+
#800000
1!
0(
0'
0&
0%
1<
0I
0E
0B
0=
1/
0K
0M
1L
1G
0C
0:
19
18
07
0*
1.
1-
0,
0L
09
0.
#810000
1%
1=
0/
1?
0>
06
0+
1C
17
1,
#820000
1&
0%
1B
0=
1/
1D
0?
0C
1>
1J
0D
07
16
0,
1+
0G
1C
0J
08
17
0-
1,
1L
1G
19
18
1.
1-
0L
09
0.
#830000
1%
1=
0/
1?
0>
1D
06
0+
0C
1J
07
0,
0G
08
0-
1L
19
1.
#840000
1'
0&
0%
1E
0B
0=
1/
1K
0D
0?
1G
1C
1>
0J
18
17
16
1-
1,
1+
0G
0C
08
07
0-
0,
#850000
1%
1=
0/
1?
0>
06
0+
1C
17
1,
#860000
1&
0%
1B
0=
1/
1D
0?
0C
1>
1J
0D
07
16
0,
1+
1G
1C
0J
18
17
1-
1,
0G
08
0-
#870000
1%
1=
0/
1?
0>
1D
06
0+
0C
1J
07
0,
1G
18
1-
#880000
1(
0'
0&
0%
1I
0E
0B
0=
1/
0K
0D
0?
1M
0L
0G
1C
1>
0J
1:
09
08
17
16
1*
0.
0-
1,
1+
1G
0C
18
07
1-
0,
0M
1L
0:
19
0*
1.
#890000
1%
1=
0/
1?
0>
06
0+
1C
17
1,
#900000
1&
0%
1B
0=
1/
1D
0?
0C
1>
1J
0D
07
16
0,
1+
0G
1C
0J
08
17
0-
1,
1M
0L
1G
1:
09
18
1*
0.
1-
0M
1L
0:
19
0*
1.
#910000
1%
1=
0/
1?
0>
1D
06
0+
0C
1J
07
0,
0G
08
0-
1M
0L
1:
09
1*
0.
#920000
1'
0&
0%
1E
0B
0=
1/
1K
0D
0?
1G
1C
1>
0J
18
17
16
1-
1,
1+
0G
0C
08
07
0-
0,
#930000
1%
1=
0/
1?
0>
06
0+
1C
17
1,
#940000
1&
0%
1B
0=
1/
1D
0?
0C
1>
1J
0D
07
16
0,
1+
1G
1C
0J
18
17
1-
1,
0G
08
0-
#950000
1%
1=
0/
1?
0>
1D
06
0+
0C
1J
07
0,
1G
18
1-
#960000
1"
0!
0(
0'
0&
0%
1@
0<
0I
0E
0B
0=
1/
0?
0K
0M
1L
0G
0D
0:
19
08
0*
1.
0-
1C
0J
17
1,
1G
18
1-
0L
09
0.
#970000
1%
1=
0/
1>
16
1+
#980000
1&
0%
1B
0=
1/
1D
0C
0>
1J
07
06
0,
0+
0G
08
0-
1L
19
1.
#990000
1%
1=
0/
1>
16
1+
