数电实验/project5/simulation/qsim/fif0_.msim.vcd
$comment
	File created using the following command:
		vcd file fif0_.msim.vcd -direction
$end
$date
	Sun May 26 11:49:06 2024
$end
$version
	ModelSim Version 10.1d
$end
$timescale
	1ps
$end
$scope module fif0__vlg_vec_tst $end
$var reg 1 ! clk $end
$var reg 8 " data_in [7:0] $end
$var reg 1 # rd_en $end
$var reg 1 $ rstn $end
$var reg 1 % wr_en $end
$var wire 1 & data_out [7] $end
$var wire 1 ' data_out [6] $end
$var wire 1 ( data_out [5] $end
$var wire 1 ) data_out [4] $end
$var wire 1 * data_out [3] $end
$var wire 1 + data_out [2] $end
$var wire 1 , data_out [1] $end
$var wire 1 - data_out [0] $end
$var wire 1 . empty $end
$var wire 1 / full $end
$var wire 1 0 sampler $end
$scope module i1 $end
$var wire 1 1 gnd $end
$var wire 1 2 vcc $end
$var wire 1 3 unknown $end
$var tri1 1 4 devclrn $end
$var tri1 1 5 devpor $end
$var tri1 1 6 devoe $end
$var wire 1 7 data_out[0]~output_o $end
$var wire 1 8 data_out[1]~output_o $end
$var wire 1 9 data_out[2]~output_o $end
$var wire 1 : data_out[3]~output_o $end
$var wire 1 ; data_out[4]~output_o $end
$var wire 1 < data_out[5]~output_o $end
$var wire 1 = data_out[6]~output_o $end
$var wire 1 > data_out[7]~output_o $end
$var wire 1 ? full~output_o $end
$var wire 1 @ empty~output_o $end
$var wire 1 A clk~input_o $end
$var wire 1 B clk~inputclkctrl_outclk $end
$var wire 1 C rd_en~input_o $end
$var wire 1 D fifo_count[0]~9_combout $end
$var wire 1 E rstn~input_o $end
$var wire 1 F rstn~inputclkctrl_outclk $end
$var wire 1 G fifo_count[8]~27_combout $end
$var wire 1 H fifo_count[0]~10 $end
$var wire 1 I fifo_count[1]~11_combout $end
$var wire 1 J fifo_count[1]~12 $end
$var wire 1 K fifo_count[2]~13_combout $end
$var wire 1 L fifo_count[2]~14 $end
$var wire 1 M fifo_count[3]~15_combout $end
$var wire 1 N fifo_count[3]~16 $end
$var wire 1 O fifo_count[4]~17_combout $end
$var wire 1 P fifo_count[4]~18 $end
$var wire 1 Q fifo_count[5]~19_combout $end
$var wire 1 R fifo_count[5]~20 $end
$var wire 1 S fifo_count[6]~21_combout $end
$var wire 1 T fifo_count[6]~22 $end
$var wire 1 U fifo_count[7]~23_combout $end
$var wire 1 V Equal0~1_combout $end
$var wire 1 W Equal0~0_combout $end
$var wire 1 X always0~0_combout $end
$var wire 1 Y fifo_count[7]~24 $end
$var wire 1 Z fifo_count[8]~25_combout $end
$var wire 1 [ wr_en~input_o $end
$var wire 1 \ always0~1_combout $end
$var wire 1 ] data_in[0]~input_o $end
$var wire 1 ^ r_ptr[0]~21_combout $end
$var wire 1 _ w_ptr[0]~7_combout $end
$var wire 1 ` comb~0_combout $end
$var wire 1 a r_ptr[1]~7_combout $end
$var wire 1 b w_ptr[1]~8_combout $end
$var wire 1 c comb~1_combout $end
$var wire 1 d w_ptr[1]~9 $end
$var wire 1 e w_ptr[2]~10_combout $end
$var wire 1 f r_ptr[1]~8 $end
$var wire 1 g r_ptr[2]~9_combout $end
$var wire 1 h comb~2_combout $end
$var wire 1 i w_ptr[2]~11 $end
$var wire 1 j w_ptr[3]~12_combout $end
$var wire 1 k r_ptr[2]~10 $end
$var wire 1 l r_ptr[3]~11_combout $end
$var wire 1 m comb~3_combout $end
$var wire 1 n w_ptr[3]~13 $end
$var wire 1 o w_ptr[4]~14_combout $end
$var wire 1 p r_ptr[3]~12 $end
$var wire 1 q r_ptr[4]~13_combout $end
$var wire 1 r comb~4_combout $end
$var wire 1 s w_ptr[4]~15 $end
$var wire 1 t w_ptr[5]~16_combout $end
$var wire 1 u r_ptr[4]~14 $end
$var wire 1 v r_ptr[5]~15_combout $end
$var wire 1 w comb~5_combout $end
$var wire 1 x r_ptr[5]~16 $end
$var wire 1 y r_ptr[6]~17_combout $end
$var wire 1 z w_ptr[5]~17 $end
$var wire 1 { w_ptr[6]~18_combout $end
$var wire 1 | comb~6_combout $end
$var wire 1 } w_ptr[6]~19 $end
$var wire 1 ~ w_ptr[7]~20_combout $end
$var wire 1 !! r_ptr[6]~18 $end
$var wire 1 "! r_ptr[7]~19_combout $end
$var wire 1 #! comb~7_combout $end
$var wire 1 $! data_in[1]~input_o $end
$var wire 1 %! data_in[2]~input_o $end
$var wire 1 &! data_in[3]~input_o $end
$var wire 1 '! data_in[4]~input_o $end
$var wire 1 (! data_in[5]~input_o $end
$var wire 1 )! data_in[6]~input_o $end
$var wire 1 *! data_in[7]~input_o $end
$var wire 1 +! Equal0~2_combout $end
$var wire 1 ,! Equal1~0_combout $end
$var wire 1 -! w_ptr [7] $end
$var wire 1 .! w_ptr [6] $end
$var wire 1 /! w_ptr [5] $end
$var wire 1 0! w_ptr [4] $end
$var wire 1 1! w_ptr [3] $end
$var wire 1 2! w_ptr [2] $end
$var wire 1 3! w_ptr [1] $end
$var wire 1 4! w_ptr [0] $end
$var wire 1 5! fifo_count [8] $end
$var wire 1 6! fifo_count [7] $end
$var wire 1 7! fifo_count [6] $end
$var wire 1 8! fifo_count [5] $end
$var wire 1 9! fifo_count [4] $end
$var wire 1 :! fifo_count [3] $end
$var wire 1 ;! fifo_count [2] $end
$var wire 1 <! fifo_count [1] $end
$var wire 1 =! fifo_count [0] $end
$var wire 1 >! r_ptr [7] $end
$var wire 1 ?! r_ptr [6] $end
$var wire 1 @! r_ptr [5] $end
$var wire 1 A! r_ptr [4] $end
$var wire 1 B! r_ptr [3] $end
$var wire 1 C! r_ptr [2] $end
$var wire 1 D! r_ptr [1] $end
$var wire 1 E! r_ptr [0] $end
$var wire 1 F! myram_inst|altsyncram_component|auto_generated|q_a [7] $end
$var wire 1 G! myram_inst|altsyncram_component|auto_generated|q_a [6] $end
$var wire 1 H! myram_inst|altsyncram_component|auto_generated|q_a [5] $end
$var wire 1 I! myram_inst|altsyncram_component|auto_generated|q_a [4] $end
$var wire 1 J! myram_inst|altsyncram_component|auto_generated|q_a [3] $end
$var wire 1 K! myram_inst|altsyncram_component|auto_generated|q_a [2] $end
$var wire 1 L! myram_inst|altsyncram_component|auto_generated|q_a [1] $end
$var wire 1 M! myram_inst|altsyncram_component|auto_generated|q_a [0] $end
$var wire 1 N! data_out_reg [7] $end
$var wire 1 O! data_out_reg [6] $end
$var wire 1 P! data_out_reg [5] $end
$var wire 1 Q! data_out_reg [4] $end
$var wire 1 R! data_out_reg [3] $end
$var wire 1 S! data_out_reg [2] $end
$var wire 1 T! data_out_reg [1] $end
$var wire 1 U! data_out_reg [0] $end
$var wire 1 V! myram_inst|altsyncram_component|auto_generated|ram_block1a0_PORTADATAOUT_bus [17] $end
$var wire 1 W! myram_inst|altsyncram_component|auto_generated|ram_block1a0_PORTADATAOUT_bus [16] $end
$var wire 1 X! myram_inst|altsyncram_component|auto_generated|ram_block1a0_PORTADATAOUT_bus [15] $end
$var wire 1 Y! myram_inst|altsyncram_component|auto_generated|ram_block1a0_PORTADATAOUT_bus [14] $end
$var wire 1 Z! myram_inst|altsyncram_component|auto_generated|ram_block1a0_PORTADATAOUT_bus [13] $end
$var wire 1 [! myram_inst|altsyncram_component|auto_generated|ram_block1a0_PORTADATAOUT_bus [12] $end
$var wire 1 \! myram_inst|altsyncram_component|auto_generated|ram_block1a0_PORTADATAOUT_bus [11] $end
$var wire 1 ]! myram_inst|altsyncram_component|auto_generated|ram_block1a0_PORTADATAOUT_bus [10] $end
$var wire 1 ^! myram_inst|altsyncram_component|auto_generated|ram_block1a0_PORTADATAOUT_bus [9] $end
$var wire 1 _! myram_inst|altsyncram_component|auto_generated|ram_block1a0_PORTADATAOUT_bus [8] $end
$var wire 1 `! myram_inst|altsyncram_component|auto_generated|ram_block1a0_PORTADATAOUT_bus [7] $end
$var wire 1 a! myram_inst|altsyncram_component|auto_generated|ram_block1a0_PORTADATAOUT_bus [6] $end
$var wire 1 b! myram_inst|altsyncram_component|auto_generated|ram_block1a0_PORTADATAOUT_bus [5] $end
$var wire 1 c! myram_inst|altsyncram_component|auto_generated|ram_block1a0_PORTADATAOUT_bus [4] $end
$var wire 1 d! myram_inst|altsyncram_component|auto_generated|ram_block1a0_PORTADATAOUT_bus [3] $end
$var wire 1 e! myram_inst|altsyncram_component|auto_generated|ram_block1a0_PORTADATAOUT_bus [2] $end
$var wire 1 f! myram_inst|altsyncram_component|auto_generated|ram_block1a0_PORTADATAOUT_bus [1] $end
$var wire 1 g! myram_inst|altsyncram_component|auto_generated|ram_block1a0_PORTADATAOUT_bus [0] $end
$upscope $end
$upscope $end
$enddefinitions $end
#0
$dumpvars
0!
b0 "
0#
0$
0%
0-
0,
0+
0*
0)
0(
0'
0&
1.
0/
x0
01
12
x3
14
15
16
07
08
09
0:
0;
0<
0=
0>
0?
1@
0A
0B
0C
1D
0E
0F
0G
0H
0I
1J
0K
0L
0M
1N
0O
0P
0Q
1R
0S
0T
0U
1V
1W
0X
1Y
0Z
0[
1\
0]
1^
0_
0`
0a
0b
0c
0d
0e
0f
0g
0h
1i
0j
1k
0l
0m
0n
0o
0p
0q
0r
1s
0t
1u
0v
0w
0x
0y
0z
0{
0|
1}
0~
1!!
0"!
0#!
0$!
0%!
0&!
0'!
0(!
0)!
0*!
0+!
1,!
04!
03!
02!
01!
00!
0/!
0.!
0-!
0=!
0<!
0;!
0:!
09!
08!
07!
06!
05!
0E!
0D!
0C!
0B!
0A!
0@!
0?!
0>!
0M!
0L!
0K!
0J!
0I!
0H!
0G!
0F!
0U!
0T!
0S!
0R!
0Q!
0P!
0O!
0N!
0g!
0f!
0e!
0d!
0c!
0b!
0a!
0`!
0_!
0^!
0]!
0\!
0[!
0Z!
0Y!
0X!
0W!
0V!
$end
#1000
b1 "
1]
00
#2000
b11 "
b10 "
0]
1$!
10
#2500
1!
1A
1B
00
#3000
b11 "
1]
10
#4000
b111 "
b101 "
b100 "
0]
0$!
1%!
00
#5000
0!
b101 "
0A
1]
0B
10
#6000
b111 "
b110 "
0]
1$!
00
#7000
b111 "
1]
10
#7500
1!
1A
1B
00
#8000
b1111 "
b1011 "
b1001 "
b1000 "
0]
0$!
0%!
1&!
10
#9000
b1001 "
1]
00
#10000
1$
1%
0!
b1011 "
b1010 "
1E
1[
0A
0]
1$!
1F
0B
10
0\
1_
1G
#11000
b1011 "
1]
00
#12000
b1111 "
b1101 "
b1100 "
0]
0$!
1%!
10
#12500
1!
1A
1B
00
14!
1=!
1b
1`
0_
0W
1H
0D
1I
0,!
0@
0.
#13000
b1101 "
1]
10
#14000
b1111 "
b1110 "
0]
1$!
00
#15000
1#
0%
0!
b1111 "
1C
0[
0A
1]
0B
10
1X
1\
0`
1Z
1U
1S
1Q
1O
1M
1K
0J
0I
1_
1L
0K
0N
0M
1P
0O
0R
0Q
1T
0S
0Y
0U
0Z
#16000
b11111 "
b10111 "
b10011 "
b10001 "
b10000 "
0]
0$!
0%!
0&!
1'!
00
#17000
b10001 "
1]
10
#17500
1!
1A
1B
00
1E!
0=!
1e!
1d!
1K!
1J!
1a
1`
0^
1W
0H
1D
0X
1J
1I
1,!
1Z
1Y
1U
0T
1S
1R
1Q
0P
1O
1N
1M
0L
0I
0G
1@
1.
0Z
0U
0S
0Q
0O
0M
#18000
b10011 "
b10010 "
0]
1$!
10
#19000
b10011 "
1]
00
#20000
0#
1%
b10111 "
0!
b10101 "
b10100 "
0C
1[
0]
0$!
1%!
0A
0B
10
0\
0_
1G
#21000
b10101 "
1]
00
#22000
b10111 "
b10110 "
0]
1$!
10
#22500
1!
1A
1B
00
13!
04!
1=!
1c
0`
1_
0W
1H
0D
1I
0,!
0@
0.
#23000
b10111 "
1]
10
#24000
b11111 "
b11011 "
b11001 "
b11000 "
0]
0$!
0%!
1&!
00
#25000
1#
0%
0!
b11001 "
1C
0[
0A
1]
0B
10
1X
1\
0c
1`
1Z
1U
1S
1Q
1O
1M
1K
0J
0I
0_
1L
0K
0N
0M
1P
0O
0R
0Q
1T
0S
0Y
0U
0Z
#26000
b11011 "
b11010 "
0]
1$!
00
#27000
b11011 "
1]
10
#27500
1!
1A
1B
00
1D!
0E!
0=!
1f!
0d!
1c!
1L!
0J!
1I!
1R!
1S!
1c
0`
1^
1W
0H
1D
1:
19
1*
1+
0X
1J
1I
1,!
1Z
1Y
1U
0T
1S
1R
1Q
0P
1O
1N
1M
0L
0I
0G
1@
1.
0Z
0U
0S
0Q
0O
0M
#28000
b11111 "
b11101 "
b11100 "
0]
0$!
1%!
10
#29000
b11101 "
1]
00
#30000
0#
1%
0!
b11111 "
b11110 "
0C
1[
0A
0]
1$!
0B
10
0\
1_
1G
#31000
b11111 "
1]
00
#32000
b111111 "
b101111 "
b100111 "
b100011 "
b100001 "
b100000 "
0]
0$!
0%!
0&!
0'!
1(!
10
#32500
1!
1A
1B
00
14!
1=!
1d
0b
1`
0_
0W
1H
0D
1e
1I
0,!
0@
0.
#33000
b100001 "
1]
10
#34000
b100011 "
b100010 "
0]
1$!
00
#35000
1#
0%
0!
b100011 "
1C
0[
0A
1]
0B
10
1X
1\
0`
1Z
1U
1S
1Q
1O
1M
1K
0J
0I
1_
1L
0K
0N
0M
1P
0O
0R
0Q
1T
0S
0Y
0U
0Z
#36000
b100111 "
b100101 "
b100100 "
0]
0$!
1%!
00
#37000
b100101 "
1]
10
#37500
1!
1A
1B
00
1E!
0=!
0f!
0e!
0c!
1b!
0L!
0K!
0I!
1H!
1Q!
0R!
1T!
1f
0a
1`
0^
1W
0H
1D
1;
0:
18
1)
0*
1,
1g
0X
1J
1I
1,!
1Z
1Y
1U
0T
1S
1R
1Q
0P
1O
1N
1M
0L
0I
0G
1@
1.
0Z
0U
0S
0Q
0O
0M
#38000
b100111 "
b100110 "
0]
1$!
10
#39000
b100111 "
1]
00
#40000
b101111 "
0#
1%
b101011 "
0!
b101001 "
b101000 "
0]
0$!
0%!
1&!
0C
1[
0A
0B
10
0\
0_
1G
#41000
b101001 "
1]
00
#42000
b101011 "
b101010 "
0]
1$!
10
#42500
1!
1A
1B
00
12!
03!
04!
1=!
1h
0i
0e
0c
0d
0`
1_
0W
1H
0D
1j
1i
1e
1I
0,!
0j
0@
0.
#43000
b101011 "
1]
10
#44000
b101111 "
b101101 "
b101100 "
0]
0$!
1%!
00
#45000
1#
0%
0!
b101101 "
1C
0[
0A
1]
0B
10
1X
1\
0h
1c
1`
1Z
1U
1S
1Q
1O
1M
1K
0J
0I
0_
1L
0K
0N
0M
1P
0O
0R
0Q
1T
0S
0Y
0U
0Z
#46000
b101111 "
b101110 "
0]
1$!
00
#47000
b101111 "
1]
10
#47500
1!
1A
1B
00
1C!
0D!
0E!
0=!
1f!
1d!
1L!
1J!
1P!
0Q!
0S!
0T!
1h
0k
0g
0c
0f
0`
1^
1W
0H
1D
1<
0;
09
08
1(
0)
0+
0,
1l
1k
1g
0X
1J
1I
1,!
0l
1Z
1Y
1U
0T
1S
1R
1Q
0P
1O
1N
1M
0L
0I
0G
1@
1.
0Z
0U
0S
0Q
0O
0M
#48000
b111111 "
b110111 "
b110011 "
b110001 "
b110000 "
0]
0$!
0%!
0&!
1'!
10
#49000
b110001 "
1]
00
#50000
0#
1%
0!
b110011 "
b110010 "
0C
1[
0A
0]
1$!
0B
10
0\
1_
1G
#51000
b110011 "
1]
00
#52000
b110111 "
b110101 "
b110100 "
0]
0$!
1%!
10
#52500
1!
1A
1B
00
14!
1=!
1b
1`
0_
0W
1H
0D
1I
0,!
0@
0.
#53000
b110101 "
1]
10
#54000
b110111 "
b110110 "
0]
1$!
00
#55000
1#
0%
0!
b110111 "
1C
0[
0A
1]
0B
10
1X
1\
0`
1Z
1U
1S
1Q
1O
1M
1K
0J
0I
1_
1L
0K
0N
0M
1P
0O
0R
0Q
1T
0S
0Y
0U
0Z
#56000
b111111 "
b111011 "
b111001 "
b111000 "
0]
0$!
0%!
1&!
00
#57000
b111001 "
1]
10
#57500
1!
1A
1B
00
1E!
0=!
0f!
1e!
0d!
1c!
0L!
1K!
0J!
1I!
1R!
1T!
1a
1`
0^
1W
0H
1D
1:
18
1*
1,
0X
1J
1I
1,!
1Z
1Y
1U
0T
1S
1R
1Q
0P
1O
1N
1M
0L
0I
0G
1@
1.
0Z
0U
0S
0Q
0O
0M
#58000
b111011 "
b111010 "
0]
1$!
10
#59000
b111011 "
1]
00
#60000
0#
1%
b111111 "
0!
b111101 "
b111100 "
0C
1[
0]
0$!
1%!
0A
0B
10
0\
0_
1G
#61000
b111101 "
1]
00
#62000
b111111 "
b111110 "
0]
1$!
10
#62500
1!
1A
1B
00
13!
04!
1=!
1c
0`
1_
0W
1H
0D
1I
0,!
0@
0.
#63000
b111111 "
1]
10
#64000
b1111111 "
b1011111 "
b1001111 "
b1000111 "
b1000011 "
b1000001 "
b1000000 "
0]
0$!
0%!
0&!
0'!
0(!
1)!
00
#65000
1#
0%
0!
b1000001 "
1C
0[
0A
1]
0B
10
1X
1\
0c
1`
1Z
1U
1S
1Q
1O
1M
1K
0J
0I
0_
1L
0K
0N
0M
1P
0O
0R
0Q
1T
0S
0Y
0U
0Z
#66000
b1000011 "
b1000010 "
0]
1$!
00
#67000
b1000011 "
1]
10
#67500
1!
1A
1B
00
1D!
0E!
0=!
1f!
1d!
1L!
1J!
1Q!
0R!
1S!
0T!
1c
0`
1^
1W
0H
1D
1;
0:
19
08
1)
0*
1+
0,
0X
1J
1I
1,!
1Z
1Y
1U
0T
1S
1R
1Q
0P
1O
1N
1M
0L
0I
0G
1@
1.
0Z
0U
0S
0Q
0O
0M
#68000
b1000111 "
b1000101 "
b1000100 "
0]
0$!
1%!
10
#69000
b1000101 "
1]
00
#70000
0#
1%
0!
b1000111 "
b1000110 "
0C
1[
0A
0]
1$!
0B
10
0\
1_
1G
#71000
b1000111 "
1]
00
#72000
b1001111 "
b1001011 "
b1001001 "
b1001000 "
0]
0$!
0%!
1&!
10
#72500
1!
1A
1B
00
14!
1=!
1d
0b
1`
0_
0W
1H
0D
0i
0e
1I
0,!
1j
0@
0.
#73000
b1001001 "
1]
10
#74000
b1001011 "
b1001010 "
0]
1$!
00
#75000
1#
0%
0!
b1001011 "
1C
0[
0A
1]
0B
10
1X
1\
0`
1Z
1U
1S
1Q
1O
1M
1K
0J
0I
1_
1L
0K
0N
0M
1P
0O
0R
0Q
1T
0S
0Y
0U
0Z
#76000
b1001111 "
b1001101 "
b1001100 "
0]
0$!
1%!
00
#77000
b1001101 "
1]
10
#77500
1!
1A
1B
00
1E!
0=!
0f!
0e!
0c!
0b!
1a!
0L!
0K!
0I!
0H!
1G!
1R!
1T!
1f
0a
1`
0^
1W
0H
1D
1:
18
1*
1,
0k
0g
0X
1J
1I
1,!
1l
1Z
1Y
1U
0T
1S
1R
1Q
0P
1O
1N
1M
0L
0I
0G
1@
1.
0Z
0U
0S
0Q
0O
0M
#78000
b1001111 "
b1001110 "
0]
1$!
10
#79000
b1001111 "
1]
00
#80000
b1011111 "
b1010111 "
0#
1%
b1010011 "
0!
b1010001 "
b1010000 "
0]
0$!
0%!
0&!
1'!
0C
1[
0A
0B
10
0\
0_
1G
#81000
b1010001 "
1]
00
#82000
b1010011 "
b1010010 "
0]
1$!
10
#82500
1!
1A
1B
00
11!
02!
03!
04!
1=!
1m
1n
0j
0h
1i
1e
0c
0d
0`
1_
0W
1H
0D
1o
0n
1j
0e
1I
0,!
0o
0@
0.
#83000
b1010011 "
1]
10
#84000
b1010111 "
b1010101 "
b1010100 "
0]
0$!
1%!
00
#85000
1#
0%
0!
b1010101 "
1C
0[
0A
1]
0B
10
1X
1\
0m
1h
1c
1`
1Z
1U
1S
1Q
1O
1M
1K
0J
0I
0_
1L
0K
0N
0M
1P
0O
0R
0Q
1T
0S
0Y
0U
0Z
#86000
b1010111 "
b1010110 "
0]
1$!
00
#87000
b1010111 "
1]
10
#87500
1!
1A
1B
00
1B!
0C!
0D!
0E!
0=!
1f!
0d!
1c!
1L!
0J!
1I!
1O!
0P!
0Q!
0S!
0T!
1m
1p
0l
0h
1k
1g
0c
0f
0`
1^
1W
0H
1D
1=
0<
0;
09
08
1'
0(
0)
0+
0,
1q
0p
1l
0g
0X
1J
1I
1,!
0q
1Z
1Y
1U
0T
1S
1R
1Q
0P
1O
1N
1M
0L
0I
0G
1@
1.
0Z
0U
0S
0Q
0O
0M
#88000
b1011111 "
b1011011 "
b1011001 "
b1011000 "
0]
0$!
0%!
1&!
10
#89000
b1011001 "
1]
00
#90000
0#
1%
0!
b1011011 "
b1011010 "
0C
1[
0A
0]
1$!
0B
10
0\
1_
1G
#91000
b1011011 "
1]
00
#92000
b1011111 "
b1011101 "
b1011100 "
0]
0$!
1%!
10
#92500
1!
1A
1B
00
14!
1=!
1b
1`
0_
0W
1H
0D
1I
0,!
0@
0.
#93000
b1011101 "
1]
10
#94000
b1011111 "
b1011110 "
0]
1$!
00
#95000
1#
0%
0!
b1011111 "
1C
0[
0A
1]
0B
10
1X
1\
0`
1Z
1U
1S
1Q
1O
1M
1K
0J
0I
1_
1L
0K
0N
0M
1P
0O
0R
0Q
1T
0S
0Y
0U
0Z
#96000
b1111111 "
b1101111 "
b1100111 "
b1100011 "
b1100001 "
b1100000 "
0]
0$!
0%!
0&!
0'!
1(!
00
#97000
b1100001 "
1]
10
#97500
1!
1A
1B
00
1E!
0=!
0f!
1e!
1d!
0L!
1K!
1J!
1Q!
0R!
1T!
1a
1`
0^
1W
0H
1D
1;
0:
18
1)
0*
1,
0X
1J
1I
1,!
1Z
1Y
1U
0T
1S
1R
1Q
0P
1O
1N
1M
0L
0I
0G
1@
1.
0Z
0U
0S
0Q
0O
0M
#98000
b1100011 "
b1100010 "
0]
1$!
10
#99000
b1100011 "
1]
00
#100000
0#
1%
b1100111 "
0!
b1100101 "
b1100100 "
0C
1[
0]
0$!
1%!
0A
0B
10
0\
0_
1G
#101000
b1100101 "
1]
00
#102000
b1100111 "
b1100110 "
0]
1$!
10
#102500
1!
1A
1B
00
13!
04!
1=!
1c
0`
1_
0W
1H
0D
1I
0,!
0@
0.
#103000
b1100111 "
1]
10
#104000
b1101111 "
b1101011 "
b1101001 "
b1101000 "
0]
0$!
0%!
1&!
00
#105000
1#
0%
0!
b1101001 "
1C
0[
0A
1]
0B
10
1X
1\
0c
1`
1Z
1U
1S
1Q
1O
1M
1K
0J
0I
0_
1L
0K
0N
0M
1P
0O
0R
0Q
1T
0S
0Y
0U
0Z
#106000
b1101011 "
b1101010 "
0]
1$!
00
#107000
b1101011 "
1]
10
#107500
1!
1A
1B
00
1D!
0E!
0=!
1f!
0d!
0c!
1b!
1L!
0J!
0I!
1H!
1R!
1S!
0T!
1c
0`
1^
1W
0H
1D
1:
19
08
1*
1+
0,
0X
1J
1I
1,!
1Z
1Y
1U
0T
1S
1R
1Q
0P
1O
1N
1M
0L
0I
0G
1@
1.
0Z
0U
0S
0Q
0O
0M
#108000
b1101111 "
b1101101 "
b1101100 "
0]
0$!
1%!
10
#109000
b1101101 "
1]
00
#110000
0#
1%
0!
b1101111 "
b1101110 "
0C
1[
0A
0]
1$!
0B
10
0\
1_
1G
#111000
b1101111 "
1]
00
#112000
b1111111 "
b1110111 "
b1110011 "
b1110001 "
b1110000 "
0]
0$!
0%!
0&!
1'!
10
#112500
1!
1A
1B
00
14!
1=!
1d
0b
1`
0_
0W
1H
0D
1e
1I
0,!
0@
0.
#113000
b1110001 "
1]
10
#114000
b1110011 "
b1110010 "
0]
1$!
00
#115000
1#
0%
0!
b1110011 "
1C
0[
0A
1]
0B
10
1X
1\
0`
1Z
1U
1S
1Q
1O
1M
1K
0J
0I
1_
1L
0K
0N
0M
1P
0O
0R
0Q
1T
0S
0Y
0U
0Z
#116000
b1110111 "
b1110101 "
b1110100 "
0]
0$!
1%!
00
#117000
b1110101 "
1]
10
#117500
1!
1A
1B
00
1E!
0=!
0f!
0e!
1c!
0L!
0K!
1I!
1P!
0Q!
0R!
1T!
1f
0a
1`
0^
1W
0H
1D
1<
0;
0:
18
1(
0)
0*
1,
1g
0X
1J
1I
1,!
1Z
1Y
1U
0T
1S
1R
1Q
0P
1O
1N
1M
0L
0I
0G
1@
1.
0Z
0U
0S
0Q
0O
0M
#118000
b1110111 "
b1110110 "
0]
1$!
10
#119000
b1110111 "
1]
00
#120000
b1111111 "
0#
1%
b1111011 "
0!
b1111001 "
b1111000 "
0]
0$!
0%!
1&!
0C
1[
0A
0B
10
0\
0_
1G
#121000
b1111001 "
1]
00
#122000
b1111011 "
b1111010 "
0]
1$!
10
#122500
1!
1A
1B
00
12!
03!
04!
1=!
1h
0i
0e
0c
0d
0`
1_
0W
1H
0D
1n
0j
1i
1e
1I
0,!
1o
0n
1j
0@
0.
0o
#123000
b1111011 "
1]
10
#124000
b1111111 "
b1111101 "
b1111100 "
0]
0$!
1%!
00
#125000
1#
0%
0!
b1111101 "
1C
0[
0A
1]
0B
10
1X
1\
0h
1c
1`
1Z
1U
1S
1Q
1O
1M
1K
0J
0I
0_
1L
0K
0N
0M
1P
0O
0R
0Q
1T
0S
0Y
0U
0Z
#126000
b1111111 "
b1111110 "
0]
1$!
00
#127000
b1111111 "
1]
10
#127500
1!
1A
1B
00
1C!
0D!
0E!
0=!
1f!
1d!
1L!
1J!
1Q!
0S!
0T!
1h
0k
0g
0c
0f
0`
1^
1W
0H
1D
1;
09
08
1)
0+
0,
1p
0l
1k
1g
0X
1J
1I
1,!
1q
0p
1l
1Z
1Y
1U
0T
1S
1R
1Q
0P
1O
1N
1M
0L
0I
0G
1@
1.
0q
0Z
0U
0S
0Q
0O
0M
#128000
b11111111 "
b10111111 "
b10011111 "
b10001111 "
b10000111 "
b10000011 "
b10000001 "
b10000000 "
0]
0$!
0%!
0&!
0'!
0(!
0)!
1*!
10
#129000
b10000001 "
1]
00
#130000
0#
1%
0!
b10000011 "
b10000010 "
0C
1[
0A
0]
1$!
0B
10
0\
1_
1G
#131000
b10000011 "
1]
00
#132000
b10000111 "
b10000101 "
b10000100 "
0]
0$!
1%!
10
#132500
1!
1A
1B
00
14!
1=!
1b
1`
0_
0W
1H
0D
1I
0,!
0@
0.
#133000
b10000101 "
1]
10
#134000
b10000111 "
b10000110 "
0]
1$!
00
#135000
1#
0%
0!
b10000111 "
1C
0[
0A
1]
0B
10
1X
1\
0`
1Z
1U
1S
1Q
1O
1M
1K
0J
0I
1_
1L
0K
0N
0M
1P
0O
0R
0Q
1T
0S
0Y
0U
0Z
#136000
b10001111 "
b10001011 "
b10001001 "
b10001000 "
0]
0$!
0%!
1&!
00
#137000
b10001001 "
1]
10
#137500
1!
1A
1B
00
1E!
0=!
0f!
1e!
0d!
0c!
0b!
0a!
1`!
0L!
1K!
0J!
0I!
0H!
0G!
1F!
1R!
1T!
1a
1`
0^
1W
0H
1D
1:
18
1*
1,
0X
1J
1I
1,!
1Z
1Y
1U
0T
1S
1R
1Q
0P
1O
1N
1M
0L
0I
0G
1@
1.
0Z
0U
0S
0Q
0O
0M
#138000
b10001011 "
b10001010 "
0]
1$!
10
#139000
b10001011 "
1]
00
#140000
0#
1%
b10001111 "
0!
b10001101 "
b10001100 "
0C
1[
0]
0$!
1%!
0A
0B
10
0\
0_
1G
#141000
b10001101 "
1]
00
#142000
b10001111 "
b10001110 "
0]
1$!
10
#142500
1!
1A
1B
00
13!
04!
1=!
1c
0`
1_
0W
1H
0D
1I
0,!
0@
0.
#143000
b10001111 "
1]
10
#144000
b10011111 "
b10010111 "
b10010011 "
b10010001 "
b10010000 "
0]
0$!
0%!
0&!
1'!
00
#145000
1#
0%
0!
b10010001 "
1C
0[
0A
1]
0B
10
1X
1\
0c
1`
1Z
1U
1S
1Q
1O
1M
1K
0J
0I
0_
1L
0K
0N
0M
1P
0O
0R
0Q
1T
0S
0Y
0U
0Z
#146000
b10010011 "
b10010010 "
0]
1$!
00
#147000
b10010011 "
1]
10
#147500
1!
1A
1B
00
1D!
0E!
0=!
1f!
1d!
1L!
1J!
1N!
0O!
0P!
0Q!
0R!
1S!
0T!
1c
0`
1^
1W
0H
1D
1>
0=
0<
0;
0:
19
08
1&
0'
0(
0)
0*
1+
0,
0X
1J
1I
1,!
1Z
1Y
1U
0T
1S
1R
1Q
0P
1O
1N
1M
0L
0I
0G
1@
1.
0Z
0U
0S
0Q
0O
0M
#148000
b10010111 "
b10010101 "
b10010100 "
0]
0$!
1%!
10
#149000
b10010101 "
1]
00
#150000
0#
1%
0!
b10010111 "
b10010110 "
0C
1[
0A
0]
1$!
0B
10
0\
1_
1G
#151000
b10010111 "
1]
00
#152000
b10011111 "
b10011011 "
b10011001 "
b10011000 "
0]
0$!
0%!
1&!
10
#152500
1!
1A
1B
00
14!
1=!
1d
0b
1`
0_
0W
1H
0D
0i
0e
1I
0,!
1n
0j
0@
0.
1o
#153000
b10011001 "
1]
10
#154000
b10011011 "
b10011010 "
0]
1$!
00
#155000
1#
0%
0!
b10011011 "
1C
0[
0A
1]
0B
10
1X
1\
0`
1Z
1U
1S
1Q
1O
1M
1K
0J
0I
1_
1L
0K
0N
0M
1P
0O
0R
0Q
1T
0S
0Y
0U
0Z
#156000
b10011111 "
b10011101 "
b10011100 "
0]
0$!
1%!
00
#157000
b10011101 "
1]
10
#157500
1!
1A
1B
00
1E!
0=!
0f!
0e!
1c!
0L!
0K!
1I!
1R!
1T!
1f
0a
1`
0^
1W
0H
1D
1:
18
1*
1,
0k
0g
0X
1J
1I
1,!
1p
0l
1Z
1Y
1U
0T
1S
1R
1Q
0P
1O
1N
1M
0L
0I
0G
1@
1.
1q
0Z
0U
0S
0Q
0O
0M
#158000
b10011111 "
b10011110 "
0]
1$!
10
#159000
b10011111 "
1]
00
