数电实验/project4/simulation/qsim/fifo_controller.msim.vcd
$comment
	File created using the following command:
		vcd file fifo_controller.msim.vcd -direction
$end
$date
	Sun May 19 23:05:40 2024
$end
$version
	ModelSim Version 10.1d
$end
$timescale
	1ps
$end
$scope module fifo_controller_vlg_vec_tst $end
$var reg 1 ! clk $end
$var reg 8 " data_in [7:0] $end
$var reg 1 # rd_en $end
$var reg 1 $ rst $end
$var reg 1 % wr_en $end
$var wire 1 & data_count [6] $end
$var wire 1 ' data_count [5] $end
$var wire 1 ( data_count [4] $end
$var wire 1 ) data_count [3] $end
$var wire 1 * data_count [2] $end
$var wire 1 + data_count [1] $end
$var wire 1 , data_count [0] $end
$var wire 1 - data_out [7] $end
$var wire 1 . data_out [6] $end
$var wire 1 / data_out [5] $end
$var wire 1 0 data_out [4] $end
$var wire 1 1 data_out [3] $end
$var wire 1 2 data_out [2] $end
$var wire 1 3 data_out [1] $end
$var wire 1 4 data_out [0] $end
$var wire 1 5 empty $end
$var wire 1 6 full $end
$var wire 1 7 sampler $end
$scope module i1 $end
$var wire 1 8 gnd $end
$var wire 1 9 vcc $end
$var wire 1 : unknown $end
$var tri1 1 ; devclrn $end
$var tri1 1 < devpor $end
$var tri1 1 = devoe $end
$var wire 1 > data_out[0]~output_o $end
$var wire 1 ? data_out[1]~output_o $end
$var wire 1 @ data_out[2]~output_o $end
$var wire 1 A data_out[3]~output_o $end
$var wire 1 B data_out[4]~output_o $end
$var wire 1 C data_out[5]~output_o $end
$var wire 1 D data_out[6]~output_o $end
$var wire 1 E data_out[7]~output_o $end
$var wire 1 F full~output_o $end
$var wire 1 G empty~output_o $end
$var wire 1 H data_count[0]~output_o $end
$var wire 1 I data_count[1]~output_o $end
$var wire 1 J data_count[2]~output_o $end
$var wire 1 K data_count[3]~output_o $end
$var wire 1 L data_count[4]~output_o $end
$var wire 1 M data_count[5]~output_o $end
$var wire 1 N data_count[6]~output_o $end
$var wire 1 O clk~input_o $end
$var wire 1 P clk~inputclkctrl_outclk $end
$var wire 1 Q wr_en~input_o $end
$var wire 1 R rst~input_o $end
$var wire 1 S ram_wren_a~0_combout $end
$var wire 1 T ram_wren_a~q $end
$var wire 1 U data_in[0]~input_o $end
$var wire 1 V rd_ptr[0]~7_combout $end
$var wire 1 W rd_en~input_o $end
$var wire 1 X data_count[0]~7_combout $end
$var wire 1 Y data_count[0]~9_combout $end
$var wire 1 Z data_count[0]~reg0_q $end
$var wire 1 [ data_count[0]~8 $end
$var wire 1 \ data_count[1]~10_combout $end
$var wire 1 ] data_count[1]~reg0_q $end
$var wire 1 ^ data_count[1]~11 $end
$var wire 1 _ data_count[2]~12_combout $end
$var wire 1 ` data_count[2]~reg0_q $end
$var wire 1 a data_count[2]~13 $end
$var wire 1 b data_count[3]~14_combout $end
$var wire 1 c data_count[3]~reg0_q $end
$var wire 1 d Equal0~2_combout $end
$var wire 1 e always0~0_combout $end
$var wire 1 f data_count[3]~15 $end
$var wire 1 g data_count[4]~16_combout $end
$var wire 1 h data_count[4]~reg0_q $end
$var wire 1 i data_count[4]~17 $end
$var wire 1 j data_count[5]~18_combout $end
$var wire 1 k data_count[5]~reg0_q $end
$var wire 1 l data_count[5]~19 $end
$var wire 1 m data_count[6]~20_combout $end
$var wire 1 n data_count[6]~reg0_q $end
$var wire 1 o Equal0~3_combout $end
$var wire 1 p rd_ptr[0]~9_combout $end
$var wire 1 q wr_ptr[0]~7_combout $end
$var wire 1 r wr_ptr[0]~9_combout $end
$var wire 1 s ram_addr_a~0_combout $end
$var wire 1 t ram_addr_a[0]~1_combout $end
$var wire 1 u wr_ptr[0]~8 $end
$var wire 1 v wr_ptr[1]~10_combout $end
$var wire 1 w rd_ptr[0]~8 $end
$var wire 1 x rd_ptr[1]~10_combout $end
$var wire 1 y ram_addr_a~2_combout $end
$var wire 1 z wr_ptr[1]~11 $end
$var wire 1 { wr_ptr[2]~12_combout $end
$var wire 1 | rd_ptr[1]~11 $end
$var wire 1 } rd_ptr[2]~12_combout $end
$var wire 1 ~ ram_addr_a~3_combout $end
$var wire 1 !! wr_ptr[2]~13 $end
$var wire 1 "! wr_ptr[3]~14_combout $end
$var wire 1 #! rd_ptr[2]~13 $end
$var wire 1 $! rd_ptr[3]~14_combout $end
$var wire 1 %! ram_addr_a~4_combout $end
$var wire 1 &! wr_ptr[3]~15 $end
$var wire 1 '! wr_ptr[4]~16_combout $end
$var wire 1 (! rd_ptr[3]~15 $end
$var wire 1 )! rd_ptr[4]~16_combout $end
$var wire 1 *! ram_addr_a~5_combout $end
$var wire 1 +! rd_ptr[4]~17 $end
$var wire 1 ,! rd_ptr[5]~18_combout $end
$var wire 1 -! wr_ptr[4]~17 $end
$var wire 1 .! wr_ptr[5]~18_combout $end
$var wire 1 /! ram_addr_a~6_combout $end
$var wire 1 0! wr_ptr[5]~19 $end
$var wire 1 1! wr_ptr[6]~20_combout $end
$var wire 1 2! rd_ptr[5]~19 $end
$var wire 1 3! rd_ptr[6]~20_combout $end
$var wire 1 4! ram_addr_a~7_combout $end
$var wire 1 5! data_in[1]~input_o $end
$var wire 1 6! ram_data_in[1]~feeder_combout $end
$var wire 1 7! data_in[2]~input_o $end
$var wire 1 8! ram_data_in[2]~feeder_combout $end
$var wire 1 9! data_in[3]~input_o $end
$var wire 1 :! ram_data_in[3]~feeder_combout $end
$var wire 1 ;! data_in[4]~input_o $end
$var wire 1 <! ram_data_in[4]~feeder_combout $end
$var wire 1 =! data_in[5]~input_o $end
$var wire 1 >! ram_data_in[5]~feeder_combout $end
$var wire 1 ?! data_in[6]~input_o $end
$var wire 1 @! data_in[7]~input_o $end
$var wire 1 A! ram_data_in[7]~feeder_combout $end
$var wire 1 B! data_out[0]~reg0feeder_combout $end
$var wire 1 C! data_out[0]~0_combout $end
$var wire 1 D! data_out[0]~reg0_q $end
$var wire 1 E! data_out[1]~reg0feeder_combout $end
$var wire 1 F! data_out[1]~reg0_q $end
$var wire 1 G! data_out[2]~reg0feeder_combout $end
$var wire 1 H! data_out[2]~reg0_q $end
$var wire 1 I! data_out[3]~reg0feeder_combout $end
$var wire 1 J! data_out[3]~reg0_q $end
$var wire 1 K! data_out[4]~reg0feeder_combout $end
$var wire 1 L! data_out[4]~reg0_q $end
$var wire 1 M! data_out[5]~reg0feeder_combout $end
$var wire 1 N! data_out[5]~reg0_q $end
$var wire 1 O! data_out[6]~reg0feeder_combout $end
$var wire 1 P! data_out[6]~reg0_q $end
$var wire 1 Q! data_out[7]~reg0feeder_combout $end
$var wire 1 R! data_out[7]~reg0_q $end
$var wire 1 S! Equal0~4_combout $end
$var wire 1 T! ram_addr_a [6] $end
$var wire 1 U! ram_addr_a [5] $end
$var wire 1 V! ram_addr_a [4] $end
$var wire 1 W! ram_addr_a [3] $end
$var wire 1 X! ram_addr_a [2] $end
$var wire 1 Y! ram_addr_a [1] $end
$var wire 1 Z! ram_addr_a [0] $end
$var wire 1 [! ram_data_in [7] $end
$var wire 1 \! ram_data_in [6] $end
$var wire 1 ]! ram_data_in [5] $end
$var wire 1 ^! ram_data_in [4] $end
$var wire 1 _! ram_data_in [3] $end
$var wire 1 `! ram_data_in [2] $end
$var wire 1 a! ram_data_in [1] $end
$var wire 1 b! ram_data_in [0] $end
$var wire 1 c! ram_instance|auto_generated|q_a [7] $end
$var wire 1 d! ram_instance|auto_generated|q_a [6] $end
$var wire 1 e! ram_instance|auto_generated|q_a [5] $end
$var wire 1 f! ram_instance|auto_generated|q_a [4] $end
$var wire 1 g! ram_instance|auto_generated|q_a [3] $end
$var wire 1 h! ram_instance|auto_generated|q_a [2] $end
$var wire 1 i! ram_instance|auto_generated|q_a [1] $end
$var wire 1 j! ram_instance|auto_generated|q_a [0] $end
$var wire 1 k! rd_ptr [6] $end
$var wire 1 l! rd_ptr [5] $end
$var wire 1 m! rd_ptr [4] $end
$var wire 1 n! rd_ptr [3] $end
$var wire 1 o! rd_ptr [2] $end
$var wire 1 p! rd_ptr [1] $end
$var wire 1 q! rd_ptr [0] $end
$var wire 1 r! wr_ptr [6] $end
$var wire 1 s! wr_ptr [5] $end
$var wire 1 t! wr_ptr [4] $end
$var wire 1 u! wr_ptr [3] $end
$var wire 1 v! wr_ptr [2] $end
$var wire 1 w! wr_ptr [1] $end
$var wire 1 x! wr_ptr [0] $end
$var wire 1 y! ram_instance|auto_generated|ram_block1a0_PORTADATAOUT_bus [17] $end
$var wire 1 z! ram_instance|auto_generated|ram_block1a0_PORTADATAOUT_bus [16] $end
$var wire 1 {! ram_instance|auto_generated|ram_block1a0_PORTADATAOUT_bus [15] $end
$var wire 1 |! ram_instance|auto_generated|ram_block1a0_PORTADATAOUT_bus [14] $end
$var wire 1 }! ram_instance|auto_generated|ram_block1a0_PORTADATAOUT_bus [13] $end
$var wire 1 ~! ram_instance|auto_generated|ram_block1a0_PORTADATAOUT_bus [12] $end
$var wire 1 !" ram_instance|auto_generated|ram_block1a0_PORTADATAOUT_bus [11] $end
$var wire 1 "" ram_instance|auto_generated|ram_block1a0_PORTADATAOUT_bus [10] $end
$var wire 1 #" ram_instance|auto_generated|ram_block1a0_PORTADATAOUT_bus [9] $end
$var wire 1 $" ram_instance|auto_generated|ram_block1a0_PORTADATAOUT_bus [8] $end
$var wire 1 %" ram_instance|auto_generated|ram_block1a0_PORTADATAOUT_bus [7] $end
$var wire 1 &" ram_instance|auto_generated|ram_block1a0_PORTADATAOUT_bus [6] $end
$var wire 1 '" ram_instance|auto_generated|ram_block1a0_PORTADATAOUT_bus [5] $end
$var wire 1 (" ram_instance|auto_generated|ram_block1a0_PORTADATAOUT_bus [4] $end
$var wire 1 )" ram_instance|auto_generated|ram_block1a0_PORTADATAOUT_bus [3] $end
$var wire 1 *" ram_instance|auto_generated|ram_block1a0_PORTADATAOUT_bus [2] $end
$var wire 1 +" ram_instance|auto_generated|ram_block1a0_PORTADATAOUT_bus [1] $end
$var wire 1 ," ram_instance|auto_generated|ram_block1a0_PORTADATAOUT_bus [0] $end
$upscope $end
$upscope $end
$enddefinitions $end
#0
$dumpvars
0!
b0 "
1#
1$
0%
0,
0+
0*
0)
0(
0'
0&
04
03
02
01
00
0/
0.
0-
15
06
x7
08
19
x:
1;
1<
1=
0>
0?
0@
0A
0B
0C
0D
0E
0F
1G
0H
0I
0J
0K
0L
0M
0N
0O
0P
0Q
1R
0S
0T
0U
1V
1W
1X
1Y
0Z
0[
0\
0]
1^
0_
0`
0a
0b
0c
1d
1e
1f
0g
0h
0i
0j
0k
1l
0m
0n
1o
1p
1q
1r
0s
0t
0u
0v
0w
0x
0y
1z
0{
1|
0}
0~
0!!
0"!
0#!
0$!
0%!
1&!
0'!
1(!
0)!
0*!
0+!
0,!
0-!
0.!
0/!
10!
01!
12!
03!
04!
05!
06!
07!
08!
09!
0:!
0;!
0<!
0=!
0>!
0?!
0@!
0A!
0B!
0C!
0D!
0E!
0F!
0G!
0H!
0I!
0J!
0K!
0L!
0M!
0N!
0O!
0P!
0Q!
0R!
1S!
0Z!
0Y!
0X!
0W!
0V!
0U!
0T!
0b!
0a!
0`!
0_!
0^!
0]!
0\!
0[!
0j!
0i!
0h!
0g!
0f!
0e!
0d!
0c!
0q!
0p!
0o!
0n!
0m!
0l!
0k!
0x!
0w!
0v!
0u!
0t!
0s!
0r!
0,"
0+"
0*"
0)"
0("
0'"
0&"
0%"
0$"
0#"
0""
0!"
0~!
0}!
0|!
0{!
0z!
0y!
$end
#5000
1!
0#
1%
1O
0W
1Q
1P
07
#10000
b1 "
0$
0!
1#
0%
1U
0R
0O
1W
0Q
0P
17
0r
0p
0Y
#15000
1!
0#
1%
1O
0W
1Q
1P
07
1t
1r
1Y
1S
#20000
b11 "
b10 "
0!
1#
0%
0U
15!
0O
1W
0Q
0P
17
16!
0t
0r
0Y
0S
#25000
1!
0#
1%
1O
0W
1Q
1P
07
1t
1r
1Y
1S
#30000
b11 "
0!
1#
0%
1U
0O
1W
0Q
0P
17
0t
0r
0Y
0S
#35000
1!
0#
1%
1O
0W
1Q
1P
07
1t
1r
1Y
1S
#40000
b111 "
b101 "
b100 "
0!
1#
0%
0U
05!
17!
0O
1W
0Q
0P
17
06!
18!
0t
0r
0Y
0S
#45000
1!
0#
1%
1O
0W
1Q
1P
07
1t
1r
1Y
1S
#50000
b101 "
0!
1#
0%
1U
0O
1W
0Q
0P
17
0t
0r
0Y
0S
#55000
1!
0#
1%
1O
0W
1Q
1P
07
1t
1r
1Y
1S
#60000
b111 "
b110 "
0!
1#
0%
0U
15!
0O
1W
0Q
0P
17
16!
0t
0r
0Y
0S
#65000
1!
0#
1%
1O
0W
1Q
1P
07
1t
1r
1Y
1S
#70000
b111 "
0!
1#
0%
1U
0O
1W
0Q
0P
17
0t
0r
0Y
0S
#75000
1!
0#
1%
1O
0W
1Q
1P
07
1t
1r
1Y
1S
#80000
b1111 "
b1011 "
b1001 "
b1000 "
0!
1#
0%
0U
05!
07!
19!
0O
1W
0Q
0P
17
06!
08!
1:!
0t
0r
0Y
0S
#85000
1!
0#
1%
1O
0W
1Q
1P
07
1t
1r
1Y
1S
#90000
b1001 "
0!
1#
0%
1U
0O
1W
0Q
0P
17
0t
0r
0Y
0S
#95000
1!
0#
1%
1O
0W
1Q
1P
07
1t
1r
1Y
1S
#100000
b1011 "
b1010 "
0!
1#
0%
0U
15!
0O
1W
0Q
0P
17
16!
0t
0r
0Y
0S
#105000
1!
0#
1%
1O
0W
1Q
1P
07
1t
1r
1Y
1S
#110000
b1011 "
0!
1#
0%
1U
0O
1W
0Q
0P
17
0t
0r
0Y
0S
#115000
1!
0#
1%
1O
0W
1Q
1P
07
1t
1r
1Y
1S
#120000
b1111 "
b1101 "
b1100 "
0!
1#
0%
0U
05!
17!
0O
1W
0Q
0P
17
06!
18!
0t
0r
0Y
0S
#125000
1!
0#
1%
1O
0W
1Q
1P
07
1t
1r
1Y
1S
#130000
b1101 "
0!
1#
0%
1U
0O
1W
0Q
0P
17
0t
0r
0Y
0S
#135000
1!
0#
1%
1O
0W
1Q
1P
07
1t
1r
1Y
1S
#140000
b1111 "
b1110 "
0!
1#
0%
0U
15!
0O
1W
0Q
0P
17
16!
0t
0r
0Y
0S
#145000
1!
0#
1%
1O
0W
1Q
1P
07
1t
1r
1Y
1S
#150000
b1111 "
0!
1#
0%
1U
0O
1W
0Q
0P
17
0t
0r
0Y
0S
#155000
1!
0#
1%
1O
0W
1Q
1P
07
1t
1r
1Y
1S
#160000
b11111 "
b10111 "
b10011 "
b10001 "
b10000 "
0!
1#
0%
0U
05!
07!
09!
1;!
0O
1W
0Q
0P
17
06!
08!
0:!
1<!
0t
0r
0Y
0S
#165000
1!
0#
1%
1O
0W
1Q
1P
07
1t
1r
1Y
1S
#170000
b10001 "
0!
1#
0%
1U
0O
1W
0Q
0P
17
0t
0r
0Y
0S
#175000
1!
0#
1%
1O
0W
1Q
1P
07
1t
1r
1Y
1S
#180000
b10011 "
b10010 "
0!
1#
0%
0U
15!
0O
1W
0Q
0P
17
16!
0t
0r
0Y
0S
#185000
1!
0#
1%
1O
0W
1Q
1P
07
1t
1r
1Y
1S
#190000
b10011 "
0!
1#
0%
1U
0O
1W
0Q
0P
17
0t
0r
0Y
0S
#195000
1!
0#
1%
1O
0W
1Q
1P
07
1t
1r
1Y
1S
#200000
b10111 "
b10101 "
b10100 "
0!
1#
0%
0U
05!
17!
0O
1W
0Q
0P
17
06!
18!
0t
0r
0Y
0S
#205000
1!
0#
1%
1O
0W
1Q
1P
07
1t
1r
1Y
1S
#210000
b10101 "
0!
1#
0%
1U
0O
1W
0Q
0P
17
0t
0r
0Y
0S
#215000
1!
0#
1%
1O
0W
1Q
1P
07
1t
1r
1Y
1S
#220000
b10111 "
b10110 "
0!
1#
0%
0U
15!
0O
1W
0Q
0P
17
16!
0t
0r
0Y
0S
#225000
1!
0#
1%
1O
0W
1Q
1P
07
1t
1r
1Y
1S
#230000
b10111 "
0!
1#
0%
1U
0O
1W
0Q
0P
17
0t
0r
0Y
0S
#235000
1!
0#
1%
1O
0W
1Q
1P
07
1t
1r
1Y
1S
#240000
b11111 "
b11011 "
b11001 "
b11000 "
0!
1#
0%
0U
05!
07!
19!
0O
1W
0Q
0P
17
06!
08!
1:!
0t
0r
0Y
0S
#245000
1!
0#
1%
1O
0W
1Q
1P
07
1t
1r
1Y
1S
#250000
b11001 "
0!
1#
0%
1U
0O
1W
0Q
0P
17
0t
0r
0Y
0S
#255000
1!
0#
1%
1O
0W
1Q
1P
07
1t
1r
1Y
1S
#260000
b11011 "
b11010 "
0!
1#
0%
0U
15!
0O
1W
0Q
0P
17
16!
0t
0r
0Y
0S
#265000
1!
0#
1%
1O
0W
1Q
1P
07
1t
1r
1Y
1S
#270000
b11011 "
0!
1#
0%
1U
0O
1W
0Q
0P
17
0t
0r
0Y
0S
#275000
1!
0#
1%
1O
0W
1Q
1P
07
1t
1r
1Y
1S
#280000
b11111 "
b11101 "
b11100 "
0!
1#
0%
0U
05!
17!
0O
1W
0Q
0P
17
06!
18!
0t
0r
0Y
0S
#285000
1!
0#
1%
1O
0W
1Q
1P
07
1t
1r
1Y
1S
#290000
b11101 "
0!
1#
0%
1U
0O
1W
0Q
0P
17
0t
0r
0Y
0S
#295000
1!
0#
1%
1O
0W
1Q
1P
07
1t
1r
1Y
1S
#300000
b11111 "
b11110 "
0!
1#
0%
0U
15!
0O
1W
0Q
0P
17
16!
0t
0r
0Y
0S
#305000
1!
0#
1%
1O
0W
1Q
1P
07
1t
1r
1Y
1S
#310000
b11111 "
0!
1#
0%
1U
0O
1W
0Q
0P
17
0t
0r
0Y
0S
#315000
1!
0#
1%
1O
0W
1Q
1P
07
1t
1r
1Y
1S
#320000
b111111 "
b101111 "
b100111 "
b100011 "
b100001 "
b100000 "
0!
1#
0%
0U
05!
07!
09!
0;!
1=!
0O
1W
0Q
0P
17
06!
08!
0:!
0<!
1>!
0t
0r
0Y
0S
#325000
1!
0#
1%
1O
0W
1Q
1P
07
1t
1r
1Y
1S
#330000
b100001 "
0!
1#
0%
1U
0O
1W
0Q
0P
17
0t
0r
0Y
0S
#335000
1!
0#
1%
1O
0W
1Q
1P
07
1t
1r
1Y
1S
#340000
b100011 "
b100010 "
0!
1#
0%
0U
15!
0O
1W
0Q
0P
17
16!
0t
0r
0Y
0S
#345000
1!
0#
1%
1O
0W
1Q
1P
07
1t
1r
1Y
1S
#350000
b100011 "
0!
1#
0%
1U
0O
1W
0Q
0P
17
0t
0r
0Y
0S
#355000
1!
0#
1%
1O
0W
1Q
1P
07
1t
1r
1Y
1S
#360000
b100111 "
b100101 "
b100100 "
0!
1#
0%
0U
05!
17!
0O
1W
0Q
0P
17
06!
18!
0t
0r
0Y
0S
#365000
1!
0#
1%
1O
0W
1Q
1P
07
1t
1r
1Y
1S
#370000
b100101 "
0!
1#
0%
1U
0O
1W
0Q
0P
17
0t
0r
0Y
0S
#375000
1!
0#
1%
1O
0W
1Q
1P
07
1t
1r
1Y
1S
#380000
b100111 "
b100110 "
0!
1#
0%
0U
15!
0O
1W
0Q
0P
17
16!
0t
0r
0Y
0S
#385000
1!
0#
1%
1O
0W
1Q
1P
07
1t
1r
1Y
1S
#390000
b100111 "
0!
1#
0%
1U
0O
1W
0Q
0P
17
0t
0r
0Y
0S
#395000
1!
0#
1%
1O
0W
1Q
1P
07
1t
1r
1Y
1S
#400000
b101111 "
b101011 "
b101001 "
b101000 "
0!
1#
0%
0U
05!
07!
19!
0O
1W
0Q
0P
17
06!
08!
1:!
0t
0r
0Y
0S
#405000
1!
0#
1%
1O
0W
1Q
1P
07
1t
1r
1Y
1S
#410000
b101001 "
0!
1#
0%
1U
0O
1W
0Q
0P
17
0t
0r
0Y
0S
#415000
1!
0#
1%
1O
0W
1Q
1P
07
1t
1r
1Y
1S
#420000
b101011 "
b101010 "
0!
1#
0%
0U
15!
0O
1W
0Q
0P
17
16!
0t
0r
0Y
0S
#425000
1!
0#
1%
1O
0W
1Q
1P
07
1t
1r
1Y
1S
#430000
b101011 "
0!
1#
0%
1U
0O
1W
0Q
0P
17
0t
0r
0Y
0S
#435000
1!
0#
1%
1O
0W
1Q
1P
07
1t
1r
1Y
1S
#440000
b101111 "
b101101 "
b101100 "
0!
1#
0%
0U
05!
17!
0O
1W
0Q
0P
17
06!
18!
0t
0r
0Y
0S
#445000
1!
0#
1%
1O
0W
1Q
1P
07
1t
1r
1Y
1S
#450000
b101101 "
0!
1#
0%
1U
0O
1W
0Q
0P
17
0t
0r
0Y
0S
#455000
1!
0#
1%
1O
0W
1Q
1P
07
1t
1r
1Y
1S
#460000
b101111 "
b101110 "
0!
1#
0%
0U
15!
0O
1W
0Q
0P
17
16!
0t
0r
0Y
0S
#465000
1!
0#
1%
1O
0W
1Q
1P
07
1t
1r
1Y
1S
#470000
b101111 "
0!
1#
0%
1U
0O
1W
0Q
0P
17
0t
0r
0Y
0S
#475000
1!
0#
1%
1O
0W
1Q
1P
07
1t
1r
1Y
1S
#480000
b111111 "
b110111 "
b110011 "
b110001 "
b110000 "
0!
1#
0%
0U
05!
07!
09!
1;!
0O
1W
0Q
0P
17
06!
08!
0:!
1<!
0t
0r
0Y
0S
#485000
1!
0#
1%
1O
0W
1Q
1P
07
1t
1r
1Y
1S
#490000
b110001 "
0!
1#
0%
1U
0O
1W
0Q
0P
17
0t
0r
0Y
0S
#495000
1!
0#
1%
1O
0W
1Q
1P
07
1t
1r
1Y
1S
#500000
b110011 "
b110010 "
0!
1#
0%
0U
15!
0O
1W
0Q
0P
17
16!
0t
0r
0Y
0S
#505000
1!
0#
1%
1O
0W
1Q
1P
07
1t
1r
1Y
1S
#510000
b110011 "
0!
1#
0%
1U
0O
1W
0Q
0P
17
0t
0r
0Y
0S
#515000
1!
0#
1%
1O
0W
1Q
1P
07
1t
1r
1Y
1S
#520000
b110111 "
b110101 "
b110100 "
0!
1#
0%
0U
05!
17!
0O
1W
0Q
0P
17
06!
18!
0t
0r
0Y
0S
#525000
1!
0#
1%
1O
0W
1Q
1P
07
1t
1r
1Y
1S
#530000
b110101 "
0!
1#
0%
1U
0O
1W
0Q
0P
17
0t
0r
0Y
0S
#535000
1!
0#
1%
1O
0W
1Q
1P
07
1t
1r
1Y
1S
#540000
b110111 "
b110110 "
0!
1#
0%
0U
15!
0O
1W
0Q
0P
17
16!
0t
0r
0Y
0S
#545000
1!
0#
1%
1O
0W
1Q
1P
07
1t
1r
1Y
1S
#550000
b110111 "
0!
1#
0%
1U
0O
1W
0Q
0P
17
0t
0r
0Y
0S
#555000
1!
0#
1%
1O
0W
1Q
1P
07
1t
1r
1Y
1S
#560000
b111111 "
b111011 "
b111001 "
b111000 "
0!
1#
0%
0U
05!
07!
19!
0O
1W
0Q
0P
17
06!
08!
1:!
0t
0r
0Y
0S
#565000
1!
0#
1%
1O
0W
1Q
1P
07
1t
1r
1Y
1S
#570000
b111001 "
0!
1#
0%
1U
0O
1W
0Q
0P
17
0t
0r
0Y
0S
#575000
1!
0#
1%
1O
0W
1Q
1P
07
1t
1r
1Y
1S
#580000
b111011 "
b111010 "
0!
1#
0%
0U
15!
0O
1W
0Q
0P
17
16!
0t
0r
0Y
0S
#585000
1!
0#
1%
1O
0W
1Q
1P
07
1t
1r
1Y
1S
#590000
b111011 "
0!
1#
0%
1U
0O
1W
0Q
0P
17
0t
0r
0Y
0S
#595000
1!
0#
1%
1O
0W
1Q
1P
07
1t
1r
1Y
1S
#600000
b111111 "
b111101 "
b111100 "
0!
1#
0%
0U
05!
17!
0O
1W
0Q
0P
17
06!
18!
0t
0r
0Y
0S
#605000
1!
0#
1%
1O
0W
1Q
1P
07
1t
1r
1Y
1S
#610000
b111101 "
0!
1#
0%
1U
0O
1W
0Q
0P
17
0t
0r
0Y
0S
#615000
1!
0#
1%
1O
0W
1Q
1P
07
1t
1r
1Y
1S
#620000
b111111 "
b111110 "
0!
1#
0%
0U
15!
0O
1W
0Q
0P
17
16!
0t
0r
0Y
0S
#625000
1!
0#
1%
1O
0W
1Q
1P
07
1t
1r
1Y
1S
#630000
b111111 "
0!
1#
0%
1U
0O
1W
0Q
0P
17
0t
0r
0Y
0S
#635000
1!
0#
1%
1O
0W
1Q
1P
07
1t
1r
1Y
1S
#640000
b1111111 "
b1011111 "
b1001111 "
b1000111 "
b1000011 "
b1000001 "
b1000000 "
0!
1#
0%
0U
05!
07!
09!
0;!
0=!
1?!
0O
1W
0Q
0P
17
06!
08!
0:!
0<!
0>!
0t
0r
0Y
0S
#645000
1!
0#
1%
1O
0W
1Q
1P
07
1t
1r
1Y
1S
#650000
b1000001 "
0!
1#
0%
1U
0O
1W
0Q
0P
17
0t
0r
0Y
0S
#655000
1!
0#
1%
1O
0W
1Q
1P
07
1t
1r
1Y
1S
#660000
b1000011 "
b1000010 "
0!
1#
0%
0U
15!
0O
1W
0Q
0P
17
16!
0t
0r
0Y
0S
#665000
1!
0#
1%
1O
0W
1Q
1P
07
1t
1r
1Y
1S
#670000
b1000011 "
0!
1#
0%
1U
0O
1W
0Q
0P
17
0t
0r
0Y
0S
#675000
1!
0#
1%
1O
0W
1Q
1P
07
1t
1r
1Y
1S
#680000
b1000111 "
b1000101 "
b1000100 "
0!
1#
0%
0U
05!
17!
0O
1W
0Q
0P
17
06!
18!
0t
0r
0Y
0S
#685000
1!
0#
1%
1O
0W
1Q
1P
07
1t
1r
1Y
1S
#690000
b1000101 "
0!
1#
0%
1U
0O
1W
0Q
0P
17
0t
0r
0Y
0S
#695000
1!
0#
1%
1O
0W
1Q
1P
07
1t
1r
1Y
1S
#700000
b1000111 "
b1000110 "
0!
1#
0%
0U
15!
0O
1W
0Q
0P
17
16!
0t
0r
0Y
0S
#705000
1!
0#
1%
1O
0W
1Q
1P
07
1t
1r
1Y
1S
#710000
b1000111 "
0!
1#
0%
1U
0O
1W
0Q
0P
17
0t
0r
0Y
0S
#715000
1!
0#
1%
1O
0W
1Q
1P
07
1t
1r
1Y
1S
#720000
b1001111 "
b1001011 "
b1001001 "
b1001000 "
0!
1#
0%
0U
05!
07!
19!
0O
1W
0Q
0P
17
06!
08!
1:!
0t
0r
0Y
0S
#725000
1!
0#
1%
1O
0W
1Q
1P
07
1t
1r
1Y
1S
#730000
b1001001 "
0!
1#
0%
1U
0O
1W
0Q
0P
17
0t
0r
0Y
0S
#735000
1!
0#
1%
1O
0W
1Q
1P
07
1t
1r
1Y
1S
#740000
b1001011 "
b1001010 "
0!
1#
0%
0U
15!
0O
1W
0Q
0P
17
16!
0t
0r
0Y
0S
#745000
1!
0#
1%
1O
0W
1Q
1P
07
1t
1r
1Y
1S
#750000
b1001011 "
0!
1#
0%
1U
0O
1W
0Q
0P
17
0t
0r
0Y
0S
#755000
1!
0#
1%
1O
0W
1Q
1P
07
1t
1r
1Y
1S
#760000
b1001111 "
b1001101 "
b1001100 "
0!
1#
0%
0U
05!
17!
0O
1W
0Q
0P
17
06!
18!
0t
0r
0Y
0S
#765000
1!
0#
1%
1O
0W
1Q
1P
07
1t
1r
1Y
1S
#770000
b1001101 "
0!
1#
0%
1U
0O
1W
0Q
0P
17
0t
0r
0Y
0S
#775000
1!
0#
1%
1O
0W
1Q
1P
07
1t
1r
1Y
1S
#780000
b1001111 "
b1001110 "
0!
1#
0%
0U
15!
0O
1W
0Q
0P
17
16!
0t
0r
0Y
0S
#785000
1!
0#
1%
1O
0W
1Q
1P
07
1t
1r
1Y
1S
#790000
b1001111 "
0!
1#
0%
1U
0O
1W
0Q
0P
17
0t
0r
0Y
0S
#795000
1!
0#
1%
1O
0W
1Q
1P
07
1t
1r
1Y
1S
#800000
b1011111 "
b1010111 "
b1010011 "
b1010001 "
b1010000 "
0!
1#
0%
0U
05!
07!
09!
1;!
0O
1W
0Q
0P
17
06!
08!
0:!
1<!
0t
0r
0Y
0S
#805000
1!
0#
1%
1O
0W
1Q
1P
07
1t
1r
1Y
1S
#810000
b1010001 "
0!
1#
0%
1U
0O
1W
0Q
0P
17
0t
0r
0Y
0S
#815000
1!
0#
1%
1O
0W
1Q
1P
07
1t
1r
1Y
1S
#820000
b1010011 "
b1010010 "
0!
1#
0%
0U
15!
0O
1W
0Q
0P
17
16!
0t
0r
0Y
0S
#825000
1!
0#
1%
1O
0W
1Q
1P
07
1t
1r
1Y
1S
#830000
b1010011 "
0!
1#
0%
1U
0O
1W
0Q
0P
17
0t
0r
0Y
0S
#835000
1!
0#
1%
1O
0W
1Q
1P
07
1t
1r
1Y
1S
#840000
b1010111 "
b1010101 "
b1010100 "
0!
1#
0%
0U
05!
17!
0O
1W
0Q
0P
17
06!
18!
0t
0r
0Y
0S
#845000
1!
0#
1%
1O
0W
1Q
1P
07
1t
1r
1Y
1S
#850000
b1010101 "
0!
1#
0%
1U
0O
1W
0Q
0P
17
0t
0r
0Y
0S
#855000
1!
0#
1%
1O
0W
1Q
1P
07
1t
1r
1Y
1S
#860000
b1010111 "
b1010110 "
0!
1#
0%
0U
15!
0O
1W
0Q
0P
17
16!
0t
0r
0Y
0S
#865000
1!
0#
1%
1O
0W
1Q
1P
07
1t
1r
1Y
1S
#870000
b1010111 "
0!
1#
0%
1U
0O
1W
0Q
0P
17
0t
0r
0Y
0S
#875000
1!
0#
1%
1O
0W
1Q
1P
07
1t
1r
1Y
1S
#880000
b1011111 "
b1011011 "
b1011001 "
b1011000 "
0!
1#
0%
0U
05!
07!
19!
0O
1W
0Q
0P
17
06!
08!
1:!
0t
0r
0Y
0S
#885000
1!
0#
1%
1O
0W
1Q
1P
07
1t
1r
1Y
1S
#890000
b1011001 "
0!
1#
0%
1U
0O
1W
0Q
0P
17
0t
0r
0Y
0S
#895000
1!
0#
1%
1O
0W
1Q
1P
07
1t
1r
1Y
1S
