计组实验/computerExercise/exercise3/simulation/qsim/exercise3.msim.vcd
$comment
	File created using the following command:
		vcd file exercise3.msim.vcd -direction
$end
$date
	Fri Oct 04 13:00:50 2024
$end
$version
	ModelSim Version 10.1d
$end
$timescale
	1ps
$end
$scope module exercise3_vlg_vec_tst $end
$var reg 1 ! CLK1 $end
$var reg 1 " RST1 $end
$var reg 1 # S0 $end
$var wire 1 $ T1 $end
$var wire 1 % T2 $end
$var wire 1 & T3 $end
$var wire 1 ' T4 $end
$var wire 1 ( sampler $end
$scope module i1 $end
$var wire 1 ) gnd $end
$var wire 1 * vcc $end
$var wire 1 + unknown $end
$var tri1 1 , devclrn $end
$var tri1 1 - devpor $end
$var tri1 1 . devoe $end
$var wire 1 / T1~output_o $end
$var wire 1 0 T2~output_o $end
$var wire 1 1 T3~output_o $end
$var wire 1 2 T4~output_o $end
$var wire 1 3 S0~input_o $end
$var wire 1 4 inst1~feeder_combout $end
$var wire 1 5 RST1~input_o $end
$var wire 1 6 inst1~q $end
$var wire 1 7 inst2~feeder_combout $end
$var wire 1 8 inst2~q $end
$var wire 1 9 inst3~feeder_combout $end
$var wire 1 : inst3~q $end
$var wire 1 ; inst5~q $end
$var wire 1 < CLK1~input_o $end
$var wire 1 = inst4~combout $end
$var wire 1 > inst4~clkctrl_outclk $end
$var wire 1 ? inst7|5~0_combout $end
$var wire 1 @ inst7|5~1_combout $end
$var wire 1 A inst~q $end
$upscope $end
$upscope $end
$enddefinitions $end
#0
$dumpvars
0!
0"
0#
0$
0%
0&
0'
x(
0)
1*
x+
1,
1-
1.
0/
00
01
02
03
04
05
06
07
08
09
0:
0;
0<
0=
0>
1?
1@
0A
$end
#5000
1!
1<
0(
1=
1>
#10000
1#
0!
13
0<
1(
0=
0>
#15000
1!
1<
0(
1=
1>
#20000
0!
0<
1(
0=
0>
#25000
1!
1<
0(
1=
1>
#30000
1"
0!
15
0<
1(
0=
0>
#35000
1!
1<
0(
1=
1>
1A
0?
14
1/
1$
0@
#40000
0!
0<
1(
0=
0>
#45000
1!
1<
0(
1=
1>
0A
16
1?
04
17
0/
10
0$
1%
#50000
0!
0<
1(
0=
0>
#55000
1!
1<
0(
1=
1>
18
06
0?
19
1@
07
11
00
1&
0%
0@
#60000
0!
0<
1(
0=
0>
#65000
1!
1<
0(
1=
1>
1:
08
1?
09
12
01
1'
0&
1@
#70000
0!
0<
1(
0=
0>
#75000
1!
1<
0(
1=
1>
1;
1A
0:
0?
14
1/
02
1$
0'
0@
#80000
0!
0<
1(
0=
0>
#85000
1!
1<
0(
1=
1>
0;
0A
16
1?
04
17
0/
10
0$
1%
#90000
0!
0<
1(
0=
0>
#95000
1!
1<
0(
1=
1>
18
06
0?
19
1@
07
11
00
1&
0%
0@
#100000
0!
0<
1(
0=
0>
#105000
1!
1<
0(
1=
1>
1:
08
1?
09
12
01
1'
0&
1@
#110000
0!
0<
1(
0=
0>
#115000
1!
1<
0(
1=
1>
1;
1A
0:
0?
14
1/
02
1$
0'
0@
#120000
0!
0<
1(
0=
0>
#125000
1!
1<
0(
1=
1>
0;
0A
16
1?
04
17
0/
10
0$
1%
#130000
0!
0<
1(
0=
0>
#135000
1!
1<
0(
1=
1>
18
06
0?
19
1@
07
11
00
1&
0%
0@
#140000
0!
0<
1(
0=
0>
#145000
1!
1<
0(
1=
1>
1:
08
1?
09
12
01
1'
0&
1@
#150000
0!
0<
1(
0=
0>
#155000
1!
1<
0(
1=
1>
1;
1A
0:
0?
14
1/
02
1$
0'
0@
#160000
0!
0<
1(
0=
0>
#165000
1!
1<
0(
1=
1>
0;
0A
16
1?
04
17
0/
10
0$
1%
#170000
0!
0<
1(
0=
0>
#175000
1!
1<
0(
1=
1>
18
06
0?
19
1@
07
11
00
1&
0%
0@
#180000
0!
0<
1(
0=
0>
#185000
1!
1<
0(
1=
1>
1:
08
1?
09
12
01
1'
0&
1@
#190000
0!
0<
1(
0=
0>
#195000
1!
1<
0(
1=
1>
1;
1A
0:
0?
14
1/
02
1$
0'
0@
#200000
0!
0<
1(
0=
0>
#205000
1!
1<
0(
1=
1>
0;
0A
16
1?
04
17
0/
10
0$
1%
#210000
0!
0<
1(
0=
0>
#215000
1!
1<
0(
1=
1>
18
06
0?
19
1@
07
11
00
1&
0%
0@
#220000
0!
0<
1(
0=
0>
#225000
1!
1<
0(
1=
1>
1:
08
1?
09
12
01
1'
0&
1@
#230000
0!
0<
1(
0=
0>
#235000
1!
1<
0(
1=
1>
1;
1A
0:
0?
14
1/
02
1$
0'
0@
#240000
0!
0<
1(
0=
0>
#245000
1!
1<
0(
1=
1>
0;
0A
16
1?
04
17
0/
10
0$
1%
#250000
0!
0<
1(
0=
0>
#255000
1!
1<
0(
1=
1>
18
06
0?
19
1@
07
11
00
1&
0%
0@
#260000
0!
0<
1(
0=
0>
#265000
1!
1<
0(
1=
1>
1:
08
1?
09
12
01
1'
0&
1@
#270000
0!
0<
1(
0=
0>
#275000
1!
1<
0(
1=
1>
1;
1A
0:
0?
14
1/
02
1$
0'
0@
#280000
0!
0<
1(
0=
0>
#285000
1!
1<
0(
1=
1>
0;
0A
16
1?
04
17
0/
10
0$
1%
#290000
0!
0<
1(
0=
0>
#295000
1!
1<
0(
1=
1>
18
06
0?
19
1@
07
11
00
1&
0%
0@
#300000
0!
0<
1(
0=
0>
#305000
1!
1<
0(
1=
1>
1:
08
1?
09
12
01
1'
0&
1@
#310000
0!
0<
1(
0=
0>
#315000
1!
1<
0(
1=
1>
1;
1A
0:
0?
14
1/
02
1$
0'
0@
#320000
0!
0<
1(
0=
0>
#325000
1!
1<
0(
1=
1>
0;
0A
16
1?
04
17
0/
10
0$
1%
#330000
0!
0<
1(
0=
0>
#335000
1!
1<
0(
1=
1>
18
06
0?
19
1@
07
11
00
1&
0%
0@
#340000
0!
0<
1(
0=
0>
#345000
1!
1<
0(
1=
1>
1:
08
1?
09
12
01
1'
0&
1@
#350000
0!
0<
1(
0=
0>
#355000
1!
1<
0(
1=
1>
1;
1A
0:
0?
14
1/
02
1$
0'
0@
#360000
0!
0<
1(
0=
0>
#365000
1!
1<
0(
1=
1>
0;
0A
16
1?
04
17
0/
10
0$
1%
#370000
0!
0<
1(
0=
0>
#375000
1!
1<
0(
1=
1>
18
06
0?
19
1@
07
11
00
1&
0%
0@
#380000
0!
0<
1(
0=
0>
#385000
1!
1<
0(
1=
1>
1:
08
1?
09
12
01
1'
0&
1@
#390000
0!
0<
1(
0=
0>
#395000
1!
1<
0(
1=
1>
1;
1A
0:
0?
14
1/
02
1$
0'
0@
#400000
0!
0<
1(
0=
0>
#405000
1!
1<
0(
1=
1>
0;
0A
16
1?
04
17
0/
10
0$
1%
#410000
0!
0<
1(
0=
0>
#415000
1!
1<
0(
1=
1>
18
06
0?
19
1@
07
11
00
1&
0%
0@
#420000
0!
0<
1(
0=
0>
#425000
1!
1<
0(
1=
1>
1:
08
1?
09
12
01
1'
0&
1@
#430000
0#
0!
03
0<
1(
0?
0=
0>
0@
#435000
1!
1<
0(
1=
1>
1;
0:
1?
02
0'
1@
#440000
0!
0<
1(
#445000
1!
1<
0(
#450000
0!
0<
1(
#455000
1!
1<
0(
#460000
0!
0<
1(
#465000
1!
1<
0(
#470000
0!
0<
1(
#475000
1!
1<
0(
#480000
0"
0!
05
0<
1(
0;
0=
0>
#485000
1!
1<
0(
1=
1>
#490000
0!
0<
1(
0=
0>
#495000
1!
1<
0(
1=
1>
#500000
0!
0<
1(
0=
0>
#505000
1!
1<
0(
1=
1>
#510000
1"
0!
15
0<
1(
0=
0>
#515000
1!
1<
0(
1=
1>
1A
0?
14
1/
1$
0@
#520000
0!
0<
1(
0=
0>
#525000
1!
1<
0(
1=
1>
0A
16
1?
04
17
0/
10
0$
1%
#530000
0!
0<
1(
0=
0>
#535000
1!
1<
0(
1=
1>
18
06
0?
19
1@
07
11
00
1&
0%
0@
#540000
0!
0<
1(
0=
0>
#545000
1!
1<
0(
1=
1>
1:
08
09
12
01
1'
0&
#550000
0!
0<
1(
0=
0>
#555000
1!
1<
0(
1=
1>
1;
0:
1?
02
0'
1@
#560000
0!
0<
1(
#565000
1!
1<
0(
#570000
0!
0<
1(
#575000
1!
1<
0(
#580000
0!
0<
1(
#585000
1!
1<
0(
#590000
0!
0<
1(
#595000
1!
1<
0(
#600000
0!
0<
1(
#605000
1!
1<
0(
#610000
0!
0<
1(
#615000
1!
1<
0(
#620000
0!
0<
1(
#625000
1!
1<
0(
#630000
0!
0<
1(
#635000
1!
1<
0(
#640000
0"
0!
05
0<
1(
0;
0=
0>
#645000
1!
1<
0(
1=
1>
#650000
0!
0<
1(
0=
0>
#655000
1!
1<
0(
1=
1>
#660000
0!
0<
1(
0=
0>
#665000
1!
1<
0(
1=
1>
#670000
1"
0!
15
0<
1(
0=
0>
#675000
1!
1<
0(
1=
1>
1A
0?
14
1/
1$
0@
#680000
0!
0<
1(
0=
0>
#685000
1!
1<
0(
1=
1>
0A
16
1?
04
17
0/
10
0$
1%
#690000
0!
0<
1(
0=
0>
#695000
1!
1<
0(
1=
1>
18
06
0?
19
1@
07
11
00
1&
0%
0@
#700000
0!
0<
1(
0=
0>
#705000
1!
1<
0(
1=
1>
1:
08
09
12
01
1'
0&
#710000
0!
0<
1(
0=
0>
#715000
1!
1<
0(
1=
1>
1;
0:
1?
02
0'
1@
#720000
0!
0<
1(
#725000
1!
1<
0(
#730000
0!
0<
1(
#735000
1!
1<
0(
#740000
0!
0<
1(
#745000
1!
1<
0(
#750000
0!
0<
1(
#755000
1!
1<
0(
#760000
0!
0<
1(
#765000
1!
1<
0(
#770000
0!
0<
1(
#775000
1!
1<
0(
#780000
0!
0<
1(
#785000
1!
1<
0(
#790000
0!
0<
1(
#795000
1!
1<
0(
#800000
0"
0!
05
0<
1(
0;
0=
0>
#805000
1!
1<
0(
1=
1>
#810000
0!
0<
1(
0=
0>
#815000
1!
1<
0(
1=
1>
#820000
0!
0<
1(
0=
0>
#825000
1!
1<
0(
1=
1>
#830000
1"
0!
15
0<
1(
0=
0>
#835000
1!
1<
0(
1=
1>
1A
0?
14
1/
1$
0@
#840000
0!
0<
1(
0=
0>
#845000
1!
1<
0(
1=
1>
0A
16
1?
04
17
0/
10
0$
1%
#850000
0!
0<
1(
0=
0>
#855000
1!
1<
0(
1=
1>
18
06
0?
19
1@
07
11
00
1&
0%
0@
#860000
0!
0<
1(
0=
0>
#865000
1!
1<
0(
1=
1>
1:
08
09
12
01
1'
0&
#870000
0!
0<
1(
0=
0>
#875000
1!
1<
0(
1=
1>
1;
0:
1?
02
0'
1@
#880000
0!
0<
1(
#885000
1!
1<
0(
#890000
0!
0<
1(
#895000
1!
1<
0(
#900000
0!
0<
1(
#905000
1!
1<
0(
#910000
0!
0<
1(
#915000
1!
1<
0(
#920000
0!
0<
1(
#925000
1!
1<
0(
#930000
0!
0<
1(
#935000
1!
1<
0(
#940000
0!
0<
1(
#945000
1!
1<
0(
#950000
0!
0<
1(
#955000
1!
1<
0(
#960000
0!
0<
1(
#965000
1!
1<
0(
#970000
0!
0<
1(
#975000
1!
1<
0(
#980000
0!
0<
1(
#985000
1!
1<
0(
#990000
1#
0!
13
0<
1(
0=
0>
#995000
1!
1<
0(
1=
1>
0;
1A
0?
14
1/
1$
0@
