计组实验/computerExercise/task4/simulation/qsim/task4.msim.vcd
$comment
	File created using the following command:
		vcd file task4.msim.vcd -direction
$end
$date
	Tue Mar 11 19:30:59 2025
$end
$version
	ModelSim Version 10.1d
$end
$timescale
	1ps
$end
$scope module task4_vlg_vec_tst $end
$var reg 8 ! B [7:0] $end
$var reg 1 " CLR $end
$var reg 1 # LDAR $end
$var reg 1 $ LDPC $end
$var reg 1 % T4 $end
$var wire 1 & LED [7] $end
$var wire 1 ' LED [6] $end
$var wire 1 ( LED [5] $end
$var wire 1 ) LED [4] $end
$var wire 1 * LED [3] $end
$var wire 1 + LED [2] $end
$var wire 1 , LED [1] $end
$var wire 1 - LED [0] $end
$var wire 1 . Q [7] $end
$var wire 1 / Q [6] $end
$var wire 1 0 Q [5] $end
$var wire 1 1 Q [4] $end
$var wire 1 2 Q [3] $end
$var wire 1 3 Q [2] $end
$var wire 1 4 Q [1] $end
$var wire 1 5 Q [0] $end
$var wire 1 6 sampler $end
$scope module i1 $end
$var wire 1 7 gnd $end
$var wire 1 8 vcc $end
$var wire 1 9 unknown $end
$var tri1 1 : devclrn $end
$var tri1 1 ; devpor $end
$var tri1 1 < devoe $end
$var wire 1 = LED[7]~output_o $end
$var wire 1 > LED[6]~output_o $end
$var wire 1 ? LED[5]~output_o $end
$var wire 1 @ LED[4]~output_o $end
$var wire 1 A LED[3]~output_o $end
$var wire 1 B LED[2]~output_o $end
$var wire 1 C LED[1]~output_o $end
$var wire 1 D LED[0]~output_o $end
$var wire 1 E Q[7]~output_o $end
$var wire 1 F Q[6]~output_o $end
$var wire 1 G Q[5]~output_o $end
$var wire 1 H Q[4]~output_o $end
$var wire 1 I Q[3]~output_o $end
$var wire 1 J Q[2]~output_o $end
$var wire 1 K Q[1]~output_o $end
$var wire 1 L Q[0]~output_o $end
$var wire 1 M B[7]~input_o $end
$var wire 1 N B[6]~input_o $end
$var wire 1 O B[5]~input_o $end
$var wire 1 P B[4]~input_o $end
$var wire 1 Q B[3]~input_o $end
$var wire 1 R B[2]~input_o $end
$var wire 1 S B[1]~input_o $end
$var wire 1 T B[0]~input_o $end
$var wire 1 U T4~input_o $end
$var wire 1 V CLR~input_o $end
$var wire 1 W LDPC~input_o $end
$var wire 1 X LDAR~input_o $end
$var wire 1 Y inst1|$00000|auto_generated|result_node[6]~0_combout $end
$var wire 1 Z inst1|$00000|auto_generated|result_node[7]~1_combout $end
$var wire 1 [ inst|LPM_COUNTER_component|auto_generated|latch_signal[7]~8_combout $end
$var wire 1 \ inst|LPM_COUNTER_component|auto_generated|latch_signal[6]~9_combout $end
$var wire 1 ] inst|LPM_COUNTER_component|auto_generated|latch_signal[5]~10_combout $end
$var wire 1 ^ inst|LPM_COUNTER_component|auto_generated|latch_signal[4]~11_combout $end
$var wire 1 _ inst|LPM_COUNTER_component|auto_generated|latch_signal[3]~12_combout $end
$var wire 1 ` inst|LPM_COUNTER_component|auto_generated|latch_signal[2]~13_combout $end
$var wire 1 a inst|LPM_COUNTER_component|auto_generated|latch_signal[1]~14_combout $end
$var wire 1 b inst|LPM_COUNTER_component|auto_generated|latch_signal[0]~15_combout $end
$var wire 1 c inst|LPM_COUNTER_component|auto_generated|counter_comb_bita0~combout $end
$var wire 1 d inst|LPM_COUNTER_component|auto_generated|counter_reg_bit[0]~7_combout $end
$var wire 1 e inst|LPM_COUNTER_component|auto_generated|aclr_actual~0_combout $end
$var wire 1 f inst|LPM_COUNTER_component|auto_generated|counter_comb_bita0~COUT $end
$var wire 1 g inst|LPM_COUNTER_component|auto_generated|counter_comb_bita1~combout $end
$var wire 1 h inst|LPM_COUNTER_component|auto_generated|counter_reg_bit[1]~6_combout $end
$var wire 1 i inst|LPM_COUNTER_component|auto_generated|counter_comb_bita1~COUT $end
$var wire 1 j inst|LPM_COUNTER_component|auto_generated|counter_comb_bita2~combout $end
$var wire 1 k inst|LPM_COUNTER_component|auto_generated|counter_reg_bit[2]~5_combout $end
$var wire 1 l inst|LPM_COUNTER_component|auto_generated|counter_comb_bita2~COUT $end
$var wire 1 m inst|LPM_COUNTER_component|auto_generated|counter_comb_bita3~combout $end
$var wire 1 n inst|LPM_COUNTER_component|auto_generated|counter_reg_bit[3]~4_combout $end
$var wire 1 o inst|LPM_COUNTER_component|auto_generated|counter_comb_bita3~COUT $end
$var wire 1 p inst|LPM_COUNTER_component|auto_generated|counter_comb_bita4~combout $end
$var wire 1 q inst|LPM_COUNTER_component|auto_generated|counter_reg_bit[4]~3_combout $end
$var wire 1 r inst|LPM_COUNTER_component|auto_generated|counter_comb_bita4~COUT $end
$var wire 1 s inst|LPM_COUNTER_component|auto_generated|counter_comb_bita5~combout $end
$var wire 1 t inst|LPM_COUNTER_component|auto_generated|counter_reg_bit[5]~2_combout $end
$var wire 1 u inst|LPM_COUNTER_component|auto_generated|counter_comb_bita5~COUT $end
$var wire 1 v inst|LPM_COUNTER_component|auto_generated|counter_comb_bita6~combout $end
$var wire 1 w inst|LPM_COUNTER_component|auto_generated|counter_reg_bit[6]~1_combout $end
$var wire 1 x inst|LPM_COUNTER_component|auto_generated|counter_comb_bita6~COUT $end
$var wire 1 y inst|LPM_COUNTER_component|auto_generated|counter_comb_bita7~combout $end
$var wire 1 z inst|LPM_COUNTER_component|auto_generated|counter_reg_bit[7]~0_combout $end
$var wire 1 { inst1|$00000|auto_generated|result_node[7]~2_combout $end
$var wire 1 | inst1|$00000|auto_generated|result_node[6]~3_combout $end
$var wire 1 } inst1|$00000|auto_generated|result_node[5]~4_combout $end
$var wire 1 ~ inst1|$00000|auto_generated|result_node[4]~5_combout $end
$var wire 1 !! inst1|$00000|auto_generated|result_node[3]~6_combout $end
$var wire 1 "! inst1|$00000|auto_generated|result_node[2]~7_combout $end
$var wire 1 #! inst1|$00000|auto_generated|result_node[1]~8_combout $end
$var wire 1 $! inst1|$00000|auto_generated|result_node[0]~9_combout $end
$var wire 1 %! inst2 [7] $end
$var wire 1 &! inst2 [6] $end
$var wire 1 '! inst2 [5] $end
$var wire 1 (! inst2 [4] $end
$var wire 1 )! inst2 [3] $end
$var wire 1 *! inst2 [2] $end
$var wire 1 +! inst2 [1] $end
$var wire 1 ,! inst2 [0] $end
$var wire 1 -! inst|LPM_COUNTER_component|auto_generated|counter_reg_bit [7] $end
$var wire 1 .! inst|LPM_COUNTER_component|auto_generated|counter_reg_bit [6] $end
$var wire 1 /! inst|LPM_COUNTER_component|auto_generated|counter_reg_bit [5] $end
$var wire 1 0! inst|LPM_COUNTER_component|auto_generated|counter_reg_bit [4] $end
$var wire 1 1! inst|LPM_COUNTER_component|auto_generated|counter_reg_bit [3] $end
$var wire 1 2! inst|LPM_COUNTER_component|auto_generated|counter_reg_bit [2] $end
$var wire 1 3! inst|LPM_COUNTER_component|auto_generated|counter_reg_bit [1] $end
$var wire 1 4! inst|LPM_COUNTER_component|auto_generated|counter_reg_bit [0] $end
$var wire 1 5! inst|LPM_COUNTER_component|auto_generated|pre_hazard [7] $end
$var wire 1 6! inst|LPM_COUNTER_component|auto_generated|pre_hazard [6] $end
$var wire 1 7! inst|LPM_COUNTER_component|auto_generated|pre_hazard [5] $end
$var wire 1 8! inst|LPM_COUNTER_component|auto_generated|pre_hazard [4] $end
$var wire 1 9! inst|LPM_COUNTER_component|auto_generated|pre_hazard [3] $end
$var wire 1 :! inst|LPM_COUNTER_component|auto_generated|pre_hazard [2] $end
$var wire 1 ;! inst|LPM_COUNTER_component|auto_generated|pre_hazard [1] $end
$var wire 1 <! inst|LPM_COUNTER_component|auto_generated|pre_hazard [0] $end
$upscope $end
$upscope $end
$enddefinitions $end
#0
$dumpvars
b0 !
0"
0#
0$
0%
0-
0,
0+
0*
0)
0(
0'
0&
05
04
03
02
01
00
0/
0.
x6
07
18
x9
1:
1;
1<
0=
0>
0?
0@
0A
0B
0C
0D
0E
0F
0G
0H
0I
0J
0K
0L
0M
0N
0O
0P
0Q
0R
0S
0T
0U
0V
0W
0X
0Y
1Z
x[
x\
x]
x^
x_
x`
xa
xb
xc
xd
0e
xf
xg
xh
xi
xj
xk
xl
xm
xn
xo
xp
xq
xr
xs
xt
xu
xv
xw
xx
xy
xz
x{
x|
x}
x~
x!!
x"!
x#!
x$!
0,!
0+!
0*!
0)!
0(!
0'!
0&!
0%!
04!
03!
02!
01!
00!
0/!
0.!
0-!
x<!
x;!
x:!
x9!
x8!
x7!
x6!
x5!
$end
#20000
1%
1U
06
x-!
x.!
x/!
x0!
x1!
x2!
x3!
x4!
x,!
x+!
x*!
x)!
x(!
x'!
x&!
x%!
xL
xK
xJ
xI
xH
xG
xF
xE
x5
x4
x3
x2
x1
x0
x/
x.
#30000
1"
1V
16
1e
1b
1a
1`
1_
1^
1]
1\
1[
0Z
0$!
0#!
0"!
0!!
0~
0}
0|
0{
04!
03!
02!
01!
00!
0/!
0.!
0-!
1<!
1;!
1:!
19!
18!
17!
16!
15!
0f
1c
1i
0l
1o
0r
1u
0x
0g
1d
0j
0m
0p
0s
0v
0y
0h
0k
0n
0q
0t
0w
0z
#40000
0%
0U
06
#60000
0"
1%
0V
1U
16
0e
1Z
0,!
0+!
0*!
0)!
0(!
0'!
0&!
0%!
0L
0K
0J
0I
0H
0G
0F
0E
05
04
03
02
01
00
0/
0.
#70000
b1000000 !
b1010000 !
b1010100 !
b1010110 !
06
1S
1R
1P
1N
1C
1B
1@
1>
1,
1+
1)
1'
#80000
1#
0%
1X
0U
16
0Z
1Y
1#!
1"!
1~
1|
#100000
1%
1U
06
14!
1+!
1*!
1(!
1&!
0<!
1K
1J
1H
1F
14
13
11
1/
1f
0c
1g
0d
1h
#120000
0%
0U
16
#130000
b1110110 !
b1111110 !
b1101110 !
b1101010 !
b1101000 !
06
0S
0R
1Q
0P
1O
0#!
0"!
1!!
0~
1}
0C
0B
1A
0@
1?
0,
0+
1*
0)
1(
#140000
1%
1U
16
13!
04!
0+!
0*!
1)!
0(!
1'!
0;!
1<!
0K
0J
1I
0H
1G
04
03
12
01
10
0i
0g
0f
1c
1j
0h
1i
1g
1d
1k
0j
1h
0k
#160000
0%
0U
06
#180000
1%
1U
16
14!
0<!
1f
0c
0i
0g
0d
1j
0h
1k
#200000
0%
0U
06
#220000
0#
1%
0X
1U
16
1Z
0Y
1$!
1#!
0!!
0}
0|
12!
03!
04!
0:!
1;!
1<!
1"!
1l
0j
0#!
1i
1g
0$!
0f
1c
1m
0k
0l
1j
1h
0g
1d
1n
0m
1k
0h
0n
#240000
b11101000 !
b11101001 !
b10101001 !
b10100001 !
0%
0U
06
1T
0Q
0N
1M
1D
0A
0>
1=
1-
0*
0'
1&
#260000
1%
1U
16
14!
1*!
0)!
0'!
0&!
0<!
1J
0I
0G
0F
13
02
00
0/
1$!
1f
0c
1g
0d
1h
#280000
0%
0U
06
#300000
1%
1U
16
13!
04!
1,!
0;!
1<!
1L
15
1#!
0i
0g
0$!
0f
1c
1l
0j
0h
1i
1g
1d
1m
0k
0l
1j
1h
1n
0m
1k
0n
#320000
0%
0U
06
#340000
1%
1U
16
14!
0,!
1+!
0<!
0L
1K
05
14
1$!
1f
0c
0i
0g
0d
1l
0j
0h
1m
0k
1n
#360000
0%
0U
06
#380000
1%
1U
16
11!
02!
03!
04!
1,!
09!
1:!
1;!
1<!
1L
15
1!!
0o
0m
0"!
0l
1j
0#!
1i
1g
0$!
0f
1c
1p
0n
1o
1m
1k
0j
1h
0g
1d
1q
0p
1n
0k
0h
0q
#400000
b10000001 !
b10000011 !
b11000011 !
0%
0U
06
1S
0O
1N
1C
0?
1>
1,
0(
1'
#420000
1%
1U
16
14!
0,!
0+!
0*!
1)!
0<!
0L
0K
0J
1I
05
04
03
12
1$!
1f
0c
1g
0d
1h
#440000
0%
0U
06
#460000
1%
1U
16
13!
04!
1,!
0;!
1<!
1L
15
1#!
0i
0g
0$!
0f
1c
1j
0h
1i
1g
1d
1k
0j
1h
0k
#480000
0%
0U
06
#500000
1$
1%
1W
1U
16
1e
0b
0a
0\
0[
0Z
1Y
0<!
0d
1;!
0h
06!
1w
05!
1z
1$!
0!!
1|
1{
1f
0c
0g
1v
1y
1g
1d
1h
0w
0z
0h
03!
01!
0,!
1+!
0;!
19!
0L
1K
05
14
0i
0g
0m
1j
1h
0n
1k
#520000
0%
0U
06
#540000
1%
1U
16
1,!
0)!
1&!
1%!
1L
0I
1F
1E
15
02
1/
1.
#550000
b11010011 !
b11010111 !
b11010110 !
06
0T
1R
1P
0$!
1b
1"!
0`
1~
0^
0D
1B
1@
0-
1+
1)
1<!
0d
0:!
0k
08!
1q
0f
1c
1l
0j
1p
1i
1g
1d
1m
1k
0q
0l
1j
0h
1n
0m
0k
0n
#560000
0%
0U
16
#580000
1%
1U
06
0,!
1*!
1(!
0L
1J
1H
05
13
11
#600000
0%
0U
16
#620000
1%
1U
06
#640000
0%
0U
16
#660000
1%
1U
06
#680000
0%
0U
16
#700000
0$
1%
0W
1U
06
0e
1Z
0Y
#720000
0%
0U
16
#740000
1%
1U
06
14!
0<!
1$!
1f
0c
0i
0g
0d
1l
0j
1h
1m
1k
1n
#760000
b1010110 !
b1010100 !
b10100 !
b100 !
b0 !
0%
0U
16
0S
0R
0P
0N
0M
0C
0B
0@
0>
0=
0,
0+
0)
0'
0&
#780000
1%
1U
06
11!
12!
13!
04!
1,!
09!
1:!
1;!
1<!
1L
15
1!!
0o
0m
0"!
0l
1j
0#!
1i
1g
0$!
0f
1c
1r
0p
0n
1o
1m
0k
0j
0h
0g
1d
1s
1q
0r
1p
1n
1k
1h
1t
0s
0q
0t
#800000
0%
0U
16
#820000
1%
1U
06
14!
0,!
0+!
0*!
1)!
0<!
0L
0K
0J
1I
05
04
03
12
1$!
1f
0c
1g
0d
0h
#840000
0%
0U
16
#860000
1%
1U
06
03!
04!
1,!
0;!
1<!
1L
15
1#!
0i
0g
0$!
0f
1c
1j
1h
1i
1g
1d
0k
0j
0h
1k
#880000
0%
0U
16
#900000
1%
1U
06
14!
0,!
1+!
0<!
0L
1K
05
14
1$!
1f
0c
0i
0g
0d
1j
1h
0k
#920000
0%
0U
16
#940000
1%
1U
06
02!
13!
04!
1,!
0:!
1;!
1<!
1L
15
1"!
1l
0j
0#!
1i
1g
0$!
0f
1c
0o
0m
1k
0l
1j
0h
0g
1d
1r
0p
0n
1o
1m
0k
1h
1s
1q
0r
1p
1n
1t
0s
0q
0t
#960000
0%
0U
16
#980000
1%
1U
06
14!
0,!
0+!
1*!
0<!
0L
0K
1J
05
04
13
1$!
1f
0c
1g
0d
0h
