计组实验/computerExercise/exercise1/simulation/qsim/exercise1.msim.vcd
$comment
	File created using the following command:
		vcd file exercise1.msim.vcd -direction
$end
$date
	Fri Oct 04 12:56:50 2024
$end
$version
	ModelSim Version 10.1d
$end
$timescale
	1ps
$end
$scope module exercise1_vlg_vec_tst $end
$var reg 1 ! CLK1 $end
$var reg 1 " RST1 $end
$var wire 1 # T1 $end
$var wire 1 $ T2 $end
$var wire 1 % T3 $end
$var wire 1 & T4 $end
$var wire 1 ' sampler $end
$scope module i1 $end
$var wire 1 ( gnd $end
$var wire 1 ) vcc $end
$var wire 1 * unknown $end
$var tri1 1 + devclrn $end
$var tri1 1 , devpor $end
$var tri1 1 - devoe $end
$var wire 1 . T1~output_o $end
$var wire 1 / T2~output_o $end
$var wire 1 0 T3~output_o $end
$var wire 1 1 T4~output_o $end
$var wire 1 2 CLK1~input_o $end
$var wire 1 3 CLK1~inputclkctrl_outclk $end
$var wire 1 4 inst1~0_combout $end
$var wire 1 5 RST1~input_o $end
$var wire 1 6 inst1~q $end
$var wire 1 7 inst2~feeder_combout $end
$var wire 1 8 inst2~q $end
$var wire 1 9 inst3~feeder_combout $end
$var wire 1 : inst3~q $end
$var wire 1 ; inst~0_combout $end
$var wire 1 < inst~q $end
$upscope $end
$upscope $end
$enddefinitions $end
#0
$dumpvars
0!
0"
1#
0$
0%
0&
x'
0(
1)
x*
1+
1,
1-
1.
0/
00
01
02
03
14
05
06
07
08
09
0:
1;
0<
$end
#110000
1"
15
0'
#250000
1!
12
13
1'
1<
16
04
17
0.
1/
0#
1$
#500000
0!
02
03
0'
#750000
1!
12
13
1'
18
06
19
07
10
0/
1%
0$
#1000000
0!
02
03
0'
#1250000
1!
12
13
1'
1:
08
0;
09
11
00
1&
0%
#1500000
0!
02
03
0'
#1750000
1!
12
13
1'
0<
0:
14
1;
1.
01
1#
0&
#2000000
0!
02
03
0'
#2250000
1!
12
13
1'
1<
16
04
17
0.
1/
0#
1$
#2500000
0!
02
03
0'
#2750000
1!
12
13
1'
18
06
19
07
10
0/
1%
0$
#3000000
0!
02
03
0'
#3250000
1!
12
13
1'
1:
08
0;
09
11
00
1&
0%
#3500000
0!
02
03
0'
#3750000
1!
12
13
1'
0<
0:
14
1;
1.
01
1#
0&
#4000000
0!
02
03
0'
#4250000
1!
12
13
1'
1<
16
04
17
0.
1/
0#
1$
#4500000
0!
02
03
0'
#4750000
1!
12
13
1'
18
06
19
07
10
0/
1%
0$
#5000000
0!
02
03
0'
#5250000
1!
12
13
1'
1:
08
0;
09
11
00
1&
0%
#5500000
0!
02
03
0'
#5750000
1!
12
13
1'
0<
0:
14
1;
1.
01
1#
0&
#6000000
0!
02
03
0'
#6250000
1!
12
13
1'
1<
16
04
17
0.
1/
0#
1$
#6500000
0!
02
03
0'
#6750000
1!
12
13
1'
18
06
19
07
10
0/
1%
0$
#7000000
0!
02
03
0'
#7250000
1!
12
13
1'
1:
08
0;
09
11
00
1&
0%
#7500000
0!
02
03
0'
#7750000
1!
12
13
1'
0<
0:
14
1;
1.
01
1#
0&
#8000000
0!
02
03
0'
#8250000
1!
12
13
1'
1<
16
04
17
0.
1/
0#
1$
#8500000
0!
02
03
0'
#8750000
1!
12
13
1'
18
06
19
07
10
0/
1%
0$
#9000000
0!
02
03
0'
#9250000
1!
12
13
1'
1:
08
0;
09
11
00
1&
0%
#9500000
0!
02
03
0'
#9750000
1!
12
13
1'
0<
0:
14
1;
1.
01
1#
0&
#10000000
0!
02
03
0'
#10250000
1!
12
13
1'
1<
16
04
17
0.
1/
0#
1$
#10500000
0!
02
03
0'
#10750000
1!
12
13
1'
18
06
19
07
10
0/
1%
0$
#11000000
0!
02
03
0'
#11250000
1!
12
13
1'
1:
08
0;
09
11
00
1&
0%
#11500000
0!
02
03
0'
#11750000
1!
12
13
1'
0<
0:
14
1;
1.
01
1#
0&
#12000000
0!
02
03
0'
#12250000
1!
12
13
1'
1<
16
04
17
0.
1/
0#
1$
#12500000
0!
02
03
0'
#12750000
1!
12
13
1'
18
06
19
07
10
0/
1%
0$
#13000000
0!
02
03
0'
#13250000
1!
12
13
1'
1:
08
0;
09
11
00
1&
0%
#13500000
0!
02
03
0'
#13750000
1!
12
13
1'
0<
0:
14
1;
1.
01
1#
0&
#14000000
0!
02
03
0'
#14250000
1!
12
13
1'
1<
16
04
17
0.
1/
0#
1$
#14500000
0!
02
03
0'
#14750000
1!
12
13
1'
18
06
19
07
10
0/
1%
0$
