计组实验/computerExercise/task6/simulation/qsim/task6.msim.vcd
$comment
	File created using the following command:
		vcd file task6.msim.vcd -direction
$end
$date
	Tue Mar 11 20:17:45 2025
$end
$version
	ModelSim Version 10.1d
$end
$timescale
	1ps
$end
$scope module task6_vlg_vec_tst $end
$var reg 1 ! FC $end
$var reg 1 " FZ $end
$var reg 6 # I [7:2] $end
$var reg 4 $ P [4:1] $end
$var reg 1 % SWA $end
$var reg 1 & SWB $end
$var reg 1 ' T4 $end
$var wire 1 ( SE [6] $end
$var wire 1 ) SE [5] $end
$var wire 1 * SE [4] $end
$var wire 1 + SE [3] $end
$var wire 1 , SE [2] $end
$var wire 1 - SE [1] $end
$var wire 1 . sampler $end
$scope module i1 $end
$var wire 1 / gnd $end
$var wire 1 0 vcc $end
$var wire 1 1 unknown $end
$var tri1 1 2 devclrn $end
$var tri1 1 3 devpor $end
$var tri1 1 4 devoe $end
$var wire 1 5 SE[6]~output_o $end
$var wire 1 6 SE[5]~output_o $end
$var wire 1 7 SE[4]~output_o $end
$var wire 1 8 SE[3]~output_o $end
$var wire 1 9 SE[2]~output_o $end
$var wire 1 : SE[1]~output_o $end
$var wire 1 ; P[3]~input_o $end
$var wire 1 < FC~input_o $end
$var wire 1 = FZ~input_o $end
$var wire 1 > T4~input_o $end
$var wire 1 ? inst7~0_combout $end
$var wire 1 @ P[1]~input_o $end
$var wire 1 A I[7]~input_o $end
$var wire 1 B inst8~combout $end
$var wire 1 C I[6]~input_o $end
$var wire 1 D inst9~combout $end
$var wire 1 E I[3]~input_o $end
$var wire 1 F I[5]~input_o $end
$var wire 1 G P[2]~input_o $end
$var wire 1 H inst5~0_combout $end
$var wire 1 I P[4]~input_o $end
$var wire 1 J SWB~input_o $end
$var wire 1 K inst5~1_combout $end
$var wire 1 L I[2]~input_o $end
$var wire 1 M I[4]~input_o $end
$var wire 1 N inst6~0_combout $end
$var wire 1 O SWA~input_o $end
$var wire 1 P inst6~1_combout $end
$upscope $end
$upscope $end
$enddefinitions $end
#0
$dumpvars
0!
0"
b1010 #
b11 $
1%
0&
0'
1-
1,
1+
1*
1)
1(
x.
0/
10
x1
12
13
14
15
16
17
18
19
1:
0;
0<
0=
0>
0?
1@
0A
0B
0C
0D
1E
1F
1G
0H
0I
0J
0K
0L
0M
0N
1O
0P
$end
#5000
1'
1>
0.
1P
0:
0-
#10000
b1000 #
b1011 $
b1111 $
b1101 $
b1100 $
0'
0@
0G
1;
1I
0E
0>
1.
1H
0P
1:
1-
#15000
1'
1>
0.
1K
09
0,
#20000
b0 #
b1 #
b100 $
b101 $
0'
1@
0I
1L
0F
0>
1.
1N
0H
0K
19
1,
#25000
1'
1>
0.
1P
0:
0-
#30000
b10001 #
b10011 #
b1 $
b11 $
b11011 #
b1011 $
b1010 $
0'
0@
1G
0;
1I
1E
1F
1C
0>
1.
0N
1H
0P
1:
1-
#35000
1'
1>
0.
1K
1D
09
08
0,
0+
#40000
1!
b111011 #
b111010 #
b101010 #
b1110 $
b1100 $
0'
1<
0G
1;
0L
0C
1A
0>
1.
0D
0K
18
19
1+
1,
#45000
1'
1>
0.
1K
1B
09
07
0,
0*
#50000
b101110 #
b100 $
b101 $
b1110 #
b1 $
b11 $
0'
1@
1G
0;
0I
1M
0A
0>
1.
0H
0B
0K
17
19
1*
1,
#55000
1'
1>
0.
1P
1?
0:
06
0-
0)
#60000
b1100 #
b100 #
b101 #
b10101 #
b1011 $
b1010 $
0'
0@
1I
1L
0E
0F
1C
0>
1.
1N
0P
0?
1:
16
1-
1)
#65000
1'
1>
0.
1P
1D
1?
0:
08
06
0-
0+
0)
#70000
1&
b10001 #
b1110 $
b1100 $
b10011 #
b11011 #
b100 $
b101 $
0'
1J
1@
0G
1;
0I
1E
0M
1F
0>
1.
1H
0D
0?
0P
18
16
1:
1+
1)
1-
#75000
1'
1>
0.
1P
1K
0:
09
0-
0,
#80000
1"
b1 $
b11001 #
b10001 #
b1001 $
0'
1=
0E
0F
0;
1I
0>
1.
0H
0P
0K
1:
19
1-
1,
#85000
1'
1>
0.
1P
1?
0:
06
0-
0)
#90000
0%
b10000 #
b0 #
b1011 $
b1010 $
b1110 $
b10 #
b1010 #
0'
0O
0@
1G
1;
0L
1E
1F
0C
0>
1.
0P
0N
1H
0?
1:
16
1-
1)
#95000
1'
1>
0.
1K
09
0,
#100000
b1011 #
b1100 $
b1000 $
b1001 #
b1 #
0'
0G
0;
1L
0E
0F
0>
1.
1N
0H
0K
19
1,
#105000
1'
1>
0.
1P
1?
0:
06
0-
0)
#110000
b100001 #
b0 $
b1 $
b101 $
b101001 #
0'
1@
1;
0I
1F
1A
0>
1.
0?
0P
16
1:
1)
1-
#115000
1'
1>
0.
1P
1K
0:
09
0-
0,
#120000
b111001 #
b111 $
b11 $
b110001 #
0'
1G
0;
0F
1C
0>
1.
0N
0P
0K
1:
19
1-
1,
#125000
1'
1>
0.
1K
1?
09
06
0,
0)
#130000
0!
b110101 #
b110100 #
b10100 #
b1 $
0'
0<
0G
0L
1M
0A
0>
1.
0?
0K
16
19
1)
1,
#135000
1'
1>
0.
1K
1?
09
06
0,
0)
#140000
b10110 #
b0 $
b100 $
b10010 #
b110010 #
0'
0@
1;
1E
0M
1A
0>
1.
1H
0?
0K
16
19
1)
1,
#145000
1'
1>
0.
1K
1D
1B
09
08
07
0,
0+
0*
#150000
b1100 $
b100010 #
b101010 #
b101011 #
b1110 $
b1111 $
0'
1L
1F
0C
1@
1G
1I
0>
1.
0H
0D
0B
0K
18
17
19
1+
1*
1,
#155000
1'
1>
0.
#160000
b101001 #
b1001 #
b111 $
b11001 #
b10001 #
b101 $
b100 $
0'
0@
0G
0I
0E
0F
1C
0A
0>
1.
1N
#165000
1'
1>
0.
1P
1K
1D
0:
09
08
0-
0,
0+
#170000
b10000 #
b10010 #
b110010 #
b1100 $
b100010 #
b101010 #
b1101 $
0'
1@
1I
0L
1E
1F
0C
1A
0>
1.
0N
1H
0D
0P
0K
18
1:
19
1+
1-
1,
#175000
1'
1>
0.
1K
09
0,
#180000
b1111 $
b101011 #
b1011 #
0'
1L
0A
1G
0>
1.
0H
0K
19
1,
#185000
1'
1>
0.
#190000
b1001 #
b111 $
b1 #
b110 $
b100 $
b0 #
0'
0@
0G
0I
0L
0E
0F
0>
1.
#195000
1'
1>
0.
1K
09
0,
#200000
b100 #
b10100 #
b10110 #
b11110 #
b11111 #
0'
1L
1E
1M
1F
1C
0>
1.
1N
1H
0K
19
1,
#205000
1'
1>
0.
1P
1K
1D
0:
09
08
0-
0,
0+
#210000
b110 $
b11011 #
b1011 #
b1001 #
b1000 #
0'
0L
0E
0M
0C
1G
0>
1.
0N
0D
0P
0K
18
1:
19
1+
1-
1,
#215000
1'
1>
0.
1K
09
0,
#220000
0&
b1110 $
b0 #
b1100 $
b100 #
b10100 #
b10110 #
0'
0J
1E
1M
0F
1C
0G
1I
0>
1.
0K
1N
19
1,
#225000
1'
1>
0.
1P
1K
1D
0:
09
08
0-
0,
0+
#230000
b1000 $
b1010 $
0'
1G
0;
0>
1.
0H
0P
0K
0D
1:
19
18
1-
1,
1+
#235000
1'
1>
0.
1P
1D
1?
0:
08
06
0-
0+
0)
#240000
0"
b110110 #
b110111 #
b10 $
b100111 #
b100101 #
b0 $
0'
0=
0G
0I
1L
0E
0C
1A
0>
1.
0?
0P
0D
16
1:
18
1)
1-
1+
#245000
1'
1>
0.
1P
1B
0:
07
0-
0*
#250000
b1 $
b101 $
b101 #
b100 #
b1101 $
b10100 #
b10110 #
0'
0L
1E
1C
0A
1@
1;
1I
0>
1.
0N
1H
0B
0P
17
1:
1*
1-
#255000
1'
1>
0.
1K
09
0,
#260000
b10010 #
b1111 $
b10000 #
0'
1G
0E
0M
0>
1.
0H
0K
19
1,
#265000
1'
1>
0.
#270000
b11000 #
b1011 $
b11001 #
b11 $
b1001 #
b1011 #
0'
0;
0I
1L
1E
1F
0C
0>
1.
#275000
1'
1>
0.
#280000
b1111 #
b111 #
b110 #
b1011 $
b10110 #
b10100 #
0'
1I
0L
0E
1M
0F
1C
0>
1.
#285000
1'
1>
0.
#290000
b1010 $
b1000 $
b1100 $
b10000 #
b10001 #
b100 $
0'
1L
0M
0@
0G
1;
0I
0>
1.
1N
#295000
1'
1>
0.
1P
1D
0:
08
0-
0+
#300000
b110001 #
b100001 #
b100011 #
b100111 #
0'
1E
1M
0C
1A
0>
1.
1H
0D
0P
18
1:
1+
1-
#305000
1'
1>
0.
1P
1K
1B
0:
09
07
0-
0,
0*
#310000
b1100 $
b111 #
b10111 #
b10011 #
0'
0M
1C
0A
1I
0>
1.
0B
0P
0K
17
1:
19
1*
1-
1,
#315000
1'
1>
0.
1P
1K
1D
0:
09
08
0-
0,
0+
#320000
b11011 #
b1101 $
b11010 #
b101 $
0'
1@
0I
0L
1F
0>
1.
0N
0D
0P
0K
18
1:
19
1+
1-
1,
#325000
1'
1>
0.
1K
09
0,
#330000
b1 $
b11000 #
b111000 #
b111100 #
0'
0E
1M
1A
0;
0>
1.
0H
0K
19
1,
#335000
1'
1>
0.
#340000
b11 $
b1011 $
b1111 $
b111110 #
0'
1E
1G
1;
1I
0>
1.
#345000
1'
1>
0.
#350000
b101110 #
b100110 #
b1110 $
b110 #
b1100 $
b100 $
0'
0@
0G
0I
0F
0C
0A
0>
1.
1N
1H
#355000
1'
1>
0.
1P
1K
0:
09
0-
0,
#360000
b10 #
b0 $
b10010 #
b10 $
b1010 $
0'
1G
0;
1I
0M
1C
0>
1.
0N
0H
0P
0K
1:
19
1-
1,
#365000
1'
1>
0.
1D
08
0+
#370000
b10011 #
b10001 #
b11001 #
b111001 #
b111101 #
b1110 $
b101101 #
b110 $
0'
1;
0I
1L
0E
1M
1F
0C
1A
0>
1.
1N
1H
0D
18
1+
#375000
1'
1>
0.
1P
1K
1B
0:
09
07
0-
0,
0*
#380000
b101100 #
b101000 #
b10 $
b1010 $
0'
0;
1I
0L
0M
0>
1.
0P
0K
0N
0B
1:
19
17
1-
1,
1*
#385000
1'
1>
0.
1K
1B
09
07
0,
0*
#390000
b101010 #
b1010 #
b11010 #
b11110 #
b1110 $
b110 $
0'
1;
0I
1E
1M
1C
0A
0>
1.
0K
1N
0B
19
17
1,
1*
#395000
1'
1>
0.
1P
1K
1D
0:
09
08
0-
0,
0+
#400000
b111 $
b101 $
b10110 #
b10100 #
b110100 #
b1 $
0'
0E
0F
1A
1@
0G
0;
0>
1.
0H
0N
0D
0P
0K
18
1:
19
1+
1-
1,
#405000
1'
1>
0.
#410000
b110101 #
b100101 #
b100001 #
b0 $
b10 $
b110 $
0'
0@
1G
1;
1L
0M
0C
0>
1.
#415000
1'
1>
0.
1B
07
0*
#420000
b1110 $
b101001 #
b111001 #
b111101 #
b1100 $
0'
1M
1F
1C
0G
1I
0>
1.
1N
1H
0B
17
1*
#425000
1'
1>
0.
1P
1K
1D
1B
0:
09
08
07
0-
0,
0+
0*
#430000
b111111 #
b11111 #
b11110 #
b1000 $
b10110 #
b110 #
b10 #
0'
0;
0L
1E
0M
0F
0C
0A
0>
1.
0N
0D
0B
0P
0K
18
17
1:
19
1+
1*
1-
1,
#435000
1'
1>
0.
1K
09
0,
#440000
b0 $
b10 $
b0 #
b100000 #
b100001 #
b110 $
b101001 #
b111001 #
0'
1L
0E
1F
1C
1A
1G
1;
0I
0>
1.
0K
19
1,
#445000
1'
1>
0.
1K
1D
1B
09
08
07
0,
0+
0*
#450000
b111 $
b1111 $
b1101 $
b11001 #
b11000 #
b1001 $
b10000 #
0'
0L
0F
0A
1@
0G
0;
1I
0>
1.
0H
0B
0D
0K
17
18
19
1*
1+
1,
#455000
1'
1>
0.
#460000
b10100 #
b100 #
b1011 $
b100100 #
b100101 #
b1111 $
b101101 #
0'
1G
1;
1L
1M
1F
0C
1A
0>
1.
#465000
1'
1>
0.
#470000
b101111 #
b1110 $
b101011 #
b1100 $
b1011 #
b1010 #
b1000 $
0'
0@
0G
0;
0L
1E
0M
0A
0>
1.
1H
#475000
1'
1>
0.
1K
09
0,
#480000
b101010 #
b101011 #
0'
1L
1A
0>
1.
1N
0K
19
1,
#485000
1'
1>
0.
1P
1K
1B
0:
09
07
0-
0,
0*
#490000
b111011 #
b111001 #
b1001 $
b1011 $
b1111 $
b111000 #
0'
1@
1G
1;
0L
0E
1C
0>
1.
0N
0H
0B
0P
0K
17
1:
19
1*
1-
1,
#495000
1'
1>
0.
#500000
b111 $
b111010 #
b101 $
b1 $
0'
1E
0G
0;
0I
0>
1.
1H
#505000
1'
1>
0.
1K
09
0,
#510000
b110010 #
b10010 #
b0 $
b10011 #
0'
0@
1L
0F
0A
0>
1.
1N
0K
19
1,
#515000
1'
1>
0.
1P
1K
1D
0:
09
08
0-
0,
0+
#520000
b10001 #
b10 $
b110 $
0'
1G
1;
0E
0>
1.
0N
0H
0P
0K
0D
1:
19
18
1-
1,
1+
#525000
1'
1>
0.
1D
08
0+
#530000
b10101 #
b1110 $
b11101 #
b1111 $
b11100 #
0'
1@
1I
0L
1M
1F
0>
1.
0D
18
1+
#535000
1'
1>
0.
#540000
b1100 #
b1110 #
b1010 #
b1110 $
0'
0@
1E
0M
0C
0>
1.
1H
#545000
1'
1>
0.
1K
09
0,
#550000
b1010 $
b10 $
b10 #
b10010 #
0'
0F
1C
0;
0I
0>
1.
0H
0K
19
1,
#555000
1'
1>
0.
1D
08
0+
#560000
b0 $
b10110 #
b100 $
b1100 $
b11110 #
0'
1M
1F
0G
1;
1I
0>
1.
1N
1H
0D
18
1+
#565000
1'
1>
0.
1P
1K
1D
0:
09
08
0-
0,
0+
#570000
b111110 #
b111111 #
b1101 $
b111011 #
b1001 $
b110011 #
0'
1@
0;
1L
0M
0F
1A
0>
1.
0D
0P
0K
18
1:
19
1+
1-
1,
#575000
1'
1>
0.
1P
1K
0:
09
0-
0,
#580000
b110001 #
b1 $
b0 $
b110101 #
0'
0@
0I
0E
1M
0>
1.
0H
0P
0K
1:
19
1-
1,
#585000
1'
1>
0.
1P
1D
1B
0:
08
07
0-
0+
0*
#590000
b100101 #
b101 #
b111 #
b1 $
b11 #
0'
1@
1E
0M
0C
0A
0>
1.
1H
0D
0B
0P
18
17
1:
1+
1*
1-
#595000
1'
1>
0.
1P
1K
0:
09
0-
0,
#600000
b10 #
b101 $
b1010 #
b1101 $
b1000 #
b1100 $
0'
0@
1;
1I
0L
0E
1F
0>
1.
0N
0P
0K
1:
19
1-
1,
#605000
1'
1>
0.
1K
09
0,
#610000
b1100 #
b100 #
b1101 $
0'
1@
1M
0F
0>
1.
0H
0K
19
1,
#615000
1'
1>
0.
#620000
b101 #
b1001 $
b1 $
b111 #
b0 $
0'
0@
0;
0I
1L
1E
0>
1.
1N
1H
#625000
1'
1>
0.
1P
1K
0:
09
0-
0,
#630000
b100111 #
b100011 #
b100010 #
b1000 $
b100000 #
0'
1I
0L
0E
0M
1A
0>
1.
0P
0K
0N
0H
1:
19
1-
1,
#635000
1'
1>
0.
1B
07
0*
#640000
b101000 #
b1100 $
b1000 #
b1010 #
0'
1;
1E
1F
0A
0>
1.
1H
0B
17
1*
#645000
1'
1>
0.
1K
09
0,
#650000
b1110 #
b1111 #
b1000 $
b101111 #
b101101 #
0'
0;
1L
0E
1M
1A
0>
1.
1N
0K
19
1,
#655000
1'
1>
0.
1P
1K
1B
0:
09
07
0-
0,
0*
#660000
b1001 $
b1 $
b101001 #
b101000 #
b101 $
b1000 #
b1010 #
0'
0L
1E
0M
0A
1@
1;
0I
0>
1.
0N
0B
0P
0K
17
1:
19
1*
1-
1,
#665000
1'
1>
0.
1K
09
0,
#670000
b11010 #
b10010 #
b10011 #
b110011 #
0'
1L
0F
1C
1A
0>
1.
1N
0K
19
1,
#675000
1'
1>
0.
1P
1K
0:
09
0-
0,
#680000
b111 $
b1111 $
b110111 #
b110101 #
b111101 #
b11101 #
0'
0E
1M
1F
0A
1G
1I
0>
1.
0H
0N
0P
0K
1:
19
1-
1,
#685000
1'
1>
0.
#690000
b1011 $
b1101 #
b1001 $
0'
0C
0G
0;
0>
1.
1N
#695000
1'
1>
0.
1P
0:
0-
#700000
b1000 $
b1001 #
b1011 #
b11 #
b100011 #
b1100 $
0'
1E
0M
0F
1A
0@
1;
0>
1.
1H
0P
1:
1-
#705000
1'
1>
0.
1P
1K
1B
0:
09
07
0-
0,
0*
#710000
b100010 #
b100 $
b110010 #
b101 $
b110110 #
b111110 #
b1 $
0'
1@
0;
0I
0L
1M
1F
1C
0>
1.
0N
0B
0P
0K
17
1:
19
1*
1-
1,
#715000
1'
1>
0.
1K
09
0,
#720000
b111100 #
b11100 #
b11101 #
b1101 #
b1001 #
b1 #
0'
1L
0E
0M
0F
0C
0A
0>
1.
1N
0H
0K
19
1,
#725000
1'
1>
0.
1P
0:
0-
#730000
b1001 $
b1101 $
b11 #
b10 #
b110 #
b1110 #
0'
0L
1E
1M
1F
1;
1I
0>
1.
0N
1H
0P
1:
1-
#735000
1'
1>
0.
1K
09
0,
#740000
b1111 $
b1110 $
b101110 #
b110 $
b101111 #
b101011 #
0'
1L
0M
1A
0@
1G
0I
0>
1.
0K
19
1,
#745000
1'
1>
0.
1K
1B
09
07
0,
0*
#750000
b111011 #
b110011 #
b100 $
b10011 #
b1100 $
b10010 #
0'
0G
1I
0L
0F
1C
0A
0>
1.
0K
0B
19
17
1,
1*
#755000
1'
1>
0.
1K
1D
09
08
0,
0+
#760000
b1101 $
b11010 #
b1111 $
b111010 #
b111 $
b111011 #
0'
1L
1F
1A
1@
1G
0I
0>
1.
0H
0D
0K
18
19
1+
1,
#765000
1'
1>
0.
#770000
b11 $
b10 $
b110011 #
b0 $
0'
0F
0@
0G
0;
0>
1.
1H
1N
#775000
1'
1>
0.
1P
1K
1D
1B
0:
09
08
07
0-
0,
0+
0*
#780000
b111011 #
0'
1F
0>
1.
0P
0K
0D
0B
1:
19
18
17
1-
1,
1+
1*
#785000
1'
1>
0.
1P
1K
1D
1B
0:
09
08
07
0-
0,
0+
0*
#790000
b11011 #
b10011 #
0'
0F
0A
0>
1.
0B
0P
0K
0D
17
1:
19
18
1*
1-
1,
1+
#795000
1'
1>
0.
1P
1K
1D
0:
09
08
0-
0,
0+
#800000
b11 #
b10 #
b10 $
b100010 #
0'
1G
0L
0C
1A
0>
1.
0N
0H
0D
0P
0K
18
1:
19
1+
1-
1,
#805000
1'
1>
0.
1B
07
0*
#810000
b110 $
b101010 #
b100 $
b1010 #
0'
1F
0A
0G
1;
0>
1.
1H
0B
17
1*
#815000
1'
1>
0.
1K
09
0,
#820000
b1110 #
b1100 $
b1101 $
b1111 #
b1001 $
b111 #
0'
1@
0;
1I
1L
1M
0F
0>
1.
1N
0K
19
1,
#825000
1'
1>
0.
1P
1K
0:
09
0-
0,
#830000
b101 #
b10101 #
b1011 $
b110101 #
b110001 #
b11 $
0'
1G
0I
0E
0M
1C
1A
0>
1.
0N
0H
0P
0K
1:
19
1-
1,
#835000
1'
1>
0.
#840000
b10 $
b110 $
b111001 #
b111011 #
b101011 #
b100 $
b101111 #
b1100 $
0'
1E
1M
1F
0C
0@
0G
1;
1I
0>
1.
1H
1N
#845000
1'
1>
0.
1P
1K
1B
0:
09
07
0-
0,
0*
#850000
b101110 #
b1110 #
b1101 $
b1001 $
b1011 $
0'
1@
1G
0;
0L
0A
0>
1.
0N
0H
0B
0P
0K
17
1:
19
1*
1-
1,
#855000
1'
1>
0.
#860000
b1100 #
b11100 #
b11000 #
b11 $
b11001 #
b111001 #
b111 $
b101 $
0'
0G
1;
0I
1L
0E
0M
1C
1A
0>
1.
1N
#865000
1'
1>
0.
1P
0:
0-
#870000
b110001 #
b100 $
b100001 #
b100101 #
b101 #
b110 $
0'
0@
1G
1M
0F
0C
0A
0>
1.
0P
1:
1-
#875000
1'
1>
0.
1P
0:
0-
#880000
b1110 $
b1111 $
b100101 #
b1101 $
0'
1A
1@
0G
1I
0>
1.
0P
1:
1-
#885000
1'
1>
0.
1P
0:
0-
#890000
b1001 $
b101101 #
b1101 #
b1011 $
0'
1F
0A
1G
0;
0>
1.
0N
0P
1:
1-
#895000
1'
1>
0.
#900000
b1111 #
b1010 $
b111 #
0'
0@
1E
0F
0>
1.
1N
#905000
1'
1>
0.
1P
0:
0-
#910000
b110 #
b10 #
b10 $
b100010 #
b0 $
b1 $
0'
1@
0G
0I
0L
0M
1A
0>
1.
0N
1H
0P
1:
1-
#915000
1'
1>
0.
1K
09
0,
#920000
b110010 #
b101 $
b111010 #
b111011 #
b111111 #
b11111 #
b100 $
0'
0@
1;
1L
1M
1F
1C
0A
0>
1.
1N
0K
19
1,
#925000
1'
1>
0.
1P
1K
1D
0:
09
08
0-
0,
0+
#930000
b11101 #
b1100 $
b1110 $
b10101 #
b10100 #
b110100 #
b1111 $
0'
1@
1G
1I
0L
0E
0F
1A
0>
1.
0N
0H
0D
0P
0K
18
1:
19
1+
1-
1,
#935000
1'
1>
0.
#940000
b100100 #
b111 $
b101 $
b101100 #
b1100 #
0'
0G
0I
1F
0C
0A
0>
1.
#945000
1'
1>
0.
#950000
b1 $
b1000 #
b1010 #
b1001 $
b10 #
b100010 #
0'
1E
0M
0F
1A
0;
1I
0>
1.
1H
#955000
1'
1>
0.
1K
09
0,
#960000
b100011 #
b1000 $
b110011 #
b1010 $
b1110 $
b110 $
b10011 #
0'
0@
1G
1;
0I
1L
1C
0A
0>
1.
0H
0K
19
1,
#965000
1'
1>
0.
1D
08
0+
#970000
b10111 #
b10101 #
b11101 #
b111 $
b101 $
b1101 $
b111101 #
0'
1@
0G
1I
0E
1M
1F
1A
0>
1.
1N
0D
18
1+
#975000
1'
1>
0.
1P
0:
0-
#980000
b101101 #
b1001 $
b100101 #
b1011 $
b101 #
0'
1G
0;
0F
0C
0A
0>
1.
0N
0P
1:
1-
#985000
1'
1>
0.
#990000
b1 #
b11 #
b1111 $
b1101 $
b100011 #
0'
0G
1;
1E
0M
1A
0>
1.
1N
1H
#995000
1'
1>
0.
1P
1K
0:
09
0-
0,
