数电实验/final/simulation/qsim/key_led.msim.vcd
$comment
	File created using the following command:
		vcd file key_led.msim.vcd -direction
$end
$date
	Tue Jun 11 16:12:29 2024
$end
$version
	ModelSim Version 10.1d
$end
$timescale
	1ps
$end
$scope module key_led_vlg_vec_tst $end
$var reg 2 ! key [1:0] $end
$var reg 1 " sys_clk $end
$var reg 1 # sys_rst_n $end
$var wire 1 $ led [7] $end
$var wire 1 % led [6] $end
$var wire 1 & led [5] $end
$var wire 1 ' led [4] $end
$var wire 1 ( led [3] $end
$var wire 1 ) led [2] $end
$var wire 1 * led [1] $end
$var wire 1 + led [0] $end
$var wire 1 , sampler $end
$scope module i1 $end
$var wire 1 - gnd $end
$var wire 1 . vcc $end
$var wire 1 / unknown $end
$var tri1 1 0 devclrn $end
$var tri1 1 1 devpor $end
$var tri1 1 2 devoe $end
$var wire 1 3 led[0]~output_o $end
$var wire 1 4 led[1]~output_o $end
$var wire 1 5 led[2]~output_o $end
$var wire 1 6 led[3]~output_o $end
$var wire 1 7 led[4]~output_o $end
$var wire 1 8 led[5]~output_o $end
$var wire 1 9 led[6]~output_o $end
$var wire 1 : led[7]~output_o $end
$var wire 1 ; sys_clk~input_o $end
$var wire 1 < sys_clk~inputclkctrl_outclk $end
$var wire 1 = key[0]~input_o $end
$var wire 1 > Add0~0_combout $end
$var wire 1 ? sys_rst_n~input_o $end
$var wire 1 @ sys_rst_n~inputclkctrl_outclk $end
$var wire 1 A Add0~1 $end
$var wire 1 B Add0~2_combout $end
$var wire 1 C cnt~2_combout $end
$var wire 1 D Add0~3 $end
$var wire 1 E Add0~4_combout $end
$var wire 1 F Add0~5 $end
$var wire 1 G Add0~6_combout $end
$var wire 1 H cnt~1_combout $end
$var wire 1 I Add0~7 $end
$var wire 1 J Add0~8_combout $end
$var wire 1 K cnt~0_combout $end
$var wire 1 L Add0~9 $end
$var wire 1 M Add0~10_combout $end
$var wire 1 N Add0~11 $end
$var wire 1 O Add0~12_combout $end
$var wire 1 P Add0~13 $end
$var wire 1 Q Add0~14_combout $end
$var wire 1 R Add0~15 $end
$var wire 1 S Add0~16_combout $end
$var wire 1 T Equal0~5_combout $end
$var wire 1 U Add0~17 $end
$var wire 1 V Add0~18_combout $end
$var wire 1 W Add0~19 $end
$var wire 1 X Add0~20_combout $end
$var wire 1 Y cnt[10]~feeder_combout $end
$var wire 1 Z Add0~21 $end
$var wire 1 [ Add0~22_combout $end
$var wire 1 \ Add0~23 $end
$var wire 1 ] Add0~24_combout $end
$var wire 1 ^ Add0~25 $end
$var wire 1 _ Add0~26_combout $end
$var wire 1 ` Add0~27 $end
$var wire 1 a Add0~28_combout $end
$var wire 1 b Add0~29 $end
$var wire 1 c Add0~30_combout $end
$var wire 1 d Add0~31 $end
$var wire 1 e Add0~32_combout $end
$var wire 1 f Add0~33 $end
$var wire 1 g Add0~34_combout $end
$var wire 1 h Add0~35 $end
$var wire 1 i Add0~36_combout $end
$var wire 1 j Add0~37 $end
$var wire 1 k Add0~38_combout $end
$var wire 1 l Add0~39 $end
$var wire 1 m Add0~40_combout $end
$var wire 1 n Add0~41 $end
$var wire 1 o Add0~42_combout $end
$var wire 1 p Add0~43 $end
$var wire 1 q Add0~44_combout $end
$var wire 1 r Add0~45 $end
$var wire 1 s Add0~46_combout $end
$var wire 1 t Add0~47 $end
$var wire 1 u Add0~48_combout $end
$var wire 1 v Equal0~0_combout $end
$var wire 1 w Equal0~3_combout $end
$var wire 1 x Equal0~1_combout $end
$var wire 1 y Equal0~2_combout $end
$var wire 1 z Equal0~4_combout $end
$var wire 1 { Equal0~6_combout $end
$var wire 1 | Equal0~7_combout $end
$var wire 1 } state[0]~0_combout $end
$var wire 1 ~ state[1]~3_combout $end
$var wire 1 !! state[2]~1_combout $end
$var wire 1 "! state[2]~2_combout $end
$var wire 1 #! Decoder0~0_combout $end
$var wire 1 $! led[0]~0_combout $end
$var wire 1 %! Mux7~0_combout $end
$var wire 1 &! key[1]~input_o $end
$var wire 1 '! Equal3~0_combout $end
$var wire 1 (! led[0]~4_combout $end
$var wire 1 )! led[0]~reg0_q $end
$var wire 1 *! Decoder0~1_combout $end
$var wire 1 +! led[1]~1_combout $end
$var wire 1 ,! Mux6~0_combout $end
$var wire 1 -! led[1]~reg0_q $end
$var wire 1 .! Mux5~0_combout $end
$var wire 1 /! led[2]~2_combout $end
$var wire 1 0! led[2]~reg0_q $end
$var wire 1 1! Mux4~2_combout $end
$var wire 1 2! Mux4~3_combout $end
$var wire 1 3! led[3]~reg0_q $end
$var wire 1 4! Mux3~0_combout $end
$var wire 1 5! led[4]~3_combout $end
$var wire 1 6! led[4]~reg0_q $end
$var wire 1 7! Mux1~0_combout $end
$var wire 1 8! Mux2~0_combout $end
$var wire 1 9! Mux2~1_combout $end
$var wire 1 :! led[5]~reg0_q $end
$var wire 1 ;! Mux1~1_combout $end
$var wire 1 <! Mux1~2_combout $end
$var wire 1 =! led[6]~reg0_q $end
$var wire 1 >! Mux0~0_combout $end
$var wire 1 ?! Mux0~1_combout $end
$var wire 1 @! led[7]~reg0_q $end
$var wire 1 A! state [2] $end
$var wire 1 B! state [1] $end
$var wire 1 C! state [0] $end
$var wire 1 D! cnt [24] $end
$var wire 1 E! cnt [23] $end
$var wire 1 F! cnt [22] $end
$var wire 1 G! cnt [21] $end
$var wire 1 H! cnt [20] $end
$var wire 1 I! cnt [19] $end
$var wire 1 J! cnt [18] $end
$var wire 1 K! cnt [17] $end
$var wire 1 L! cnt [16] $end
$var wire 1 M! cnt [15] $end
$var wire 1 N! cnt [14] $end
$var wire 1 O! cnt [13] $end
$var wire 1 P! cnt [12] $end
$var wire 1 Q! cnt [11] $end
$var wire 1 R! cnt [10] $end
$var wire 1 S! cnt [9] $end
$var wire 1 T! cnt [8] $end
$var wire 1 U! cnt [7] $end
$var wire 1 V! cnt [6] $end
$var wire 1 W! cnt [5] $end
$var wire 1 X! cnt [4] $end
$var wire 1 Y! cnt [3] $end
$var wire 1 Z! cnt [2] $end
$var wire 1 [! cnt [1] $end
$var wire 1 \! cnt [0] $end
$upscope $end
$upscope $end
$enddefinitions $end
#0
$dumpvars
b0 !
0"
1#
0+
0*
0)
0(
0'
0&
0%
0$
x,
0-
1.
x/
10
11
12
03
04
05
06
07
08
09
0:
0;
0<
0=
1>
1?
1@
0A
0B
0C
1D
0E
0F
0G
0H
1I
0J
0K
0L
0M
1N
0O
0P
0Q
1R
0S
1T
0U
0V
1W
0X
0Y
0Z
0[
1\
0]
0^
0_
1`
0a
0b
0c
1d
0e
0f
0g
1h
0i
0j
0k
1l
0m
0n
0o
1p
0q
0r
0s
1t
0u
1v
1w
1x
1y
1z
1{
0|
0}
0~
0!!
0"!
1#!
1$!
0%!
0&!
0'!
1(!
0)!
1*!
1+!
0,!
0-!
1.!
1/!
00!
01!
02!
03!
14!
15!
06!
07!
08!
09!
0:!
1;!
0<!
0=!
0>!
0?!
0@!
0C!
0B!
0A!
0\!
0[!
0Z!
0Y!
0X!
0W!
0V!
0U!
0T!
0S!
0R!
0Q!
0P!
0O!
0N!
0M!
0L!
0K!
0J!
0I!
0H!
0G!
0F!
0E!
0D!
$end
#5000
1"
1;
1<
0,
1\!
1'!
1A
0>
1B
1C
#10000
0"
0;
0<
1,
#15000
1"
1;
1<
0,
1[!
0\!
0{
0D
0B
0'!
0A
1>
1'!
1E
0C
1D
1B
0E
1C
#20000
0"
0;
0<
1,
#25000
1"
1;
1<
0,
1\!
1A
0>
0D
0B
1E
0C
#30000
0"
0;
0<
1,
#35000
1"
1;
1<
0,
1Z!
0[!
0\!
1F
0E
1D
1B
0A
1>
1G
0F
1E
1C
0B
1H
0G
0C
0H
#40000
0"
0;
0<
1,
#45000
1"
1;
1<
0,
1\!
1A
0>
1B
1C
#50000
0"
0;
0<
1,
#55000
1"
1;
1<
0,
1[!
0\!
0D
0B
0A
1>
1F
0E
0C
1D
1B
1G
0F
1E
1C
1H
0G
0H
#60000
0"
0;
0<
1,
#65000
1"
1;
1<
0,
1\!
1A
0>
0D
0B
1F
0E
0C
1G
1H
#70000
0"
0;
0<
1,
#75000
1"
1;
1<
0,
1Y!
0Z!
0[!
0\!
0I
0G
1{
0F
1E
1D
1B
0A
1>
1J
0H
1I
1G
0E
1C
0B
1K
0J
1H
0C
0K
#80000
0"
0;
0<
1,
#85000
1"
1;
1<
0,
1\!
1A
0>
1B
1C
#90000
0"
0;
0<
1,
#95000
1"
1;
1<
0,
1[!
0\!
0{
0D
0B
0A
1>
1E
0C
1D
1B
0E
1C
#100000
0"
0;
0<
1,
#105000
1"
1;
1<
0,
1\!
1A
0>
0D
0B
1E
0C
#110000
0"
0;
0<
1,
#115000
1"
1;
1<
0,
1Z!
0[!
0\!
1F
0E
1D
1B
0A
1>
0I
0G
0F
1E
1C
0B
1J
0H
1I
1G
0C
1K
0J
1H
0K
#120000
0"
0;
0<
1,
#125000
1"
1;
1<
0,
1\!
1A
0>
1B
1C
#130000
0"
0;
0<
1,
#135000
1"
1;
1<
0,
1[!
0\!
0D
0B
0A
1>
1F
0E
0C
1D
1B
0I
0G
0F
1E
1C
1J
0H
1I
1G
1K
0J
1H
0K
#140000
0"
0;
0<
1,
#145000
1"
1;
1<
0,
1\!
1A
0>
0D
0B
1F
0E
0C
0I
0G
1J
0H
1K
#150000
0"
0;
0<
1,
#155000
1"
1;
1<
0,
1X!
0Y!
0Z!
0[!
0\!
1L
0J
1I
1G
1{
0F
1E
1D
1B
0A
1>
1M
0K
0L
1J
1H
0G
0E
1C
0B
0M
1K
0H
0C
#160000
0"
0;
0<
1,
#165000
1"
1;
1<
0,
1\!
1A
0>
1B
1C
#170000
0"
0;
0<
1,
#175000
1"
1;
1<
0,
1[!
0\!
0{
0D
0B
0A
1>
1E
0C
1D
1B
0E
1C
#180000
0"
0;
0<
1,
#185000
1"
1;
1<
0,
1\!
1A
0>
0D
0B
1E
0C
#190000
0"
0;
0<
1,
#195000
1"
1;
1<
0,
1Z!
0[!
0\!
1F
0E
1D
1B
0A
1>
1G
0F
1E
1C
0B
1H
0G
0C
0H
#200000
0"
0;
0<
1,
#205000
1"
1;
1<
0,
1\!
1A
0>
1B
1C
#210000
0"
0;
0<
1,
#215000
1"
1;
1<
0,
1[!
0\!
0D
0B
0A
1>
1F
0E
0C
1D
1B
1G
0F
1E
1C
1H
0G
0H
#220000
0"
0;
0<
1,
#225000
1"
1;
1<
0,
1\!
1A
0>
0D
0B
1F
0E
0C
1G
1H
#230000
0"
0;
0<
1,
#235000
1"
1;
1<
0,
1Y!
0Z!
0[!
0\!
0I
0G
1{
0F
1E
1D
1B
0A
1>
1L
0J
0H
1I
1G
0E
1C
0B
1M
0K
0L
1J
1H
0C
0M
1K
#240000
0"
0;
0<
1,
#245000
1"
1;
1<
0,
1\!
1|
1A
0>
0K
0H
1B
#250000
0"
0;
0<
1,
#255000
1"
1;
1<
0,
0X!
0Y!
0\!
0'!
0|
0J
0G
0A
1>
1C
0B
0C
#260000
0"
0;
0<
1,
#265000
1"
1;
1<
0,
1\!
1'!
1A
0>
1B
1C
#270000
0"
0;
0<
1,
#275000
1"
1;
1<
0,
1[!
0\!
0{
0D
0B
0'!
0A
1>
1'!
1E
0C
1D
1B
0E
1C
#280000
b1 !
0"
1=
0;
0<
1,
0;!
1%!
1<!
#285000
1"
1;
1<
0,
1\!
1=!
16!
10!
1)!
1A
0>
19
17
15
13
1%
1'
1)
1+
0D
0B
1E
0C
#290000
0"
0;
0<
1,
#295000
1"
1;
1<
0,
1Z!
0[!
0\!
1F
0E
1D
1B
0A
1>
1G
0F
1E
1C
0B
1H
0G
0C
0H
#300000
0"
0;
0<
1,
#305000
1"
1;
1<
0,
1\!
1A
0>
1B
1C
#310000
0"
0;
0<
1,
#315000
1"
1;
1<
0,
1[!
0\!
0D
0B
0A
1>
1F
0E
0C
1D
1B
1G
0F
1E
1C
1H
0G
0H
#320000
0"
0;
0<
1,
#325000
1"
1;
1<
0,
1\!
1A
0>
0D
0B
1F
0E
0C
1G
1H
#330000
0"
0;
0<
1,
#335000
1"
1;
1<
0,
1Y!
0Z!
0[!
0\!
0I
0G
1{
0F
1E
1D
1B
0A
1>
1J
0H
1I
1G
0E
1C
0B
1K
0J
1H
0C
0K
#340000
0"
0;
0<
1,
#345000
1"
1;
1<
0,
1\!
1A
0>
1B
1C
#350000
0"
0;
0<
1,
#355000
1"
1;
1<
0,
1[!
0\!
0{
0D
0B
0A
1>
1E
0C
1D
1B
0E
1C
#360000
0"
0;
0<
1,
#365000
1"
1;
1<
0,
1\!
1A
0>
0D
0B
1E
0C
#370000
0"
0;
0<
1,
#375000
1"
1;
1<
0,
1Z!
0[!
0\!
1F
0E
1D
1B
0A
1>
0I
0G
0F
1E
1C
0B
1J
0H
1I
1G
0C
1K
0J
1H
0K
#380000
0"
0;
0<
1,
#385000
1"
1;
1<
0,
1\!
1A
0>
1B
1C
#390000
0"
0;
0<
1,
#395000
1"
1;
1<
0,
1[!
0\!
0D
0B
0A
1>
1F
0E
0C
1D
1B
0I
0G
0F
1E
1C
1J
0H
1I
1G
1K
0J
1H
0K
#400000
0"
0;
0<
1,
#405000
1"
1;
1<
0,
1\!
1A
0>
0D
0B
1F
0E
0C
0I
0G
1J
0H
1K
#410000
0"
0;
0<
1,
#415000
1"
1;
1<
0,
1X!
0Y!
0Z!
0[!
0\!
1L
0J
1I
1G
1{
0F
1E
1D
1B
0A
1>
1M
0K
0L
1J
1H
0G
0E
1C
0B
0M
1K
0H
0C
#420000
0"
0;
0<
1,
#425000
1"
1;
1<
0,
1\!
1A
0>
1B
1C
#430000
0"
0;
0<
1,
#435000
1"
1;
1<
0,
1[!
0\!
0{
0D
0B
0A
1>
1E
0C
1D
1B
0E
1C
#440000
0"
0;
0<
1,
#445000
1"
1;
1<
0,
1\!
1A
0>
0D
0B
1E
0C
#450000
0"
0;
0<
1,
#455000
1"
1;
1<
0,
1Z!
0[!
0\!
1F
0E
1D
1B
0A
1>
1G
0F
1E
1C
0B
1H
0G
0C
0H
#460000
0"
0;
0<
1,
#465000
1"
1;
1<
0,
1\!
1A
0>
1B
1C
#470000
0"
0;
0<
1,
#475000
1"
1;
1<
0,
1[!
0\!
0D
0B
0A
1>
1F
0E
0C
1D
1B
1G
0F
1E
1C
1H
0G
0H
#480000
0"
0;
0<
1,
#485000
1"
1;
1<
0,
1\!
1A
0>
0D
0B
1F
0E
0C
1G
1H
#490000
0"
0;
0<
1,
#495000
1"
1;
1<
0,
1Y!
0Z!
0[!
0\!
0I
0G
1{
0F
1E
1D
1B
0A
1>
1L
0J
0H
1I
1G
0E
1C
0B
1M
0K
0L
1J
1H
0C
0M
1K
#500000
0"
0;
0<
1,
#505000
1"
1;
1<
0,
1\!
1|
1A
0>
1}
0K
0H
1B
#510000
0"
0;
0<
1,
#515000
1"
1;
1<
0,
1C!
0X!
0Y!
0\!
1>!
1;!
12!
1,!
0%!
0#!
1~
0}
0'!
0|
0J
0G
0A
1>
1?!
0<!
19!
0$!
0~
1}
1C
0B
0C
#520000
0"
0;
0<
1,
#525000
1"
1;
1<
0,
1\!
1@!
0=!
1:!
06!
13!
00!
1-!
0)!
1'!
1A
0>
1:
09
18
07
16
05
14
03
1$
0%
1&
0'
1(
0)
1*
0+
1B
1C
#530000
0"
0;
0<
1,
#535000
1"
1;
1<
0,
1[!
0\!
0{
0D
0B
0'!
0A
1>
1'!
1E
0C
1D
1B
0E
1C
#540000
0"
0;
0<
1,
#545000
1"
1;
1<
0,
1\!
1A
0>
0D
0B
1E
0C
#550000
0"
0;
0<
1,
#555000
1"
1;
1<
0,
1Z!
0[!
0\!
1F
0E
1D
1B
0A
1>
1G
0F
1E
1C
0B
1H
0G
0C
0H
#560000
b0 !
0"
0=
0;
0<
1,
0>!
18!
02!
0,!
0+!
1$!
0?!
09!
#565000
1"
1;
1<
0,
1\!
0@!
0:!
03!
0-!
1A
0>
08!
1+!
0:
08
06
04
0$
0&
0(
0*
1B
1C
#570000
0"
0;
0<
1,
#575000
1"
1;
1<
0,
1[!
0\!
0D
0B
0A
1>
1F
0E
0C
1D
1B
1G
0F
1E
1C
1H
0G
0H
#580000
0"
0;
0<
1,
#585000
1"
1;
1<
0,
1\!
1A
0>
0D
0B
1F
0E
0C
1G
1H
#590000
0"
0;
0<
1,
#595000
1"
1;
1<
0,
1Y!
0Z!
0[!
0\!
0I
0G
1{
0F
1E
1D
1B
0A
1>
1J
0H
1I
1G
0E
1C
0B
1K
0J
1H
0C
0K
#600000
0"
0;
0<
1,
#605000
1"
1;
1<
0,
1\!
1A
0>
1B
1C
#610000
0"
0;
0<
1,
#615000
1"
1;
1<
0,
1[!
0\!
0{
0D
0B
0A
1>
1E
0C
1D
1B
0E
1C
#620000
0"
0;
0<
1,
#625000
1"
1;
1<
0,
1\!
1A
0>
0D
0B
1E
0C
#630000
0"
0;
0<
1,
#635000
1"
1;
1<
0,
1Z!
0[!
0\!
1F
0E
1D
1B
0A
1>
0I
0G
0F
1E
1C
0B
1J
0H
1I
1G
0C
1K
0J
1H
0K
#640000
0"
0;
0<
1,
#645000
1"
1;
1<
0,
1\!
1A
0>
1B
1C
#650000
0"
0;
0<
1,
#655000
1"
1;
1<
0,
1[!
0\!
0D
0B
0A
1>
1F
0E
0C
1D
1B
0I
0G
0F
1E
1C
1J
0H
1I
1G
1K
0J
1H
0K
#660000
0"
0;
0<
1,
#665000
1"
1;
1<
0,
1\!
1A
0>
0D
0B
1F
0E
0C
0I
0G
1J
0H
1K
#670000
0"
0;
0<
1,
#675000
1"
1;
1<
0,
1X!
0Y!
0Z!
0[!
0\!
1L
0J
1I
1G
1{
0F
1E
1D
1B
0A
1>
1M
0K
0L
1J
1H
0G
0E
1C
0B
0M
1K
0H
0C
#680000
0"
0;
0<
1,
#685000
1"
1;
1<
0,
1\!
1A
0>
1B
1C
#690000
0"
0;
0<
1,
#695000
1"
1;
1<
0,
1[!
0\!
0{
0D
0B
0A
1>
1E
0C
1D
1B
0E
1C
#700000
0"
0;
0<
1,
#705000
1"
1;
1<
0,
1\!
1A
0>
0D
0B
1E
0C
#710000
0"
0;
0<
1,
#715000
1"
1;
1<
0,
1Z!
0[!
0\!
1F
0E
1D
1B
0A
1>
1G
0F
1E
1C
0B
1H
0G
0C
0H
#720000
0"
0;
0<
1,
#725000
1"
1;
1<
0,
1\!
1A
0>
1B
1C
#730000
0"
0;
0<
1,
#735000
1"
1;
1<
0,
1[!
0\!
0D
0B
0A
1>
1F
0E
0C
1D
1B
1G
0F
1E
1C
1H
0G
0H
#740000
0"
0;
0<
1,
#745000
1"
1;
1<
0,
1\!
1A
0>
0D
0B
1F
0E
0C
1G
1H
#750000
0"
0;
0<
1,
#755000
1"
1;
1<
0,
1Y!
0Z!
0[!
0\!
0I
0G
1{
0F
1E
1D
1B
0A
1>
1L
0J
0H
1I
1G
0E
1C
0B
1M
0K
0L
1J
1H
0C
0M
1K
#760000
0"
0;
0<
1,
#765000
1"
1;
1<
0,
1\!
1|
1A
0>
0K
0H
1B
#770000
0"
0;
0<
1,
#775000
1"
1;
1<
0,
0X!
0Y!
0\!
0'!
0|
0J
0G
0A
1>
1C
0B
0C
#780000
0"
0;
0<
1,
#785000
1"
1;
1<
0,
1\!
1'!
1A
0>
1B
1C
#790000
0"
0;
0<
1,
#795000
1"
1;
1<
0,
1[!
0\!
0{
0D
0B
0'!
0A
1>
1'!
1E
0C
1D
1B
0E
1C
#800000
b1 !
0"
1=
0;
0<
1,
1>!
12!
1,!
0$!
1?!
19!
#805000
1"
1;
1<
0,
1\!
1@!
1:!
13!
1-!
1A
0>
1:
18
16
14
1$
1&
1(
1*
0D
0B
1E
0C
#810000
0"
0;
0<
1,
#815000
1"
1;
1<
0,
1Z!
0[!
0\!
1F
0E
1D
1B
0A
1>
1G
0F
1E
1C
0B
1H
0G
0C
0H
#820000
0"
0;
0<
1,
#825000
1"
1;
1<
0,
1\!
1A
0>
1B
1C
#830000
0"
0;
0<
1,
#835000
1"
1;
1<
0,
1[!
0\!
0D
0B
0A
1>
1F
0E
0C
1D
1B
1G
0F
1E
1C
1H
0G
0H
#840000
0"
0;
0<
1,
#845000
1"
1;
1<
0,
1\!
1A
0>
0D
0B
1F
0E
0C
1G
1H
#850000
0"
0;
0<
1,
#855000
1"
1;
1<
0,
1Y!
0Z!
0[!
0\!
0I
0G
1{
0F
1E
1D
1B
0A
1>
1J
0H
1I
1G
0E
1C
0B
1K
0J
1H
0C
0K
#860000
0"
0;
0<
1,
#865000
1"
1;
1<
0,
1\!
1A
0>
1B
1C
#870000
0"
0;
0<
1,
#875000
1"
1;
1<
0,
1[!
0\!
0{
0D
0B
0A
1>
1E
0C
1D
1B
0E
1C
#880000
0"
0;
0<
1,
#885000
1"
1;
1<
0,
1\!
1A
0>
0D
0B
1E
0C
#890000
0"
0;
0<
1,
#895000
1"
1;
1<
0,
1Z!
0[!
0\!
1F
0E
1D
1B
0A
1>
0I
0G
0F
1E
1C
0B
1J
0H
1I
1G
0C
1K
0J
1H
0K
#900000
0"
0;
0<
1,
#905000
1"
1;
1<
0,
1\!
1A
0>
1B
1C
#910000
0"
0;
0<
1,
#915000
1"
1;
1<
0,
1[!
0\!
0D
0B
0A
1>
1F
0E
0C
1D
1B
0I
0G
0F
1E
1C
1J
0H
1I
1G
1K
0J
1H
0K
#920000
0"
0;
0<
1,
#925000
1"
1;
1<
0,
1\!
1A
0>
0D
0B
1F
0E
0C
0I
0G
1J
0H
1K
#930000
0"
0;
0<
1,
#935000
1"
1;
1<
0,
1X!
0Y!
0Z!
0[!
0\!
1L
0J
1I
1G
1{
0F
1E
1D
1B
0A
1>
1M
0K
0L
1J
1H
0G
0E
1C
0B
0M
1K
0H
0C
#940000
0"
0;
0<
1,
#945000
1"
1;
1<
0,
1\!
1A
0>
1B
1C
#950000
0"
0;
0<
1,
#955000
1"
1;
1<
0,
1[!
0\!
0{
0D
0B
0A
1>
1E
0C
1D
1B
0E
1C
#960000
0"
0;
0<
1,
#965000
1"
1;
1<
0,
1\!
1A
0>
0D
0B
1E
0C
#970000
0"
0;
0<
1,
#975000
1"
1;
1<
0,
1Z!
0[!
0\!
1F
0E
1D
1B
0A
1>
1G
0F
1E
1C
0B
1H
0G
0C
0H
#980000
0"
0;
0<
1,
#985000
1"
1;
1<
0,
1\!
1A
0>
1B
1C
#990000
0"
0;
0<
1,
#995000
1"
1;
1<
0,
1[!
0\!
0D
0B
0A
1>
1F
0E
0C
1D
1B
1G
0F
1E
1C
1H
0G
0H
#1000000
0"
0;
0<
1,
#1005000
1"
1;
1<
0,
1\!
1A
0>
0D
0B
1F
0E
0C
1G
1H
#1010000
0"
0;
0<
1,
#1015000
1"
1;
1<
0,
1Y!
0Z!
0[!
0\!
0I
0G
1{
0F
1E
1D
1B
0A
1>
1L
0J
0H
1I
1G
0E
1C
0B
1M
0K
0L
1J
1H
0C
0M
1K
#1020000
0"
0;
0<
1,
#1025000
1"
1;
1<
0,
1\!
1|
1A
0>
1~
0}
0K
0H
1B
#1030000
0"
0;
0<
1,
#1035000
1"
1;
1<
0,
1B!
0C!
0X!
0Y!
0\!
0*!
0>!
0;!
02!
0,!
1%!
1}
0'!
0|
0J
0G
0A
1>
0+!
0?!
1<!
09!
0}
1C
0B
0C
#1040000
0"
0;
0<
1,
#1045000
1"
1;
1<
0,
1\!
0@!
1=!
0:!
16!
03!
10!
0-!
1)!
1'!
1A
0>
0:
19
08
17
06
15
04
13
0$
1%
0&
1'
0(
1)
0*
1+
1B
1C
#1050000
0"
0;
0<
1,
#1055000
1"
1;
1<
0,
1[!
0\!
0{
0D
0B
0'!
0A
1>
1'!
1E
0C
1D
1B
0E
1C
#1060000
0"
0;
0<
1,
#1065000
1"
1;
1<
0,
1\!
1A
0>
0D
0B
1E
0C
#1070000
0"
0;
0<
1,
#1075000
1"
1;
1<
0,
1Z!
0[!
0\!
1F
0E
1D
1B
0A
1>
1G
0F
1E
1C
0B
1H
0G
0C
0H
#1080000
0"
0;
0<
1,
#1085000
1"
1;
1<
0,
1\!
1A
0>
1B
1C
#1090000
0"
0;
0<
1,
#1095000
1"
1;
1<
0,
1[!
0\!
0D
0B
0A
1>
1F
0E
0C
1D
1B
1G
0F
1E
1C
1H
0G
0H
#1100000
0"
0;
0<
1,
#1105000
1"
1;
1<
0,
1\!
1A
0>
0D
0B
1F
0E
0C
1G
1H
#1110000
0"
0;
0<
1,
#1115000
1"
1;
1<
0,
1Y!
0Z!
0[!
0\!
0I
0G
1{
0F
1E
1D
1B
0A
1>
1J
0H
1I
1G
0E
1C
0B
1K
0J
1H
0C
0K
#1120000
b0 !
0"
0=
0;
0<
1,
1;!
05!
0/!
1+!
0%!
0<!
#1125000
1"
1;
1<
0,
1\!
0=!
06!
00!
0)!
1A
0>
15!
1/!
1$!
09
07
05
03
0%
0'
0)
0+
1B
1C
#1130000
0"
0;
0<
1,
#1135000
1"
1;
1<
0,
1[!
0\!
0{
0D
0B
0A
1>
1E
0C
1D
1B
0E
1C
#1140000
0"
0;
0<
1,
#1145000
1"
1;
1<
0,
1\!
1A
0>
0D
0B
1E
0C
#1150000
0"
0;
0<
1,
#1155000
1"
1;
1<
0,
1Z!
0[!
0\!
1F
0E
1D
1B
0A
1>
0I
0G
0F
1E
1C
0B
1J
0H
1I
1G
0C
1K
0J
1H
0K
#1160000
0"
0;
0<
1,
#1165000
1"
1;
1<
0,
1\!
1A
0>
1B
1C
#1170000
0"
0;
0<
1,
#1175000
1"
1;
1<
0,
1[!
0\!
0D
0B
0A
1>
1F
0E
0C
1D
1B
0I
0G
0F
1E
1C
1J
0H
1I
1G
1K
0J
1H
0K
#1180000
0"
0;
0<
1,
#1185000
1"
1;
1<
0,
1\!
1A
0>
0D
0B
1F
0E
0C
0I
0G
1J
0H
1K
#1190000
0"
0;
0<
1,
#1195000
1"
1;
1<
0,
1X!
0Y!
0Z!
0[!
0\!
1L
0J
1I
1G
1{
0F
1E
1D
1B
0A
1>
1M
0K
0L
1J
1H
0G
0E
1C
0B
0M
1K
0H
0C
#1200000
0"
0;
0<
1,
#1205000
1"
1;
1<
0,
1\!
1A
0>
1B
1C
#1210000
0"
0;
0<
1,
#1215000
1"
1;
1<
0,
1[!
0\!
0{
0D
0B
0A
1>
1E
0C
1D
1B
0E
1C
#1220000
0"
0;
0<
1,
#1225000
1"
1;
1<
0,
1\!
1A
0>
0D
0B
1E
0C
#1230000
0"
0;
0<
1,
#1235000
1"
1;
1<
0,
1Z!
0[!
0\!
1F
0E
1D
1B
0A
1>
1G
0F
1E
1C
0B
1H
0G
0C
0H
#1240000
0"
0;
0<
1,
#1245000
1"
1;
1<
0,
1\!
1A
0>
1B
1C
#1250000
0"
0;
0<
1,
#1255000
1"
1;
1<
0,
1[!
0\!
0D
0B
0A
1>
1F
0E
0C
1D
1B
1G
0F
1E
1C
1H
0G
0H
#1260000
0"
0;
0<
1,
#1265000
1"
1;
1<
0,
1\!
1A
0>
0D
0B
1F
0E
0C
1G
1H
#1270000
0"
0;
0<
1,
#1275000
1"
1;
1<
0,
1Y!
0Z!
0[!
0\!
0I
0G
1{
0F
1E
1D
1B
0A
1>
1L
0J
0H
1I
1G
0E
1C
0B
1M
0K
0L
1J
1H
0C
0M
1K
#1280000
0"
0;
0<
1,
#1285000
1"
1;
1<
0,
1\!
1|
1A
0>
0K
0H
1B
#1290000
0"
0;
0<
1,
#1295000
1"
1;
1<
0,
0X!
0Y!
0\!
0'!
0|
0J
0G
0A
1>
1C
0B
0C
#1300000
0"
0;
0<
1,
#1305000
1"
1;
1<
0,
1\!
1'!
1A
0>
1B
1C
#1310000
0"
0;
0<
1,
#1315000
1"
1;
1<
0,
1[!
0\!
0{
0D
0B
0'!
0A
1>
1'!
1E
0C
1D
1B
0E
1C
#1320000
0"
0;
0<
1,
#1325000
1"
1;
1<
0,
1\!
1A
0>
0D
0B
1E
0C
#1330000
0"
0;
0<
1,
#1335000
1"
1;
1<
0,
1Z!
0[!
0\!
1F
0E
1D
1B
0A
1>
1G
0F
1E
1C
0B
1H
0G
0C
0H
#1340000
0"
0;
0<
1,
#1345000
1"
1;
1<
0,
1\!
1A
0>
1B
1C
#1350000
0"
0;
0<
1,
#1355000
1"
1;
1<
0,
1[!
0\!
0D
0B
0A
1>
1F
0E
0C
1D
1B
1G
0F
1E
1C
1H
0G
0H
#1360000
0"
0;
0<
1,
#1365000
1"
1;
1<
0,
1\!
1A
0>
0D
0B
1F
0E
0C
1G
1H
#1370000
0"
0;
0<
1,
#1375000
1"
1;
1<
0,
1Y!
0Z!
0[!
0\!
0I
0G
1{
0F
1E
1D
1B
0A
1>
1J
0H
1I
1G
0E
1C
0B
1K
0J
1H
0C
0K
#1380000
0"
0;
0<
1,
#1385000
1"
1;
1<
0,
1\!
1A
0>
1B
1C
#1390000
0"
0;
0<
1,
#1395000
1"
1;
1<
0,
1[!
0\!
0{
0D
0B
0A
1>
1E
0C
1D
1B
0E
1C
#1400000
b1 !
0"
1=
0;
0<
1,
0;!
0+!
1%!
0$!
1<!
#1405000
1"
1;
1<
0,
1\!
1=!
16!
10!
1)!
1A
0>
19
17
15
13
1%
1'
1)
1+
0D
0B
1E
0C
#1410000
0"
0;
0<
1,
#1415000
1"
1;
1<
0,
1Z!
0[!
0\!
1F
0E
1D
1B
0A
1>
0I
0G
0F
1E
1C
0B
1J
0H
1I
1G
0C
1K
0J
1H
0K
#1420000
0"
0;
0<
1,
#1425000
1"
1;
1<
0,
1\!
1A
0>
1B
1C
#1430000
0"
0;
0<
1,
