计组实验/computerExercise/task7/simulation/qsim/task7.msim.vcd
$comment
	File created using the following command:
		vcd file task7.msim.vcd -direction
$end
$date
	Tue Mar 11 20:19:24 2025
$end
$version
	ModelSim Version 10.1d
$end
$timescale
	1ps
$end
$scope module task7_vlg_vec_tst $end
$var reg 1 ! clk $end
$var reg 1 " CLR $end
$var reg 6 # d [6:1] $end
$var reg 6 $ S [6:1] $end
$var wire 1 % q [6] $end
$var wire 1 & q [5] $end
$var wire 1 ' q [4] $end
$var wire 1 ( q [3] $end
$var wire 1 ) q [2] $end
$var wire 1 * q [1] $end
$var wire 1 + sampler $end
$scope module i1 $end
$var wire 1 , gnd $end
$var wire 1 - vcc $end
$var wire 1 . unknown $end
$var tri1 1 / devclrn $end
$var tri1 1 0 devpor $end
$var tri1 1 1 devoe $end
$var wire 1 2 q[6]~output_o $end
$var wire 1 3 q[5]~output_o $end
$var wire 1 4 q[4]~output_o $end
$var wire 1 5 q[3]~output_o $end
$var wire 1 6 q[2]~output_o $end
$var wire 1 7 q[1]~output_o $end
$var wire 1 8 CLR~input_o $end
$var wire 1 9 S[6]~input_o $end
$var wire 1 : clk~input_o $end
$var wire 1 ; clk~inputclkctrl_outclk $end
$var wire 1 < inst4~1_combout $end
$var wire 1 = d[6]~input_o $end
$var wire 1 > inst4~3_combout $end
$var wire 1 ? inst4~0_combout $end
$var wire 1 @ inst4~_emulated_q $end
$var wire 1 A inst4~2_combout $end
$var wire 1 B S[5]~input_o $end
$var wire 1 C inst5~1_combout $end
$var wire 1 D d[5]~input_o $end
$var wire 1 E inst5~3_combout $end
$var wire 1 F inst5~0_combout $end
$var wire 1 G inst5~_emulated_q $end
$var wire 1 H inst5~2_combout $end
$var wire 1 I S[4]~input_o $end
$var wire 1 J inst6~1_combout $end
$var wire 1 K d[4]~input_o $end
$var wire 1 L inst6~3_combout $end
$var wire 1 M inst6~0_combout $end
$var wire 1 N inst6~_emulated_q $end
$var wire 1 O inst6~2_combout $end
$var wire 1 P S[3]~input_o $end
$var wire 1 Q inst3~1_combout $end
$var wire 1 R d[3]~input_o $end
$var wire 1 S inst3~3_combout $end
$var wire 1 T inst3~0_combout $end
$var wire 1 U inst3~_emulated_q $end
$var wire 1 V inst3~2_combout $end
$var wire 1 W S[2]~input_o $end
$var wire 1 X inst2~1_combout $end
$var wire 1 Y d[2]~input_o $end
$var wire 1 Z inst2~3_combout $end
$var wire 1 [ inst2~0_combout $end
$var wire 1 \ inst2~_emulated_q $end
$var wire 1 ] inst2~2_combout $end
$var wire 1 ^ S[1]~input_o $end
$var wire 1 _ inst1~1_combout $end
$var wire 1 ` d[1]~input_o $end
$var wire 1 a inst1~3_combout $end
$var wire 1 b inst1~0_combout $end
$var wire 1 c inst1~_emulated_q $end
$var wire 1 d inst1~2_combout $end
$upscope $end
$upscope $end
$enddefinitions $end
#0
$dumpvars
0!
0"
b1001 #
b1111 $
x*
x)
x(
x'
1&
1%
x+
0,
1-
x.
1/
10
11
12
13
x4
x5
x6
x7
08
09
0:
0;
1<
0=
1>
1?
0@
1A
0B
1C
0D
1E
1F
0G
1H
1I
xJ
1K
xL
0M
0N
xO
1P
xQ
0R
xS
0T
0U
xV
1W
xX
0Y
xZ
0[
0\
x]
1^
x_
1`
xa
0b
0c
xd
$end
#5000
1!
b11001 #
b10001 #
b10101 #
b11111 $
b10111 $
b10011 $
b10001 $
1:
0W
0P
0I
1B
1R
0K
1D
1;
0+
1[
1X
1T
1Q
1M
1J
0F
0E
1]
1V
1O
1Z
0S
1L
16
15
14
1)
1(
1'
xc
#10000
b10111 #
b110001 $
b110000 $
0!
b111 #
b1111 #
b1011 #
b100000 $
b100100 $
0^
1P
0B
19
1Y
0R
1K
0D
0:
0;
1+
1b
1_
0T
1F
0?
0Z
1S
0L
1E
1d
0a
17
1*
0c
#15000
b101011 #
b101010 #
b100110 $
1!
b111010 #
b110010 #
b110110 $
1W
1B
0`
0K
1D
1=
1:
1;
0+
0[
0F
1a
1L
0E
0>
1U
1@
0V
0A
05
02
0(
0%
#20000
1"
b111110 $
b110110 #
b10110 #
0!
b11110 #
b101110 $
18
1R
1K
0=
1I
0B
0:
0;
1+
0_
1[
0X
1T
0Q
0J
1F
0C
1?
0<
0S
0L
1>
0d
0]
0O
0H
0a
1Z
1S
1L
1E
0>
07
06
04
03
0*
0)
0'
0&
0U
0@
#25000
b101111 $
b101011 $
b11111 #
b1111 #
b1011 #
b101011 #
1!
b111011 $
1`
0R
0D
1=
1^
0P
1B
1:
1;
0+
1a
0S
0E
1>
#30000
b101001 #
b11011 $
0"
b100001 #
b11010 $
b100000 #
b110000 #
b110100 #
b10100 #
0!
0^
09
0`
0Y
1R
0K
1D
0=
08
0:
0;
1+
1_
1<
0a
0Z
1S
0L
1E
0>
0[
1Q
0M
0F
1d
1A
1V
1a
1>
0S
17
12
15
1*
1%
1(
#35000
b10010 $
1"
1!
0I
18
1:
1;
0+
1M
0_
1[
0Q
1F
0<
0d
0V
0A
0a
1S
0>
07
05
02
0*
0(
0%
#40000
b10000 $
b0 $
b11100 #
b1 $
b1100 #
b101100 #
0"
0!
1K
0D
1=
1^
0W
0B
08
0:
0;
1+
1L
0E
1>
0b
1X
1C
1Q
1J
1<
1]
1H
1V
1O
1A
1Z
1E
0S
0L
0>
16
13
15
14
12
1)
1&
1(
1'
1%
#45000
b100001 $
b101001 $
b111001 $
b1100 #
1!
0=
1I
1B
19
1:
1;
0+
1>
0M
0F
0?
#50000
b1110 #
b110001 $
b100001 $
0!
0I
0B
1Y
0:
0;
1+
1M
1F
0Z
#55000
b1111 #
b1011 #
b1 $
b101011 #
b101001 #
b10001 $
1!
1B
09
1`
0Y
0R
1=
1:
1;
0+
0F
1?
1a
1Z
1S
0>
#60000
b10000 $
b111001 #
1"
b11000 $
b111101 #
b111000 $
b11101 #
0!
1R
1D
0=
0^
1I
19
18
0:
0;
1+
0S
0E
1>
1b
0J
0<
0X
0Q
1F
0C
0O
0A
0]
0V
0H
1L
0>
0Z
1S
1E
04
02
06
05
03
0'
0%
0)
0(
0&
#65000
b111100 $
b10101 #
b10100 #
b10110 #
b101100 $
0"
b100100 $
b10010 #
b100 $
1!
0`
1Y
0R
0K
1P
0I
0B
09
08
1:
1;
0+
0a
1Z
0S
0L
0T
1J
1C
1<
1_
1X
1O
1H
1A
1d
1]
1L
0E
1>
1a
0Z
14
13
12
17
16
1'
1&
1%
1*
1)
#70000
b110 $
b10 #
b11 #
b1 #
1"
b1110 $
0!
1`
0Y
0D
1W
1I
18
0:
0;
1+
0a
1Z
1E
0X
0J
0_
1T
0C
0<
0]
0O
0d
0H
0A
0Z
0L
1a
0E
0>
06
04
07
03
02
0)
0'
0*
0&
0%
#75000
b1111 $
b1011 $
b101 #
b101011 $
b101001 $
b10101 #
b10111 #
b100001 $
1!
1Y
1R
1D
1^
0W
0P
0I
19
1:
1;
0+
1Z
1S
1E
#80000
b110111 #
b111111 #
b111110 #
b100000 $
b100100 $
b111010 #
b100110 $
b101010 #
b101110 $
0!
0^
1W
1P
1I
0`
0R
1K
0D
1=
0:
0;
1+
0a
0S
1L
0E
1>
#85000
b111110 $
b1010 #
b1011 #
b111010 $
b1111 #
b110010 $
1!
1`
1R
0=
0P
0I
1B
1:
1;
0+
1a
1S
0>
#90000
0"
b10010 $
b1101 #
b10 $
b110 $
b1001 #
0!
08
0Y
0R
1P
0B
09
0:
0;
1+
1_
0[
0T
1J
1C
1<
0Z
0S
1d
1O
1H
1A
0a
0L
1E
1>
17
14
13
12
1*
1'
1&
1%
#95000
b1 #
b100 $
b10001 #
b10000 #
b1100 $
1"
b101100 $
b10100 #
1!
0W
1I
19
0`
1R
0K
1D
18
1:
1;
0+
1[
0J
0<
1a
1S
1L
0E
0_
1T
0C
0O
0A
0d
0H
0L
0>
0a
1E
04
02
07
03
0'
0%
0*
0&
#100000
b110100 #
b111100 $
b110101 #
b11100 $
0!
1B
09
1`
1=
0:
0;
1+
1a
1>
#105000
b11101 $
b110111 #
b11001 $
b100111 #
b10001 $
b100011 #
b11 #
b1 $
b10 #
b100001 $
1!
0`
1Y
0R
0D
0=
1^
0P
0I
0B
19
1:
1;
0+
0a
1Z
0S
0E
0>
#110000
b1010 #
b100000 $
b100100 $
b101100 $
b101010 #
b111100 $
b101011 #
b11100 $
0!
0^
1P
1I
1B
09
1`
1K
1=
0:
0;
1+
1a
1L
1>
#115000
0"
b111011 #
b11000 $
b10000 $
b11011 #
b0 $
1!
08
0P
0I
0B
1D
0=
1:
1;
0+
1_
1X
1Q
1J
1C
1<
1E
0>
1d
1]
1V
1O
1H
1A
0a
0Z
1S
0L
0E
1>
17
16
15
14
13
12
1*
1)
1(
1'
1&
1%
#120000
b11001 #
b11101 #
b1101 #
b1000 $
b101101 #
b11000 $
0!
1I
1B
0Y
1R
0D
1=
0:
0;
1+
0M
0F
1Z
0S
1E
0>
#125000
b101100 #
b101110 #
b101010 #
b1000 $
1!
0B
0`
1Y
0R
1:
1;
0+
1F
1a
0Z
1S
#130000
b1010 $
b101010 $
b101011 #
0!
1`
1W
19
0:
0;
1+
0a
0[
0?
#135000
b100011 #
b101011 $
b110011 #
b100011 $
b110001 #
b100001 $
b1 $
1!
1^
0W
0I
09
0Y
0K
1D
1:
1;
0+
0b
1[
1M
1?
1Z
1L
0E
#140000
1"
b10001 #
b10001 $
b1 #
b11 #
b110001 $
0!
18
1B
19
1Y
0D
0=
0:
0;
1+
1b
0_
0X
0Q
0J
0C
0<
0Z
1E
1>
0d
0]
0V
0O
0H
0A
1a
1Z
0S
0L
0E
0>
07
06
05
04
03
02
0*
0)
0(
0'
0&
0%
#145000
b111001 $
b101001 $
b1001 $
1!
1I
0B
09
1:
1;
0+
#150000
b1101 $
b111 #
b1100 $
0"
b100111 #
b100101 #
0!
0Y
1R
1=
0^
1P
08
0:
0;
1+
0Z
1S
1>
1_
0T
1X
0M
1C
1<
1d
1]
1H
1A
0a
1Z
1E
0>
17
16
13
12
1*
1)
1&
1%
#155000
b101101 #
b100 $
b100100 $
b100000 $
b101001 #
1"
1!
0P
0I
19
0R
1K
18
1:
1;
0+
1T
1M
0<
0S
1L
0_
0X
0C
0A
0d
0]
0H
1>
1a
0Z
0E
02
07
06
03
0%
0*
0)
0&
#160000
b100010 $
b111001 #
b100011 $
b111011 #
b110011 #
b110111 #
0"
0!
1Y
1R
0K
1D
1^
1W
08
0:
0;
1+
1Z
1S
0L
1E
0b
0[
1Q
1J
1C
0?
1V
1O
1H
0S
1L
0E
15
14
13
1(
1'
1&
#165000
b110011 $
b111011 $
b111111 $
b100111 #
b100101 #
b101101 #
1"
1!
0Y
1K
0D
1P
1I
1B
18
1:
1;
0+
0Z
0L
1E
0Q
0J
0C
1b
1[
1?
0V
0O
0H
1S
1L
0E
05
04
03
0(
0'
0&
#170000
b101100 #
b11111 $
b101000 #
b1111 $
b111 $
b11 $
b111000 #
b111010 #
0!
0P
0I
0B
09
0`
1Y
0R
1D
0:
0;
1+
0a
1Z
0S
1E
#175000
b11010 #
b1 $
b10010 #
0"
b10011 #
b100001 $
b10111 #
b110001 $
1!
0W
1B
19
1`
1R
0K
0=
08
1:
1;
0+
1X
0F
0?
1a
1S
0L
0>
0b
1Q
1J
1]
1V
1O
0Z
0S
1L
16
15
14
1)
1(
1'
#180000
b111001 $
b111 #
b101 #
b111011 $
b1101 #
b1001 #
0!
0Y
0R
1K
0D
1W
1I
0:
0;
1+
1Z
1S
0L
0E
0[
0M
#185000
b111010 $
b101001 #
1"
b110010 $
b111001 #
b110001 #
b110101 #
1!
1R
0K
1D
1=
0^
0I
18
1:
1;
0+
0S
1L
1E
1>
1b
1M
0J
1[
0X
0Q
1F
1?
0O
0]
0V
0L
0Z
1S
04
06
05
0'
0)
0(
#190000
b110110 $
b110100 #
b10110 $
b110 $
b110110 #
b100 $
b101 $
b10110 #
0"
b110 #
0!
0`
1Y
0D
0=
1^
0W
1P
0B
09
08
0:
0;
1+
0a
1Z
0E
0>
0b
1X
0T
1C
1<
1J
1]
1H
1A
1O
0Z
1E
1>
1L
16
13
12
14
1)
1&
1%
1'
#195000
b1110 #
b1 $
b10001 $
b1100 #
b10000 $
b101100 #
1"
1!
0^
0P
1B
0Y
1K
1=
18
1:
1;
0+
1b
1T
0C
1Z
0L
0>
0X
0J
0<
0H
0]
0O
0A
0E
0Z
1L
1>
03
06
04
02
0&
0)
0'
0%
#200000
b11000 $
b101000 #
b101001 #
b111000 $
b111010 $
b111001 #
b111110 $
0"
0!
1`
0R
1D
1W
1P
1I
19
08
0:
0;
1+
1a
0S
1E
0[
0T
0M
0?
1_
0F
1d
0a
17
1*
#205000
b101110 $
b111011 #
b11011 #
b11010 #
b1110 $
1!
0`
1Y
0=
0B
09
1:
1;
0+
1a
1Z
0>
1F
1C
1?
1<
1H
1A
0E
1>
13
12
1&
1%
1N
1O
14
1'
#210000
b10010 #
b1100 $
b1000 $
1"
b10000 #
b101000 $
0!
0W
0P
19
0Y
0K
18
0:
0;
1+
1[
1T
0<
0Z
0L
0_
1M
0C
0A
0d
0O
0H
0>
0a
1E
02
07
04
03
0%
0*
0'
0&
0N
#215000
b100000 $
b0 #
b100100 $
b100 $
1!
0D
1P
0I
09
1:
1;
0+
0E
#220000
b100 #
b10100 $
b100100 #
b101100 #
b10110 $
b101110 #
b111110 #
0!
1W
1B
1Y
1R
1K
1D
1=
0:
0;
1+
1Z
1S
1L
1E
1>
#225000
b11110 $
b111010 #
b1110 $
b110010 #
b110000 #
b100000 #
1!
0Y
0R
0K
0D
1I
0B
1:
1;
0+
0Z
0S
0L
0E
#230000
b1111 $
0"
b1011 $
b0 #
b1001 $
b100 #
b11001 $
b10100 #
0!
08
1R
1D
0=
1^
0W
0P
1B
0:
0;
1+
0b
1X
1Q
0M
0F
1<
1S
1E
0>
1]
1V
1A
1Z
0S
1>
16
15
12
1)
1(
1%
#235000
b11100 #
b11110 #
b11011 $
b1011 $
b1110 #
1!
1W
0B
1Y
1K
0D
1:
1;
0+
0[
1F
1C
0Z
1L
0E
1H
1E
13
1&
#240000
b1111 #
b11 $
1"
b101111 #
b101011 #
b100011 #
b100001 #
b1 $
b110001 #
0!
0W
0I
1`
0Y
0R
0K
1D
1=
18
0:
0;
1+
1[
0X
1M
1a
1Z
1S
0L
0E
0>
1b
0Q
0C
0<
0]
0V
0H
0A
0Z
0S
1E
1>
06
05
03
02
0)
0(
0&
0%
#245000
b100001 $
b110001 $
b110000 #
0"
b100000 #
1!
0`
0D
1B
19
08
1:
1;
0+
0a
0E
0F
0?
0b
1X
1Q
1J
1]
1V
1O
1Z
1S
1L
16
15
14
1)
1(
1'
#250000
b101000 #
b101010 #
b110011 $
b100011 $
b101011 #
b111011 #
0!
1W
0B
1`
1Y
1K
1D
0:
0;
1+
0[
1F
1C
1a
0Z
0L
1E
1H
0E
13
1&
#255000
b100010 $
b100110 $
b101110 $
b11011 #
b11111 #
b10111 #
b10101 #
b10100 #
b100 #
1!
0`
0Y
1R
0K
0D
0=
0^
1P
1I
1:
1;
0+
0a
1Z
0S
1L
1E
0>
1b
1_
0T
0M
1d
1a
17
1*
1@
1A
12
1%
#260000
b1110 $
b1010 $
b10 $
b100100 #
b101100 #
b101110 #
b111110 #
0!
1Y
1K
1D
1=
0P
0I
09
0:
0;
1+
0Z
0L
0E
1>
1T
1M
1?
1<
0>
0@
#265000
b10010 $
b111010 #
b110010 $
b111010 $
b11010 #
b11000 #
b1000 #
1!
0Y
0R
0D
0=
1I
1B
19
1:
1;
0+
1Z
1S
1E
1>
0M
0F
0?
#270000
1"
b111000 $
b111001 $
b111101 $
b101101 $
b1100 #
b1101 $
b101100 #
b111100 #
0!
18
1R
1D
1=
1^
0W
1P
0B
09
0:
0;
1+
0_
1[
0X
0Q
1M
0J
1F
0C
1?
0<
0S
0E
0>
0d
0]
0V
0O
0H
0A
0a
0Z
1S
1L
1E
1>
07
06
05
04
03
02
0*
0)
0(
0'
0&
0%
#275000
b110100 #
b101 $
b110110 #
0"
b111 $
b100111 $
b10110 #
b110 #
1!
1W
0I
19
1Y
0K
0D
0=
08
1:
1;
0+
0[
1J
0?
1Z
0L
0E
0>
0b
0T
1C
1O
1H
1L
1E
14
13
1'
1&
#280000
b10 #
b1010 #
1"
b100101 $
0!
18
0W
0R
1K
0:
0;
1+
1b
1[
1T
0J
0C
1?
0S
0L
0O
0H
1L
0E
04
03
0'
0&
#285000
b1011 #
b100100 $
b100000 $
b101011 #
b101111 #
0"
1!
0^
0P
1`
1R
1=
08
1:
1;
0+
1_
1Q
1a
1S
1>
1X
1J
1C
0?
1d
1V
1]
1O
1H
0a
0S
0Z
0L
1E
17
15
16
14
13
1*
1(
1)
1'
1&
#290000
b110000 $
b111000 $
b101101 #
b11000 $
b100101 #
b100100 #
b11001 $
b100 #
b0 #
1"
0!
0`
0Y
0R
0K
0=
1^
1I
1B
09
18
0:
0;
1+
1a
1Z
1S
1L
0>
0_
0J
0C
1?
0X
0Q
0d
0O
0H
0]
0V
0a
0L
0E
0Z
0S
07
04
03
06
05
0*
0'
0&
0)
0(
#295000
b10000 #
b11101 $
b1101 $
b101 $
b100101 $
b110000 #
1!
1P
0I
0B
19
1D
1=
1:
1;
0+
1E
1>
#300000
b100100 $
b110100 #
0"
b10100 #
0!
1R
0=
0^
08
0:
0;
1+
1S
0>
1_
1X
0T
1J
1C
0?
1d
1]
1O
1H
1a
1Z
1L
0E
17
16
14
13
1*
1)
1'
1&
#305000
b11100 #
b11101 #
b110100 $
b110101 $
b11001 #
b111001 #
1!
1^
1B
1`
0R
1K
1=
1:
1;
0+
0b
0F
0a
0S
0L
1>
1U
1V
15
1(
#310000
b110111 $
b110011 $
1"
b111000 #
b11000 #
0!
18
0`
0=
1W
0P
0:
0;
1+
1b
0_
0X
1T
0J
1F
0C
1?
1a
0>
0d
0]
0V
0O
0H
0a
0Z
1L
1E
07
06
05
04
03
0*
0)
0(
0'
0&
0U
#315000
b11010 #
b1010 #
b1110 #
b110001 $
b110101 $
b1111 #
b101111 #
1!
0W
1P
1`
1Y
1R
0D
1=
1:
1;
0+
1a
1Z
1S
0E
1>
#320000
b111101 $
b11101 $
b100111 #
b11100 $
b100101 #
b100001 #
b11000 $
0!
0Y
0R
0K
0^
0P
1I
09
0:
0;
1+
0Z
0S
0L
#325000
0"
b11010 $
b10010 $
b100011 #
b100111 #
b10110 $
1!
08
1Y
1R
1W
1P
0I
1:
1;
0+
1_
0[
0T
1J
0F
1<
1Z
1S
1d
1O
1A
0a
1L
0>
17
14
12
1*
1'
1%
#330000
b110111 #
b110110 $
b110100 $
b111100 $
b110011 #
0!
0W
1I
19
0R
1D
0:
0;
1+
1[
1X
0M
0?
0S
1E
1]
0Z
16
1)
#335000
b101100 $
b110010 #
b111010 #
b101101 $
1"
b101010 #
b1101 $
b101 $
b101110 #
1!
0`
1R
1K
0D
1^
0I
0B
09
18
1:
1;
0+
1a
1S
0L
0E
0_
1M
0J
1F
1?
0<
0X
1T
0d
0O
0A
0]
0a
1L
1>
1Z
07
04
02
06
0*
0'
0%
0)
#340000
b1 $
b11 $
b100110 #
b10 $
0"
b100010 #
0!
0R
0K
0^
1W
0P
08
0:
0;
1+
0S
0L
1_
0[
1Q
1J
1C
1<
1d
1V
1O
1H
1A
1a
1S
1L
1E
0>
17
15
14
13
12
1*
1(
1'
1&
1%
#345000
b100000 #
b100010 $
b101010 $
b101110 $
b101100 $
b101000 #
1"
1!
0W
1P
1I
19
0Y
1K
18
1:
1;
0+
1[
0Q
0J
0<
0Z
0L
0_
0C
0V
0O
0A
0d
0H
0S
1L
1>
0a
0E
05
04
02
07
03
0(
0'
0%
0*
0&
#350000
b1000 #
b11000 #
b101101 $
b11010 #
b100101 $
0"
0!
1^
0I
1Y
1D
0=
08
0:
0;
1+
0b
1J
1Z
1E
0>
1X
0T
1C
0?
1O
1]
1H
0L
0Z
0E
14
16
13
1'
1)
1&
#355000
b11110 #
b100111 $
b10110 #
b110110 #
b110100 #
1!
1W
0Y
1R
0K
1=
1:
1;
0+
0[
1Z
1S
1L
1>
#360000
b110101 #
b111 $
b11 $
b100101 #
b1011 $
1"
b101101 #
0!
0P
1I
09
1`
1K
0D
18
0:
0;
1+
1T
0J
1?
1a
0L
1E
1b
1[
0X
0C
0O
0]
0H
1L
0Z
0E
04
06
03
0'
0)
0&
#365000
b11011 $
b11010 $
b101001 #
b11000 $
b1001 #
b1011 #
b1010 #
b11010 #
b10000 $
b10010 #
1!
0`
1Y
0R
0K
1D
0=
0^
0W
0I
1B
1:
1;
0+
0a
1Z
0S
0L
1E
0>
#370000
b110000 $
b110100 $
b100100 $
b100101 $
b10110 #
b10100 #
b100 #
b1100 #
0!
0Y
1R
1K
0D
1^
1P
0B
19
0:
0;
1+
0Z
1S
1L
0E
#375000
b1101 #
b101101 $
b1101 $
b1001 $
b11001 $
b11000 $
b1111 #
1!
0^
0P
1I
1B
09
1`
1Y
1:
1;
0+
1a
1Z
#380000
b101111 #
b111111 #
b110111 #
b110110 #
b10000 $
b110000 $
b110100 $
b100100 $
b100101 $
b110100 #
0!
1^
1P
0I
0B
19
0`
0Y
0K
1D
1=
0:
0;
1+
0a
0Z
0L
1E
1>
#385000
0"
b100111 $
b10100 #
b100 #
b1100 #
b101111 $
b1111 $
b1011 $
b11011 $
b11010 $
1!
08
1K
0D
0=
0^
1W
0P
1I
1B
09
1:
1;
0+
1_
0[
1Q
0M
0F
1<
1L
0E
0>
1d
1V
1A
1a
0S
1>
17
15
12
1*
1(
1%
#390000
b1110 #
b11000 $
b10000 $
b110000 $
b110100 $
b100100 $
0!
0W
1P
0I
0B
19
1Y
0:
0;
1+
1[
1X
0T
1M
1J
1F
1C
0?
1Z
1]
1O
1H
0Z
0L
1E
16
14
13
1)
1'
1&
#395000
b1010 #
1"
b101010 #
b100010 #
b100000 #
b100000 $
b110000 $
1!
18
0P
1B
0Y
0R
0K
1=
1:
1;
0+
0_
0X
1T
0Q
0J
0C
1?
0<
1Z
1S
1L
0>
0d
0]
0V
0O
0H
0A
0a
0Z
0S
0L
0E
1>
07
06
05
04
03
02
0*
0)
0(
0'
0&
0%
#400000
b110001 $
b110011 $
b111011 $
b0 #
0!
0=
1^
1W
1I
0:
0;
1+
0>
#405000
b1 #
b11011 $
b11 #
b1011 $
b1010 $
b10 $
b100011 #
1!
0^
0I
0B
09
1`
1Y
1=
1:
1;
0+
1a
1Z
1>
#410000
b100111 #
0"
b101111 #
b110 $
b101110 #
b111 $
b1110 #
0!
08
1^
1P
0`
1R
1K
0=
0:
0;
1+
0b
0[
0T
1J
1C
1<
0a
1S
1L
0>
1O
1H
1A
0L
1E
1>
14
13
12
1'
1&
1%
#415000
1"
b110 #
b11 $
b111 #
b100111 #
1!
18
0P
1`
0K
1=
1:
1;
0+
1b
1[
1T
0J
0C
0<
1a
1L
0>
0O
0H
0A
0L
0E
1>
04
03
02
0'
0&
0%
#420000
b100011 #
b10 $
0"
b100010 #
b10 #
0!
0^
0`
0R
0=
08
0:
0;
1+
1_
0a
0S
0>
0[
1Q
1J
1C
1<
1d
1V
1O
1H
1A
1a
1S
1L
1E
1>
17
15
14
13
12
1*
1(
1'
1&
1%
#425000
b100010 $
b0 #
b101010 $
b101110 $
b100 #
1"
1!
0Y
1R
1P
1I
19
18
1:
1;
0+
0Z
0S
0Q
0J
0<
0_
1[
0C
0V
0O
0A
0d
0H
1S
0L
0>
0a
0E
05
04
02
07
03
0(
0'
0%
0*
0&
#430000
b10100 #
b101100 $
b111100 $
b11100 #
b111101 $
b11101 #
b111101 #
b11101 $
0"
0!
1^
0W
1B
09
1`
1K
1D
1=
08
0:
0;
1+
0b
1X
0F
1<
1a
1L
1E
1>
0T
0M
1]
1A
1Z
0>
16
12
1)
1%
#435000
b111001 #
b101001 #
b11111 $
b100001 #
b1 #
1!
1W
0R
0K
0D
0=
1:
1;
0+
0[
0S
0L
0E
1>
1c
1U
1N
1G
1d
1V
1O
1H
17
15
14
13
1*
1(
1'
1&
#440000
b11011 $
b11010 $
b0 #
b111010 $
1"
b10000 #
b111000 $
b11000 #
b111000 #
0!
0`
1K
1D
1=
0^
0W
0P
19
18
0:
0;
1+
0a
1L
1E
0>
1b
1[
0X
1T
0<
1M
1F
0d
0]
0V
0A
0O
0H
0Z
1>
07
06
05
02
04
03
0*
0)
0(
0%
0'
0&
0c
0U
0N
0G
#445000
b110000 $
b111100 #
b110100 $
b10100 $
0"
b101100 #
b10110 $
b100100 #
1!
1R
0K
0D
1W
1P
0I
09
08
1:
1;
0+
1S
0L
0E
0[
0T
1J
1<
1_
0F
1O
1A
1d
1L
0>
1a
14
12
17
1'
1%
1*
#450000
b10111 $
b100 #
b10011 $
b110011 $
1"
0!
0=
1^
0P
19
18
0:
0;
1+
1>
0_
1T
0<
1[
0J
1F
0d
0A
0O
0a
0>
0L
07
02
04
0*
0%
0'
#455000
b100011 $
b0 #
b10000 #
b100001 $
b11000 #
b100000 $
b0 $
0"
1!
0R
1K
1D
0^
0W
0B
09
08
1:
1;
0+
0S
1L
1E
1_
1X
1C
1<
1Q
1J
1d
1]
1H
1A
1V
1O
1a
1Z
0E
1>
1S
0L
17
16
13
12
15
14
1*
1)
1&
1%
1(
1'
#460000
b11001 #
b100 $
b11101 #
b101 $
b100101 $
0!
1^
1P
19
1`
1R
0:
0;
1+
0b
0T
0?
0a
0S
#465000
b101101 $
b111101 #
b111101 $
b111111 $
1"
b111100 #
b111011 $
b11011 $
1!
0`
1=
1W
0P
1I
1B
09
18
1:
1;
0+
1a
0>
0X
1T
0Q
0J
0C
1?
0<
1b
0_
0]
0V
0O
0H
0A
0d
0Z
1S
1L
1E
1>
0a
06
05
04
03
02
07
0)
0(
0'
0&
0%
0*
#470000
b101100 #
b10011 $
b1100 #
b11 $
0"
b111 $
b100111 $
0!
1P
0I
0B
19
0D
0=
08
0:
0;
1+
0T
1J
1C
0?
0E
0>
0b
0[
1O
1H
0L
1E
14
13
1'
1&
#475000
b1000 #
b100110 $
b100100 $
b1001 #
b101100 $
b101001 #
b101000 $
1!
0^
0W
0P
1I
1`
0R
1=
1:
1;
0+
1b
1_
1[
1X
1T
1Q
0M
1a
0S
1>
1d
1]
1V
0a
1Z
1S
17
16
15
1*
1)
1(
#480000
1"
b101010 $
b100010 $
b1001 #
0!
18
0=
1W
0I
0:
0;
1+
0_
0X
0Q
1M
0J
0C
1?
0>
0d
0]
0V
0O
0H
1a
0Z
0S
1L
0E
07
06
05
04
03
0*
0)
0(
0'
0&
#485000
b1011 #
b11011 #
b110010 $
b11111 #
b111010 $
1!
1I
1B
1Y
1R
1D
1:
1;
0+
1Z
1S
1E
#490000
b10111 #
b11010 $
b11011 $
b11111 $
b11101 $
b10101 #
0!
1^
0W
1P
09
0Y
0K
0:
0;
1+
0Z
0L
#495000
b10100 #
b110100 #
b111101 $
1!
19
0`
1=
1:
1;
0+
0a
1>
#500000
0"
b101101 $
b110000 #
b100101 $
b111000 #
b101 $
0!
08
0R
1K
0I
0B
09
0:
0;
1+
0b
1X
0T
1J
1C
1<
0S
1L
1]
1O
1H
1A
1Z
0L
0E
0>
16
14
13
12
1)
1'
1&
1%
#505000
b101000 #
b100 $
b101001 #
b100001 #
b100100 $
1!
0^
19
1`
0K
0D
1:
1;
0+
1b
1_
0?
1a
1L
1E
1d
0a
17
1*
#510000
b100000 $
b1 #
b110000 $
b101 #
b10101 #
b10100 #
b11100 #
0!
0`
1R
1K
1D
0=
0P
1B
0:
0;
1+
1a
1S
0L
0E
1>
1T
1Q
0F
1V
0S
15
1(
#515000
b110010 $
b11110 #
1"
b111010 $
b11010 #
b1010 #
b1011 #
b11 #
1!
1`
1Y
0R
0K
0D
1W
1I
18
1:
1;
0+
0a
0Z
1S
1L
1E
0X
0J
0_
0Q
1F
0C
1?
0<
0]
0O
0d
0V
0H
0A
1Z
0L
1a
0S
0E
0>
06
04
07
05
03
02
0)
0'
0*
0(
0&
0%
#520000
b111110 $
b111100 $
b1 #
b101 #
b100 #
0!
0`
0Y
1R
0W
1P
0:
0;
1+
0a
0Z
1S
#525000
b111101 $
b100100 #
b101101 $
b100110 #
b100010 #
1!
1Y
0R
1=
1^
0B
1:
1;
0+
1Z
0S
1>
#530000
b1101 $
b110010 #
b1100 $
b10010 #
b11100 $
b10000 #
0!
0Y
1D
0=
0^
1B
09
0:
0;
1+
0Z
1E
0>
#535000
0"
b10100 $
b11000 #
b10110 $
b11001 #
b110110 $
b110111 $
1!
08
1`
1K
1^
1W
0I
19
1:
1;
0+
0b
0[
0T
1J
0F
0?
1a
1L
1O
0L
14
1'
#540000
b110011 $
1"
b11000 #
b110010 $
0!
18
0`
0^
0P
0:
0;
1+
1b
1[
1T
0J
1F
1?
0a
0O
1L
04
0'
#545000
b111000 #
b111010 #
b110010 #
b110000 $
b110100 $
1!
0W
1P
1Y
0K
1=
1:
1;
0+
1Z
0L
1>
#550000
b100010 #
b10100 $
b100000 #
b101000 #
b10000 $
0!
0P
09
0Y
1K
0D
0:
0;
1+
0Z
1L
0E
#555000
b101100 #
b0 $
0"
b1 $
b100001 $
1!
1^
0B
19
1R
08
1:
1;
0+
0b
1C
0?
1S
1X
1Q
1J
1H
1]
1V
1O
1E
1Z
0S
0L
13
16
15
14
1&
1)
1(
1'
#560000
b1100 #
b1110 #
b110 #
b100101 $
b10 #
1"
b101 $
0!
1P
09
1Y
0R
0K
0=
18
0:
0;
1+
0Q
1?
0Z
1S
1L
0>
1b
0X
0J
0C
0V
0]
0O
0H
0S
1Z
0L
0E
05
06
04
03
0(
0)
0'
0&
